\relax 
\providecommand\hyper@newdestlabel[2]{}
\catcode `:\active 
\catcode `;\active 
\catcode `!\active 
\catcode `?\active 
\providecommand\HyperFirstAtBeginDocument{\AtBeginDocument}
\HyperFirstAtBeginDocument{\ifx\hyper@anchor\@undefined
\global\let\oldcontentsline\contentsline
\gdef\contentsline#1#2#3#4{\oldcontentsline{#1}{#2}{#3}}
\global\let\oldnewlabel\newlabel
\gdef\newlabel#1#2{\newlabelxx{#1}#2}
\gdef\newlabelxx#1#2#3#4#5#6{\oldnewlabel{#1}{{#2}{#3}}}
\AtEndDocument{\ifx\hyper@anchor\@undefined
\let\contentsline\oldcontentsline
\let\newlabel\oldnewlabel
\fi}
\fi}
\global\let\hyper@last\relax 
\gdef\HyperFirstAtBeginDocument#1{#1}
\providecommand\HyField@AuxAddToFields[1]{}
\providecommand\HyField@AuxAddToCoFields[2]{}
\select@language{english}
\@writefile{toc}{\select@language{english}}
\@writefile{lof}{\select@language{english}}
\@writefile{lot}{\select@language{english}}
\select@language{english}
\@writefile{toc}{\select@language{english}}
\@writefile{lof}{\select@language{english}}
\@writefile{lot}{\select@language{english}}
\select@language{english}
\@writefile{toc}{\select@language{english}}
\@writefile{lof}{\select@language{english}}
\@writefile{lot}{\select@language{english}}
\select@language{english}
\@writefile{toc}{\select@language{english}}
\@writefile{lof}{\select@language{english}}
\@writefile{lot}{\select@language{english}}
\select@language{english}
\@writefile{toc}{\select@language{english}}
\@writefile{lof}{\select@language{english}}
\@writefile{lot}{\select@language{english}}
\select@language{english}
\@writefile{toc}{\select@language{english}}
\@writefile{lof}{\select@language{english}}
\@writefile{lot}{\select@language{english}}
\select@language{english}
\@writefile{toc}{\select@language{english}}
\@writefile{lof}{\select@language{english}}
\@writefile{lot}{\select@language{english}}
\select@language{english}
\@writefile{toc}{\select@language{english}}
\@writefile{lof}{\select@language{english}}
\@writefile{lot}{\select@language{english}}
\citation{1}
\citation{2}
\citation{3}
\citation{4,5,6}
\citation{7}
\citation{8,9,10,11}
\citation{12,13}
\citation{14}
\citation{15}
\citation{16,17,18,19,20,21,22,23,24,25,26,27,28,29,30,31,32,33,34,35,36,37,38,39,40,41,42,43,44,45,46,47,48,49,50,51,52,53,54,55,56,57,58,59,60,61,62,63,64,65,66,67,68}
\citation{69,70,71,72,73,74,75,76,77,78,79,80,81,82,83,84,85,86,87,88,89,90,91,92,93,94,95,96,97,98,99,100}
\citation{101,102,103,104,105,106,107,108,109,110,111,112,113,114,115,116,117,118,119,120,121,122}
\@writefile{toc}{\contentsline {section}{\tocsection {}{1}{Introduction}}{468}{section.1}}
\citation{123,124,125,126,127,128,129,130,131,132,133,134,135}
\citation{123}
\citation{123}
\citation{136}
\citation{137}
\@writefile{toc}{\contentsline {section}{\tocsection {}{2}{Ordinary topological phases}}{469}{section.2}}
\@writefile{toc}{\contentsline {subsection}{\tocsubsection {}{2.1}{One-dimensional wave topological insulators}}{469}{subsection.3}}
\citation{138}
\citation{137,139}
\citation{140}
\citation{141}
\citation{123}
\citation{142}
\citation{143}
\citation{144}
\citation{145,146}
\citation{145}
\citation{146}
\citation{147,148}
\citation{149,150}
\@writefile{toc}{\contentsline {subsection}{\tocsubsection {}{2.2}{Chern wave insulators}}{470}{subsection.5}}
\newlabel{eq1}{{1}{470}{Chern wave insulators}{equation.6}{}}
\@writefile{lof}{\contentsline {figure}{\numberline {1}{\ignorespaces Topological wave insulators. a,\nonbreakingspace b, Realization of a one-dimensional electromagnetic topological insulator (based on the SSH scheme) in an array of coupled micro ring resonators fabricated on InGaAsP quantum wells. c,\nonbreakingspace d,\nonbreakingspace Realization of the SSH model in acoustics based on cylindrical waveguides with alternating cross-sectional areas, tuning the strengths of the coupling coefficients. e,\nonbreakingspace f,\nonbreakingspace Two-dimensional Chern wave insulators were firstly realized in electromagnetics based on a square lattice of magnetically-biased gyromagnetic ferrite rods, implemented inside a microwave waveguide. g,\nonbreakingspace h,\nonbreakingspace Realization of a Chern insulator in acoustics by constructing a hexagonal lattice of sonic ring cavities filled with rotationally biased moving fluids. i,\nonbreakingspace j,\nonbreakingspace Photonic realization of $\math@bb  {Z}_{2}$ wave insulating phases based on a metamaterial with strong bi-anisotropic behavior, providing TE and TM polarized modes with opposite spin-orbit forces. k,\nonbreakingspace l,\nonbreakingspace A strategy to achieve acoustic versions of $\math@bb  {Z}_{2}$ insulators is to expand the primitive unit-cell of a hexagonal lattice to a larger one, and use the corresponding folded degenerate Bloch states as pseudo-spins. m,\nonbreakingspace n,\nonbreakingspace Photonic realization of Valley Hall insulators based on a zigzag edge domain wall of two crystals with opposite on-site potential organizations. o,\nonbreakingspace p,\nonbreakingspace Realization of Valley Hall insulators in a sonic crystal consisting of triangular polymethyl methacrylate rods positioned in a triangular-lattice with opposite rotation angles. q,\nonbreakingspace r,\nonbreakingspace Photonic analogue of Floquet topological insulator, based on a graphene-like lattice of helical waveguides evanescently coupled to each other. The helicity of the waveguides breaks z-reversal symmetry. s,\nonbreakingspace t,\nonbreakingspace Realization of Floquet topological insulator based on a hexagonal lattice of acoustic trimers, with capacitances modulated in time in a rotating fashion.}}{471}{figure.4}}
\newlabel{fig1}{{1}{471}{Topological wave insulators. a,~b, Realization of a one-dimensional electromagnetic topological insulator (based on the SSH scheme) in an array of coupled micro ring resonators fabricated on InGaAsP quantum wells. c,~d,~Realization of the SSH model in acoustics based on cylindrical waveguides with alternating cross-sectional areas, tuning the strengths of the coupling coefficients. e,~f,~Two-dimensional Chern wave insulators were firstly realized in electromagnetics based on a square lattice of magnetically-biased gyromagnetic ferrite rods, implemented inside a microwave waveguide. g,~h,~Realization of a Chern insulator in acoustics by constructing a hexagonal lattice of sonic ring cavities filled with rotationally biased moving fluids. i,~j,~Photonic realization of $\mathbb {Z}_{2}$ wave insulating phases based on a metamaterial with strong bi-anisotropic behavior, providing TE and TM polarized modes with opposite spin-orbit forces. k,~l,~A strategy to achieve acoustic versions of $\mathbb {Z}_{2}$ insulators is to expand the primitive unit-cell of a hexagonal lattice to a larger one, and use the corresponding folded degenerate Bloch states as pseudo-spins. m,~n,~Photonic realization of Valley Hall insulators based on a zigzag edge domain wall of two crystals with opposite on-site potential organizations. o,~p,~Realization of Valley Hall insulators in a sonic crystal consisting of triangular polymethyl methacrylate rods positioned in a triangular-lattice with opposite rotation angles. q,~r,~Photonic analogue of Floquet topological insulator, based on a graphene-like lattice of helical waveguides evanescently coupled to each other. The helicity of the waveguides breaks z-reversal symmetry. s,~t,~Realization of Floquet topological insulator based on a hexagonal lattice of acoustic trimers, with capacitances modulated in time in a rotating fashion}{figure.4}{}}
\citation{151,152}
\citation{153,154,155,156,157,158,159,160,161,162,163,164,165,166,167,168,169,170,171,172,173,174,175,176,177,178,179,180,181,182,183,184,185,186}
\citation{187}
\citation{188}
\citation{189,190}
\@writefile{toc}{\contentsline {subsection}{\tocsubsection {}{2.3}{$\math@bb  {Z}_{{2}}$ wave insulators}}{472}{subsection.7}}
\citation{191}
\citation{192}
\citation{193,194,195,196,197}
\citation{198,199,200,201}
\citation{202,203,204,205}
\citation{205}
\citation{191}
\citation{206}
\citation{207}
\citation{208,209,210,211,212,213,214,215,216,217,218,219,220,221,222,223,224,225,226,227,228,229,230,231,232,233,234,235,236,237,238,239,240,241,242,243,244,245}
\citation{246}
\@writefile{toc}{\contentsline {subsection}{\tocsubsection {}{2.4}{Valley Hall wave insulators}}{473}{subsection.8}}
\citation{247}
\citation{248}
\citation{249,250,251}
\citation{252}
\citation{253,254,255,256,257,258,259,260,261,262,263,264,265,266,267}
\citation{268}
\citation{269}
\citation{270,271}
\citation{272}
\citation{273,274,275}
\@writefile{toc}{\contentsline {subsection}{\tocsubsection {}{2.5}{Floquet topological insulators}}{474}{subsection.9}}
\citation{276,277,278,279,280,281,282}
\citation{283,284,285,286,287,288,289,290,291,292,293,294,295,296,297,298,299,300,301,302,303}
\citation{304,305,306,307,308,309,310,311}
\citation{16}
\citation{284}
\citation{312}
\citation{313}
\citation{314}
\citation{315}
\@writefile{toc}{\contentsline {section}{\tocsection {}{3}{Topological semimetals}}{475}{section.10}}
\citation{316,317}
\citation{318,319,320,321,322,323,324,325}
\@writefile{lof}{\contentsline {figure}{\numberline {2}{\ignorespaces Classical wave Weyl semimetals. a,\nonbreakingspace Realization of electromagnetic analogues of topological semimetals based on a crystal with the real-space unit cell shown in the panel, consisting of two inversion-symmetric gyroids made of germanium high-index glasses. b,\nonbreakingspace Band structure of the corresponding nodal semi metallic phase. c,\nonbreakingspace By breaking the spatial inversion symmetry of the unit cell, the line node degeneracy splits into four distinct Weyl points. d,\nonbreakingspace Realization of acoustic topological semimetals in a chiral phononic crystal fabricated using a layer-stacking strategy. The structure consists of stacked layers of air-filled hollow waveguides, connected to each other via spiral hollow channels. e,\nonbreakingspace Band structure of the crystal shown in panel f, exhibiting Weyl degeneracy at K point. f,\nonbreakingspace Fermi arc surface of the corresponding topological states. g,\nonbreakingspace Exploring Weyl physics in a planar 2D geometry, consisting of on-chip ring resonators with dynamic modulation of refractive indices. h,\nonbreakingspace The discrete resonance modes can be pictured as a periodic lattice in the synthetic frequency dimension. i,\nonbreakingspace Band structure of the crystal in the 3D synthetic dimension, exhibiting four Weyl points. }}{476}{figure.11}}
\newlabel{fig2}{{2}{476}{Classical wave Weyl semimetals. a,~Realization of electromagnetic analogues of topological semimetals based on a crystal with the real-space unit cell shown in the panel, consisting of two inversion-symmetric gyroids made of germanium high-index glasses. b,~Band structure of the corresponding nodal semi metallic phase. c,~By breaking the spatial inversion symmetry of the unit cell, the line node degeneracy splits into four distinct Weyl points. d,~Realization of acoustic topological semimetals in a chiral phononic crystal fabricated using a layer-stacking strategy. The structure consists of stacked layers of air-filled hollow waveguides, connected to each other via spiral hollow channels. e,~Band structure of the crystal shown in panel f, exhibiting Weyl degeneracy at K point. f,~Fermi arc surface of the corresponding topological states. g,~Exploring Weyl physics in a planar 2D geometry, consisting of on-chip ring resonators with dynamic modulation of refractive indices. h,~The discrete resonance modes can be pictured as a periodic lattice in the synthetic frequency dimension. i,~Band structure of the crystal in the 3D synthetic dimension, exhibiting four Weyl points}{figure.11}{}}
\citation{326}
\citation{327}
\citation{328}
\citation{329,330}
\citation{331}
\citation{332,333,334,335,336,337,338,339,340,341,342,343,344,345,346}
\@writefile{toc}{\contentsline {section}{\tocsection {}{4}{Higher-order topological insulators}}{477}{section.12}}
\@writefile{lof}{\contentsline {figure}{\numberline {3}{\ignorespaces \fontsize  {9.6}{11.5}\selectfont  Higher-order classical topological insulators. a,\nonbreakingspace Tight binding lattice realizing topological corner modes. b,\nonbreakingspace A circuit design realizing corner modes circuit, consisting of \textit  {LC} tanks coupled to each other via some coupling capacitances. c,\nonbreakingspace Corner impedance profile of the circuit, exhibiting a dominant resonance peak associated with the topological corner mode. d,\nonbreakingspace Realization of higher order topological states in microwaves, based on a square crystal of four identical resonators implemented using H-shaped micro strip transmission lines. e,\nonbreakingspace The measured spectrum of the absorption coefficient, exhibiting in-gap resonances corresponding to the corner state. f,\nonbreakingspace Spatial distribution of absorptance, summed over the shaded bands. g,\nonbreakingspace Acoustic higher order topological insulators based on a Kagome lattice with a non-trivial bulk polarization. The structure consists of coupled acoustic air-filled cylindrical resonators with metal walls. h,\nonbreakingspace Spectrum of normalized density of states obtained from measuring acoustic power at the bulk (yellow), edge (red) and corner (blue) of the crystal. i,\nonbreakingspace Profile of the corresponding corner state. j,\nonbreakingspace Realization of an elastic second order mechanical topological insulator based on a perturbative mechanical metamaterials consisting coupled plates of single-crystal silicon. k,\nonbreakingspace Spectrum of the bulk (blue), edge (orange) and corner (green) modes. l,\nonbreakingspace Profile of the corner mode of the structure at its resonance frequency.}}{478}{figure.13}}
\newlabel{fig3}{{3}{478}{\fontsize {9.6}{11.5}\selectfont Higher-order classical topological insulators. a,~Tight binding lattice realizing topological corner modes. b,~A circuit design realizing corner modes circuit, consisting of \textit {LC} tanks coupled to each other via some coupling capacitances. c,~Corner impedance profile of the circuit, exhibiting a dominant resonance peak associated with the topological corner mode. d,~Realization of higher order topological states in microwaves, based on a square crystal of four identical resonators implemented using H-shaped micro strip transmission lines. e,~The measured spectrum of the absorption coefficient, exhibiting in-gap resonances corresponding to the corner state. f,~Spatial distribution of absorptance, summed over the shaded bands. g,~Acoustic higher order topological insulators based on a Kagome lattice with a non-trivial bulk polarization. The structure consists of coupled acoustic air-filled cylindrical resonators with metal walls. h,~Spectrum of normalized density of states obtained from measuring acoustic power at the bulk (yellow), edge (red) and corner (blue) of the crystal. i,~Profile of the corresponding corner state. j,~Realization of an elastic second order mechanical topological insulator based on a perturbative mechanical metamaterials consisting coupled plates of single-crystal silicon. k,~Spectrum of the bulk (blue), edge (orange) and corner (green) modes. l,~Profile of the corner mode of the structure at its resonance frequency}{figure.13}{}}
\citation{347,348,349,350,351,352}
\citation{353}
\citation{353}
\citation{354}
\citation{355}
\@writefile{toc}{\contentsline {section}{\tocsection {}{5}{Nonlinear topological insulators}}{479}{section.14}}
\@writefile{lof}{\contentsline {figure}{\numberline {4}{\ignorespaces Nonlinear self-induced classical topological insulators. a,\nonbreakingspace A one-dimensional nonlinear topological system, based on a SSH toy model with alternating linear and nonlinear staggered potentials. b,\nonbreakingspace Evolution of the band gap of the SSH array versus the excitation intensity. At low excitation intensities, the SSH array is topologically trivial, with its extra-cell couplings being smaller than the intra-cell ones. Enhancing the excitation intensity, however, closes the band gap of the crystal and re-opens it as topological. c,\nonbreakingspace Evolution of the mode profile of the mid-gap state versus intensity. d,\nonbreakingspace Implementation of the nonlinear topological insulator discussed in Figure\nonbreakingspace \ref  {fig4}a, based on a circuit lattice composed of \textit  {LC} tanks connected to each other via linear capacitances (intra-cell dynamics) and nonlinear varactor diodes (extra-cell dynamics). e,\nonbreakingspace Spectrum of the input admittance of the circuit at high power intensity. The spectrum exhibits a dominant resonance peak, which corresponds to the self-induced topological corner state. f,\nonbreakingspace Voltage distribution of the circuit at the resonance frequency of the corner mode. g,\nonbreakingspace Enhancing the excitation intensity allows one to tune the spectral characteristics of the topological edge mode of a one-dimensional photonic crystal. h,\nonbreakingspace Self-induced topological phase transition in a SSH array consisting of masses connected to each other with two types of alternating nonlinear springs, dubbed as ``stiffening'' (orange) and ``softening'' (blue). i,\nonbreakingspace Self-induced second order topological insulator, based on a circuit lattice of \textit  {LC} tanks, connected to each other with alternating linear and nonlinear capacitors. The circuit supports zero-dimensional topological corner modes, manifesting themselves as a dominant resonance peak in the corner input admittance spectrum of the circuit (bottom panel).}}{480}{figure.15}}
\newlabel{fig4}{{4}{480}{Nonlinear self-induced classical topological insulators. a,~A one-dimensional nonlinear topological system, based on a SSH toy model with alternating linear and nonlinear staggered potentials. b,~Evolution of the band gap of the SSH array versus the excitation intensity. At low excitation intensities, the SSH array is topologically trivial, with its extra-cell couplings being smaller than the intra-cell ones. Enhancing the excitation intensity, however, closes the band gap of the crystal and re-opens it as topological. c,~Evolution of the mode profile of the mid-gap state versus intensity. d,~Implementation of the nonlinear topological insulator discussed in Figure~\ref {fig4}a, based on a circuit lattice composed of \textit {LC} tanks connected to each other via linear capacitances (intra-cell dynamics) and nonlinear varactor diodes (extra-cell dynamics). e,~Spectrum of the input admittance of the circuit at high power intensity. The spectrum exhibits a dominant resonance peak, which corresponds to the self-induced topological corner state. f,~Voltage distribution of the circuit at the resonance frequency of the corner mode. g,~Enhancing the excitation intensity allows one to tune the spectral characteristics of the topological edge mode of a one-dimensional photonic crystal. h,~Self-induced topological phase transition in a SSH array consisting of masses connected to each other with two types of alternating nonlinear springs, dubbed as ``stiffening'' (orange) and ``softening'' (blue). i,~Self-induced second order topological insulator, based on a circuit lattice of \textit {LC} tanks, connected to each other with alternating linear and nonlinear capacitors. The circuit supports zero-dimensional topological corner modes, manifesting themselves as a dominant resonance peak in the corner input admittance spectrum of the circuit (bottom panel)}{figure.15}{}}
\citation{356}
\citation{357}
\citation{357,358,359,360,361,362,363,364,365,366,367,368,369,370,371,372,373,374,375,376,377,378,379,380}
\citation{381}
\@writefile{toc}{\contentsline {section}{\tocsection {}{6}{Applications}}{481}{section.16}}
\@writefile{toc}{\contentsline {subsection}{\tocsubsection {}{6.1}{Robust waveguiding}}{481}{subsection.17}}
\citation{382,383,384,385,386,387,388,389}
\citation{389}
\citation{390,391}
\@writefile{lof}{\contentsline {figure}{\numberline {5}{\ignorespaces Applications of classical wave topological insulators. a,\nonbreakingspace In contrast to any ordinary type of waveguide, the edge mode of the topological insulator discussed in Figure\nonbreakingspace \ref  {fig1}a smoothly flows around a PEC obstacle without backscattering, enabling robust guiding of electromagnetic energy. b,\nonbreakingspace Reflection-less guiding of sound waves using the topological insulator discussed in Figure\nonbreakingspace \ref  {fig1}c. Despite the presence of several types of defects on the way of the edge mode, it flows along the perimeter of the crystal with almost perfect transmission. c,\nonbreakingspace Theoretical realization of the lasing action from the edge mode of a topological insulator, based on an aperiodic topological array of micro ring resonators. d,\nonbreakingspace Experimental demonstration of the lasing action. The lasing mode shows strong robustness to disorder. e,\nonbreakingspace By inducing two topological subspaces of even and odd modes in a SSH array of cylinders arranged inside a monomode acoustic waveguide (top panel), a new class of Fano resonances, namely topological Fano resonances, is obtained (bottom panel). f,\nonbreakingspace Evolution of the spectral line shape of the topological Fano resonance versus disorder strength. g,\nonbreakingspace Topological analog signal processing based on the mid-gap state of a SSH array, built from cylindrical rods arranged inside an acoustic waveguide. Upon exciting the mid-gap state, such a system performs time domain differential equation solving (top signal path), with a strong immunity against imperfection (bottom signal path).}}{482}{figure.18}}
\newlabel{fig5}{{5}{482}{Applications of classical wave topological insulators. a,~In contrast to any ordinary type of waveguide, the edge mode of the topological insulator discussed in Figure~\ref {fig1}a smoothly flows around a PEC obstacle without backscattering, enabling robust guiding of electromagnetic energy. b,~Reflection-less guiding of sound waves using the topological insulator discussed in Figure~\ref {fig1}c. Despite the presence of several types of defects on the way of the edge mode, it flows along the perimeter of the crystal with almost perfect transmission. c,~Theoretical realization of the lasing action from the edge mode of a topological insulator, based on an aperiodic topological array of micro ring resonators. d,~Experimental demonstration of the lasing action. The lasing mode shows strong robustness to disorder. e,~By inducing two topological subspaces of even and odd modes in a SSH array of cylinders arranged inside a monomode acoustic waveguide (top panel), a new class of Fano resonances, namely topological Fano resonances, is obtained (bottom panel). f,~Evolution of the spectral line shape of the topological Fano resonance versus disorder strength. g,~Topological analog signal processing based on the mid-gap state of a SSH array, built from cylindrical rods arranged inside an acoustic waveguide. Upon exciting the mid-gap state, such a system performs time domain differential equation solving (top signal path), with a strong immunity against imperfection (bottom signal path)}{figure.18}{}}
\citation{392}
\citation{383}
\citation{393}
\citation{393}
\citation{394,395,396,397,398,399}
\citation{400}
\@writefile{toc}{\contentsline {subsection}{\tocsubsection {}{6.2}{Lasing}}{483}{subsection.19}}
\@writefile{toc}{\contentsline {subsection}{\tocsubsection {}{6.3}{Fano resonances}}{483}{subsection.20}}
\@writefile{toc}{\contentsline {subsection}{\tocsubsection {}{6.4}{Analog signal processing}}{483}{subsection.21}}
\citation{401,402,403,404,405,406,407}
\citation{408,409,410}
\citation{411}
\citation{412}
\citation{413}
\citation{414,415,416,417,418}
\citation{419,420,421,422,423,424}
\citation{425,426,427}
\citation{428,429}
\citation{430}
\citation{431,432,433}
\citation{434}
\citation{435,436}
\citation{437,438,439,440,441,442,443,444,445,446,447,448,449,450,451,452,453}
\citation{454}
\citation{455,456,457,458}
\citation{459,460,461,462,463,464,465,466,467,468,469,470,471,472,473}
\bibstyle{crunsrt}
\bibdata{crphys20200570}
\bibcite{1}{1}
\@writefile{toc}{\contentsline {section}{\tocsection {}{7}{Discussion and conclusion}}{484}{section.22}}
\bibcite{2}{2}
\bibcite{3}{3}
\bibcite{4}{4}
\bibcite{5}{5}
\bibcite{6}{6}
\bibcite{7}{7}
\bibcite{8}{8}
\bibcite{9}{9}
\bibcite{10}{10}
\bibcite{11}{11}
\bibcite{12}{12}
\bibcite{13}{13}
\bibcite{14}{14}
\bibcite{15}{15}
\bibcite{16}{16}
\bibcite{17}{17}
\bibcite{18}{18}
\bibcite{19}{19}
\bibcite{20}{20}
\bibcite{21}{21}
\bibcite{22}{22}
\bibcite{23}{23}
\bibcite{24}{24}
\bibcite{25}{25}
\bibcite{26}{26}
\bibcite{27}{27}
\bibcite{28}{28}
\bibcite{29}{29}
\bibcite{30}{30}
\bibcite{31}{31}
\bibcite{32}{32}
\bibcite{33}{33}
\bibcite{34}{34}
\bibcite{35}{35}
\bibcite{36}{36}
\bibcite{37}{37}
\@writefile{toc}{\contentsline {section}{\tocsection {}{}{References}}{485}{section*.23}}
\bibcite{38}{38}
\bibcite{39}{39}
\bibcite{40}{40}
\bibcite{41}{41}
\bibcite{42}{42}
\bibcite{43}{43}
\bibcite{44}{44}
\bibcite{45}{45}
\bibcite{46}{46}
\bibcite{47}{47}
\bibcite{48}{48}
\bibcite{49}{49}
\bibcite{50}{50}
\bibcite{51}{51}
\bibcite{52}{52}
\bibcite{53}{53}
\bibcite{54}{54}
\bibcite{55}{55}
\bibcite{56}{56}
\bibcite{57}{57}
\bibcite{58}{58}
\bibcite{59}{59}
\bibcite{60}{60}
\bibcite{61}{61}
\bibcite{62}{62}
\bibcite{63}{63}
\bibcite{64}{64}
\bibcite{65}{65}
\bibcite{66}{66}
\bibcite{67}{67}
\bibcite{68}{68}
\bibcite{69}{69}
\bibcite{70}{70}
\bibcite{71}{71}
\bibcite{72}{72}
\bibcite{73}{73}
\bibcite{74}{74}
\bibcite{75}{75}
\bibcite{76}{76}
\bibcite{77}{77}
\bibcite{78}{78}
\bibcite{79}{79}
\bibcite{80}{80}
\bibcite{81}{81}
\bibcite{82}{82}
\bibcite{83}{83}
\bibcite{84}{84}
\bibcite{85}{85}
\bibcite{86}{86}
\bibcite{87}{87}
\bibcite{88}{88}
\bibcite{89}{89}
\bibcite{90}{90}
\bibcite{91}{91}
\bibcite{92}{92}
\bibcite{93}{93}
\bibcite{94}{94}
\bibcite{95}{95}
\bibcite{96}{96}
\bibcite{97}{97}
\bibcite{98}{98}
\bibcite{99}{99}
\bibcite{100}{100}
\bibcite{101}{101}
\bibcite{102}{102}
\bibcite{103}{103}
\bibcite{104}{104}
\bibcite{105}{105}
\bibcite{106}{106}
\bibcite{107}{107}
\bibcite{108}{108}
\bibcite{109}{109}
\bibcite{110}{110}
\bibcite{111}{111}
\bibcite{112}{112}
\bibcite{113}{113}
\bibcite{114}{114}
\bibcite{115}{115}
\bibcite{116}{116}
\bibcite{117}{117}
\bibcite{118}{118}
\bibcite{119}{119}
\bibcite{120}{120}
\bibcite{121}{121}
\bibcite{122}{122}
\bibcite{123}{123}
\bibcite{124}{124}
\bibcite{125}{125}
\bibcite{126}{126}
\bibcite{127}{127}
\bibcite{128}{128}
\bibcite{129}{129}
\bibcite{130}{130}
\bibcite{131}{131}
\bibcite{132}{132}
\bibcite{133}{133}
\bibcite{134}{134}
\bibcite{135}{135}
\bibcite{136}{136}
\bibcite{137}{137}
\bibcite{138}{138}
\bibcite{139}{139}
\bibcite{140}{140}
\bibcite{141}{141}
\bibcite{142}{142}
\bibcite{143}{143}
\bibcite{144}{144}
\bibcite{145}{145}
\bibcite{146}{146}
\bibcite{147}{147}
\bibcite{148}{148}
\bibcite{149}{149}
\bibcite{150}{150}
\bibcite{151}{151}
\bibcite{152}{152}
\bibcite{153}{153}
\bibcite{154}{154}
\bibcite{155}{155}
\bibcite{156}{156}
\bibcite{157}{157}
\bibcite{158}{158}
\bibcite{159}{159}
\bibcite{160}{160}
\bibcite{161}{161}
\bibcite{162}{162}
\bibcite{163}{163}
\bibcite{164}{164}
\bibcite{165}{165}
\bibcite{166}{166}
\bibcite{167}{167}
\bibcite{168}{168}
\bibcite{169}{169}
\bibcite{170}{170}
\bibcite{171}{171}
\bibcite{172}{172}
\bibcite{173}{173}
\bibcite{174}{174}
\bibcite{175}{175}
\bibcite{176}{176}
\bibcite{177}{177}
\bibcite{178}{178}
\bibcite{179}{179}
\bibcite{180}{180}
\bibcite{181}{181}
\bibcite{182}{182}
\bibcite{183}{183}
\bibcite{184}{184}
\bibcite{185}{185}
\bibcite{186}{186}
\bibcite{187}{187}
\bibcite{188}{188}
\bibcite{189}{189}
\bibcite{190}{190}
\bibcite{191}{191}
\bibcite{192}{192}
\bibcite{193}{193}
\bibcite{194}{194}
\bibcite{195}{195}
\bibcite{196}{196}
\bibcite{197}{197}
\bibcite{198}{198}
\bibcite{199}{199}
\bibcite{200}{200}
\bibcite{201}{201}
\bibcite{202}{202}
\bibcite{203}{203}
\bibcite{204}{204}
\bibcite{205}{205}
\bibcite{206}{206}
\bibcite{207}{207}
\bibcite{208}{208}
\bibcite{209}{209}
\bibcite{210}{210}
\bibcite{211}{211}
\bibcite{212}{212}
\bibcite{213}{213}
\bibcite{214}{214}
\bibcite{215}{215}
\bibcite{216}{216}
\bibcite{217}{217}
\bibcite{218}{218}
\bibcite{219}{219}
\bibcite{220}{220}
\bibcite{221}{221}
\bibcite{222}{222}
\bibcite{223}{223}
\bibcite{224}{224}
\bibcite{225}{225}
\bibcite{226}{226}
\bibcite{227}{227}
\bibcite{228}{228}
\bibcite{229}{229}
\bibcite{230}{230}
\bibcite{231}{231}
\bibcite{232}{232}
\bibcite{233}{233}
\bibcite{234}{234}
\bibcite{235}{235}
\bibcite{236}{236}
\bibcite{237}{237}
\bibcite{238}{238}
\bibcite{239}{239}
\bibcite{240}{240}
\bibcite{241}{241}
\bibcite{242}{242}
\bibcite{243}{243}
\bibcite{244}{244}
\bibcite{245}{245}
\bibcite{246}{246}
\bibcite{247}{247}
\bibcite{248}{248}
\bibcite{249}{249}
\bibcite{250}{250}
\bibcite{251}{251}
\bibcite{252}{252}
\bibcite{253}{253}
\bibcite{254}{254}
\bibcite{255}{255}
\bibcite{256}{256}
\bibcite{257}{257}
\bibcite{258}{258}
\bibcite{259}{259}
\bibcite{260}{260}
\bibcite{261}{261}
\bibcite{262}{262}
\bibcite{263}{263}
\bibcite{264}{264}
\bibcite{265}{265}
\bibcite{266}{266}
\bibcite{267}{267}
\bibcite{268}{268}
\bibcite{269}{269}
\bibcite{270}{270}
\bibcite{271}{271}
\bibcite{272}{272}
\bibcite{273}{273}
\bibcite{274}{274}
\bibcite{275}{275}
\bibcite{276}{276}
\bibcite{277}{277}
\bibcite{278}{278}
\bibcite{279}{279}
\bibcite{280}{280}
\bibcite{281}{281}
\bibcite{282}{282}
\bibcite{283}{283}
\bibcite{284}{284}
\bibcite{285}{285}
\bibcite{286}{286}
\bibcite{287}{287}
\bibcite{288}{288}
\bibcite{289}{289}
\bibcite{290}{290}
\bibcite{291}{291}
\bibcite{292}{292}
\bibcite{293}{293}
\bibcite{294}{294}
\bibcite{295}{295}
\bibcite{296}{296}
\bibcite{297}{297}
\bibcite{298}{298}
\bibcite{299}{299}
\bibcite{300}{300}
\bibcite{301}{301}
\bibcite{302}{302}
\bibcite{303}{303}
\bibcite{304}{304}
\bibcite{305}{305}
\bibcite{306}{306}
\bibcite{307}{307}
\bibcite{308}{308}
\bibcite{309}{309}
\bibcite{310}{310}
\bibcite{311}{311}
\bibcite{312}{312}
\bibcite{313}{313}
\bibcite{314}{314}
\bibcite{315}{315}
\bibcite{316}{316}
\bibcite{317}{317}
\bibcite{318}{318}
\bibcite{319}{319}
\bibcite{320}{320}
\bibcite{321}{321}
\bibcite{322}{322}
\bibcite{323}{323}
\bibcite{324}{324}
\bibcite{325}{325}
\bibcite{326}{326}
\bibcite{327}{327}
\bibcite{328}{328}
\bibcite{329}{329}
\bibcite{330}{330}
\bibcite{331}{331}
\bibcite{332}{332}
\bibcite{333}{333}
\bibcite{334}{334}
\bibcite{335}{335}
\bibcite{336}{336}
\bibcite{337}{337}
\bibcite{338}{338}
\bibcite{339}{339}
\bibcite{340}{340}
\bibcite{341}{341}
\bibcite{342}{342}
\bibcite{343}{343}
\bibcite{344}{344}
\bibcite{345}{345}
\bibcite{346}{346}
\bibcite{347}{347}
\bibcite{348}{348}
\bibcite{349}{349}
\bibcite{350}{350}
\bibcite{351}{351}
\bibcite{352}{352}
\bibcite{353}{353}
\bibcite{354}{354}
\bibcite{355}{355}
\bibcite{356}{356}
\bibcite{357}{357}
\bibcite{358}{358}
\bibcite{359}{359}
\bibcite{360}{360}
\bibcite{361}{361}
\bibcite{362}{362}
\bibcite{363}{363}
\bibcite{364}{364}
\bibcite{365}{365}
\bibcite{366}{366}
\bibcite{367}{367}
\bibcite{368}{368}
\bibcite{369}{369}
\bibcite{370}{370}
\bibcite{371}{371}
\bibcite{372}{372}
\bibcite{373}{373}
\bibcite{374}{374}
\bibcite{375}{375}
\bibcite{376}{376}
\bibcite{377}{377}
\bibcite{378}{378}
\bibcite{379}{379}
\bibcite{380}{380}
\bibcite{381}{381}
\bibcite{382}{382}
\bibcite{383}{383}
\bibcite{384}{384}
\bibcite{385}{385}
\bibcite{386}{386}
\bibcite{387}{387}
\bibcite{388}{388}
\bibcite{389}{389}
\bibcite{390}{390}
\bibcite{391}{391}
\bibcite{392}{392}
\bibcite{393}{393}
\bibcite{394}{394}
\bibcite{395}{395}
\bibcite{396}{396}
\bibcite{397}{397}
\bibcite{398}{398}
\bibcite{399}{399}
\bibcite{400}{400}
\bibcite{401}{401}
\bibcite{402}{402}
\bibcite{403}{403}
\bibcite{404}{404}
\bibcite{405}{405}
\bibcite{406}{406}
\bibcite{407}{407}
\bibcite{408}{408}
\bibcite{409}{409}
\bibcite{410}{410}
\bibcite{411}{411}
\bibcite{412}{412}
\bibcite{413}{413}
\bibcite{414}{414}
\bibcite{415}{415}
\bibcite{416}{416}
\bibcite{417}{417}
\bibcite{418}{418}
\bibcite{419}{419}
\bibcite{420}{420}
\bibcite{421}{421}
\bibcite{422}{422}
\bibcite{423}{423}
\bibcite{424}{424}
\bibcite{425}{425}
\bibcite{426}{426}
\bibcite{427}{427}
\bibcite{428}{428}
\bibcite{429}{429}
\bibcite{430}{430}
\bibcite{431}{431}
\bibcite{432}{432}
\bibcite{433}{433}
\bibcite{434}{434}
\bibcite{435}{435}
\bibcite{436}{436}
\bibcite{437}{437}
\bibcite{438}{438}
\bibcite{439}{439}
\bibcite{440}{440}
\bibcite{441}{441}
\bibcite{442}{442}
\bibcite{443}{443}
\bibcite{444}{444}
\bibcite{445}{445}
\bibcite{446}{446}
\bibcite{447}{447}
\bibcite{448}{448}
\bibcite{449}{449}
\bibcite{450}{450}
\bibcite{451}{451}
\bibcite{452}{452}
\bibcite{453}{453}
\bibcite{454}{454}
\bibcite{455}{455}
\bibcite{456}{456}
\bibcite{457}{457}
\bibcite{458}{458}
\bibcite{459}{459}
\bibcite{460}{460}
\bibcite{461}{461}
\bibcite{462}{462}
\bibcite{463}{463}
\bibcite{464}{464}
\bibcite{465}{465}
\bibcite{466}{466}
\bibcite{467}{467}
\bibcite{468}{468}
\bibcite{469}{469}
\bibcite{470}{470}
\bibcite{471}{471}
\bibcite{472}{472}
\bibcite{473}{473}
\newlabel{tocindent-1}{0pt}
\newlabel{tocindent0}{6.84pt}
\newlabel{tocindent1}{11.71999pt}
\newlabel{tocindent2}{19.03998pt}
\newlabel{tocindent3}{0pt}
\newlabel{tocindent4}{0pt}
\newlabel{tocindent5}{0pt}
\newlabel{TheLastPage}{499}
