\BOOKMARK [1][-]{section.1}{\376\377\0001\000.\000\040\000I\000n\000t\000r\000o\000d\000u\000c\000t\000i\000o\000n}{}% 1
\BOOKMARK [1][-]{section.2}{\376\377\0002\000.\000\040\000O\000r\000d\000i\000n\000a\000r\000y\000\040\000t\000o\000p\000o\000l\000o\000g\000i\000c\000a\000l\000\040\000p\000h\000a\000s\000e\000s}{}% 2
\BOOKMARK [2][-]{subsection.3}{\376\377\0002\000.\0001\000.\000\040\000O\000n\000e\000-\000d\000i\000m\000e\000n\000s\000i\000o\000n\000a\000l\000\040\000w\000a\000v\000e\000\040\000t\000o\000p\000o\000l\000o\000g\000i\000c\000a\000l\000\040\000i\000n\000s\000u\000l\000a\000t\000o\000r\000s}{section.2}% 3
\BOOKMARK [2][-]{subsection.5}{\376\377\0002\000.\0002\000.\000\040\000C\000h\000e\000r\000n\000\040\000w\000a\000v\000e\000\040\000i\000n\000s\000u\000l\000a\000t\000o\000r\000s}{section.2}% 4
\BOOKMARK [2][-]{subsection.7}{\376\377\0002\000.\0003\000.\000\040\000Z\0002\000\040\000w\000a\000v\000e\000\040\000i\000n\000s\000u\000l\000a\000t\000o\000r\000s}{section.2}% 5
\BOOKMARK [2][-]{subsection.8}{\376\377\0002\000.\0004\000.\000\040\000V\000a\000l\000l\000e\000y\000\040\000H\000a\000l\000l\000\040\000w\000a\000v\000e\000\040\000i\000n\000s\000u\000l\000a\000t\000o\000r\000s}{section.2}% 6
\BOOKMARK [2][-]{subsection.9}{\376\377\0002\000.\0005\000.\000\040\000F\000l\000o\000q\000u\000e\000t\000\040\000t\000o\000p\000o\000l\000o\000g\000i\000c\000a\000l\000\040\000i\000n\000s\000u\000l\000a\000t\000o\000r\000s}{section.2}% 7
\BOOKMARK [1][-]{section.10}{\376\377\0003\000.\000\040\000T\000o\000p\000o\000l\000o\000g\000i\000c\000a\000l\000\040\000s\000e\000m\000i\000m\000e\000t\000a\000l\000s}{}% 8
\BOOKMARK [1][-]{section.12}{\376\377\0004\000.\000\040\000H\000i\000g\000h\000e\000r\000-\000o\000r\000d\000e\000r\000\040\000t\000o\000p\000o\000l\000o\000g\000i\000c\000a\000l\000\040\000i\000n\000s\000u\000l\000a\000t\000o\000r\000s}{}% 9
\BOOKMARK [1][-]{section.14}{\376\377\0005\000.\000\040\000N\000o\000n\000l\000i\000n\000e\000a\000r\000\040\000t\000o\000p\000o\000l\000o\000g\000i\000c\000a\000l\000\040\000i\000n\000s\000u\000l\000a\000t\000o\000r\000s}{}% 10
\BOOKMARK [1][-]{section.16}{\376\377\0006\000.\000\040\000A\000p\000p\000l\000i\000c\000a\000t\000i\000o\000n\000s}{}% 11
\BOOKMARK [2][-]{subsection.17}{\376\377\0006\000.\0001\000.\000\040\000R\000o\000b\000u\000s\000t\000\040\000w\000a\000v\000e\000g\000u\000i\000d\000i\000n\000g}{section.16}% 12
\BOOKMARK [2][-]{subsection.19}{\376\377\0006\000.\0002\000.\000\040\000L\000a\000s\000i\000n\000g}{section.16}% 13
\BOOKMARK [2][-]{subsection.20}{\376\377\0006\000.\0003\000.\000\040\000F\000a\000n\000o\000\040\000r\000e\000s\000o\000n\000a\000n\000c\000e\000s}{section.16}% 14
\BOOKMARK [2][-]{subsection.21}{\376\377\0006\000.\0004\000.\000\040\000A\000n\000a\000l\000o\000g\000\040\000s\000i\000g\000n\000a\000l\000\040\000p\000r\000o\000c\000e\000s\000s\000i\000n\000g}{section.16}% 15
\BOOKMARK [1][-]{section.22}{\376\377\0007\000.\000\040\000D\000i\000s\000c\000u\000s\000s\000i\000o\000n\000\040\000a\000n\000d\000\040\000c\000o\000n\000c\000l\000u\000s\000i\000o\000n}{}% 16
\BOOKMARK [1][-]{section*.23}{\376\377\000R\000e\000f\000e\000r\000e\000n\000c\000e\000s}{}% 17
