[
{
    "model": "sites.site",
    "pk": 7,
    "fields": {
        "domain": "opengeomechanics.centre-mersenne.org",
        "name": "ogeo"
    }
},
{
    "model": "ptf.ptfsite",
    "pk": 7,
    "fields": {
        "acro": "ogeo",
        "public": null,
        "prev_pub_date": null,
        "last_pub_date": null
    }
}
]
