[
    {
        "model": "history.HistoryEvent",
        "pk": 1,
        "fields": {
          "type": "import",
          "pid": "",
          "col": "",
          "status": "OK",
          "title": "EUDML",
          "type_error": "",
          "unique_id": "2e6bbb24-68d3-4268-a137-5e74a725b7de",
          "created_on": "2023-10-17T12:03:31.499Z",
          "data": {
            "message": "ok"
          }
        }
    },
    {
        "model": "history.HistoryEvent",
        "fields": {
          "type": "import",
          "pid": "TE__1_2",
          "col": "TE",
          "status": "ERROR",
          "type_error": "1",
          "parent": 1,
          "unique_id": "2e6bbb24-68d3-4268-a137-5e74a725b7de",
          "created_on": "2023-10-17T12:13:31.499Z",
          "data": {
              "message": "error in insert issue.. year not provided "
          }
        }

    }
]
