[
  { "doctype": "article", "author": "Gavrilova, Svetlana", "title": "Refined Littlewood identity for spin Hall–Littlewood symmetric rational functions", "journal": "Algebraic Combinatorics", "pages": "37–51", "publisher": "The Combinatorics Consortium", "volume": "6", "number": "1", "year": "2023", "doi": "10.5802/alco.251" },
  { "doctype": "incollection", "author": "de Possel, René", "title": "Notion générale de mesure et d’intégrale", "booktitle": "Le Séminaire de mathématiques 1934-1935 : Espace de Hilbert", "editor": "Audin, Michèle", "series": "Séminaire dit de Julia annoté par Michèle Audin", "pages": "1–14", "publisher": "CEDRAM", "number": "3", "year": "2014", "doi": "10.5802/mbk.14" }
]
