<?xml version="1.0" encoding="utf-8"?><!--
""" To recover the Python script to generate this SVG, delete the line above -->
<svg xmlns="http://www.w3.org/2000/svg" xmlns:xlink="http://www.w3.org/1999/xlink" width="100%" height="100%" viewBox="-104 -104 208 208">
 <title>Archimedes trammel loci</title>
 <desc>Loci of some points along and beyond a trammel of Archimedes by CMG Lee. In the SVG file, move the pointer over the diagram to move the trammel.</desc>
 <style type="text/css">
  #main         { fill-opacity:0.5; stroke-opacity:0.02; }
  #main:hover   { fill-opacity:0.1; stroke-opacity:0.01; }
  .active:hover { fill-opacity:1;   stroke-opacity:1; stroke-width:5; }
  .inactive     { pointer-events:none; }
  #trigger      { opacity:0; }
 </style>
 <defs>
  <path id="trigger" d="M 0,0 L 269,-15411 H -269"/>
  <g id="trammel" class="inactive">
   <g stroke="#000000">
    <path d="M 0, 0 V -80"/>
    <path d="M 0,20 V -100" stroke-width="1"/>
    <g stroke-width="1">
     <circle cx="0"  cy="20"   r="1.0" fill="#845419"/>
     <circle cx="0"  cy="10"   r="1.0" fill="#ca8023"/>
     <circle cx="0"  cy="0"    r="3.0" fill="#f39929"/>
     <circle cx="0"  cy="-10"  r="1.5" fill="#f0ba77"/>
     <circle cx="0"  cy="-20"  r="1.5" fill="#4bdad1"/>
     <circle cx="0"  cy="-30"  r="1.5" fill="#84dad1"/>
     <circle cx="0"  cy="-40"  r="2.5" fill="#c5dad1"/>
     <circle cx="0"  cy="-50"  r="1.5" fill="#84aead"/>
     <circle cx="0"  cy="-60"  r="1.5" fill="#6dadac"/>
     <circle cx="0"  cy="-70"  r="1.5" fill="#40afad"/>
     <circle cx="0"  cy="-80"  r="3.0" fill="#24afac"/>
     <circle cx="0"  cy="-90"  r="1.0" fill="#cfafac"/>
     <circle cx="0"  cy="-100" r="1.0" fill="#f2afac"/>
    </g>
   </g>
  </g>
<!-- BEGIN_DYNAMIC_DEFS -->

<!--   END_DYNAMIC_DEFS -->
 </defs>
 <circle cx="0" cy="0" r="99999" fill="#ffffff"/>
 <g id="main">
<!-- BEGIN_DYNAMIC_MAIN -->
  <g class="active">
   <use xlink:href="#trammel" transform="translate(40.000) rotate(-30)"/>
   <use xlink:href="#trigger" transform="rotate(30)"/>
  </g>
  <g class="active">
   <use xlink:href="#trammel" transform="translate(42.394) rotate(-32)"/>
   <use xlink:href="#trigger" transform="rotate(32)"/>
  </g>
  <g class="active">
   <use xlink:href="#trammel" transform="translate(44.735) rotate(-34)"/>
   <use xlink:href="#trigger" transform="rotate(34)"/>
  </g>
  <g class="active">
   <use xlink:href="#trammel" transform="translate(47.023) rotate(-36)"/>
   <use xlink:href="#trigger" transform="rotate(36)"/>
  </g>
  <g class="active">
   <use xlink:href="#trammel" transform="translate(49.253) rotate(-38)"/>
   <use xlink:href="#trigger" transform="rotate(38)"/>
  </g>
  <g class="active">
   <use xlink:href="#trammel" transform="translate(51.423) rotate(-40)"/>
   <use xlink:href="#trigger" transform="rotate(40)"/>
  </g>
  <g class="active">
   <use xlink:href="#trammel" transform="translate(53.530) rotate(-42)"/>
   <use xlink:href="#trigger" transform="rotate(42)"/>
  </g>
  <g class="active">
   <use xlink:href="#trammel" transform="translate(55.573) rotate(-44)"/>
   <use xlink:href="#trigger" transform="rotate(44)"/>
  </g>
  <g class="active">
   <use xlink:href="#trammel" transform="translate(57.547) rotate(-46)"/>
   <use xlink:href="#trigger" transform="rotate(46)"/>
  </g>
  <g class="active">
   <use xlink:href="#trammel" transform="translate(59.452) rotate(-48)"/>
   <use xlink:href="#trigger" transform="rotate(48)"/>
  </g>
  <g class="active">
   <use xlink:href="#trammel" transform="translate(61.284) rotate(-50)"/>
   <use xlink:href="#trigger" transform="rotate(50)"/>
  </g>
  <g class="active">
   <use xlink:href="#trammel" transform="translate(63.041) rotate(-52)"/>
   <use xlink:href="#trigger" transform="rotate(52)"/>
  </g>
  <g class="active">
   <use xlink:href="#trammel" transform="translate(64.721) rotate(-54)"/>
   <use xlink:href="#trigger" transform="rotate(54)"/>
  </g>
  <g class="active">
   <use xlink:href="#trammel" transform="translate(66.323) rotate(-56)"/>
   <use xlink:href="#trigger" transform="rotate(56)"/>
  </g>
  <g class="active">
   <use xlink:href="#trammel" transform="translate(67.844) rotate(-58)"/>
   <use xlink:href="#trigger" transform="rotate(58)"/>
  </g>
  <g class="active">
   <use xlink:href="#trammel" transform="translate(69.282) rotate(-60)"/>
   <use xlink:href="#trigger" transform="rotate(60)"/>
  </g>
  <g class="active">
   <use xlink:href="#trammel" transform="translate(70.636) rotate(-62)"/>
   <use xlink:href="#trigger" transform="rotate(62)"/>
  </g>
  <g class="active">
   <use xlink:href="#trammel" transform="translate(71.904) rotate(-64)"/>
   <use xlink:href="#trigger" transform="rotate(64)"/>
  </g>
  <g class="active">
   <use xlink:href="#trammel" transform="translate(73.084) rotate(-66)"/>
   <use xlink:href="#trigger" transform="rotate(66)"/>
  </g>
  <g class="active">
   <use xlink:href="#trammel" transform="translate(74.175) rotate(-68)"/>
   <use xlink:href="#trigger" transform="rotate(68)"/>
  </g>
  <g class="active">
   <use xlink:href="#trammel" transform="translate(75.175) rotate(-70)"/>
   <use xlink:href="#trigger" transform="rotate(70)"/>
  </g>
  <g class="active">
   <use xlink:href="#trammel" transform="translate(76.085) rotate(-72)"/>
   <use xlink:href="#trigger" transform="rotate(72)"/>
  </g>
  <g class="active">
   <use xlink:href="#trammel" transform="translate(76.901) rotate(-74)"/>
   <use xlink:href="#trigger" transform="rotate(74)"/>
  </g>
  <g class="active">
   <use xlink:href="#trammel" transform="translate(77.624) rotate(-76)"/>
   <use xlink:href="#trigger" transform="rotate(76)"/>
  </g>
  <g class="active">
   <use xlink:href="#trammel" transform="translate(78.252) rotate(-78)"/>
   <use xlink:href="#trigger" transform="rotate(78)"/>
  </g>
  <g class="active">
   <use xlink:href="#trammel" transform="translate(78.785) rotate(-80)"/>
   <use xlink:href="#trigger" transform="rotate(80)"/>
  </g>
  <g class="active">
   <use xlink:href="#trammel" transform="translate(79.221) rotate(-82)"/>
   <use xlink:href="#trigger" transform="rotate(82)"/>
  </g>
  <g class="active">
   <use xlink:href="#trammel" transform="translate(79.562) rotate(-84)"/>
   <use xlink:href="#trigger" transform="rotate(84)"/>
  </g>
  <g class="active">
   <use xlink:href="#trammel" transform="translate(79.805) rotate(-86)"/>
   <use xlink:href="#trigger" transform="rotate(86)"/>
  </g>
  <g class="active">
   <use xlink:href="#trammel" transform="translate(79.951) rotate(-88)"/>
   <use xlink:href="#trigger" transform="rotate(88)"/>
  </g>
  <g class="active">
   <use xlink:href="#trammel" transform="translate(80.000) rotate(-90)"/>
   <use xlink:href="#trigger" transform="rotate(90)"/>
  </g>
  <g class="active">
   <use xlink:href="#trammel" transform="translate(79.951) rotate(-92)"/>
   <use xlink:href="#trigger" transform="rotate(92)"/>
  </g>
  <g class="active">
   <use xlink:href="#trammel" transform="translate(79.805) rotate(-94)"/>
   <use xlink:href="#trigger" transform="rotate(94)"/>
  </g>
  <g class="active">
   <use xlink:href="#trammel" transform="translate(79.562) rotate(-96)"/>
   <use xlink:href="#trigger" transform="rotate(96)"/>
  </g>
  <g class="active">
   <use xlink:href="#trammel" transform="translate(79.221) rotate(-98)"/>
   <use xlink:href="#trigger" transform="rotate(98)"/>
  </g>
  <g class="active">
   <use xlink:href="#trammel" transform="translate(78.785) rotate(-100)"/>
   <use xlink:href="#trigger" transform="rotate(100)"/>
  </g>
  <g class="active">
   <use xlink:href="#trammel" transform="translate(78.252) rotate(-102)"/>
   <use xlink:href="#trigger" transform="rotate(102)"/>
  </g>
  <g class="active">
   <use xlink:href="#trammel" transform="translate(77.624) rotate(-104)"/>
   <use xlink:href="#trigger" transform="rotate(104)"/>
  </g>
  <g class="active">
   <use xlink:href="#trammel" transform="translate(76.901) rotate(-106)"/>
   <use xlink:href="#trigger" transform="rotate(106)"/>
  </g>
  <g class="active">
   <use xlink:href="#trammel" transform="translate(76.085) rotate(-108)"/>
   <use xlink:href="#trigger" transform="rotate(108)"/>
  </g>
  <g class="active">
   <use xlink:href="#trammel" transform="translate(75.175) rotate(-110)"/>
   <use xlink:href="#trigger" transform="rotate(110)"/>
  </g>
  <g class="active">
   <use xlink:href="#trammel" transform="translate(74.175) rotate(-112)"/>
   <use xlink:href="#trigger" transform="rotate(112)"/>
  </g>
  <g class="active">
   <use xlink:href="#trammel" transform="translate(73.084) rotate(-114)"/>
   <use xlink:href="#trigger" transform="rotate(114)"/>
  </g>
  <g class="active">
   <use xlink:href="#trammel" transform="translate(71.904) rotate(-116)"/>
   <use xlink:href="#trigger" transform="rotate(116)"/>
  </g>
  <g class="active">
   <use xlink:href="#trammel" transform="translate(70.636) rotate(-118)"/>
   <use xlink:href="#trigger" transform="rotate(118)"/>
  </g>
  <g class="active">
   <use xlink:href="#trammel" transform="translate(69.282) rotate(-120)"/>
   <use xlink:href="#trigger" transform="rotate(120)"/>
  </g>
  <g class="active">
   <use xlink:href="#trammel" transform="translate(67.844) rotate(-122)"/>
   <use xlink:href="#trigger" transform="rotate(122)"/>
  </g>
  <g class="active">
   <use xlink:href="#trammel" transform="translate(66.323) rotate(-124)"/>
   <use xlink:href="#trigger" transform="rotate(124)"/>
  </g>
  <g class="active">
   <use xlink:href="#trammel" transform="translate(64.721) rotate(-126)"/>
   <use xlink:href="#trigger" transform="rotate(126)"/>
  </g>
  <g class="active">
   <use xlink:href="#trammel" transform="translate(63.041) rotate(-128)"/>
   <use xlink:href="#trigger" transform="rotate(128)"/>
  </g>
  <g class="active">
   <use xlink:href="#trammel" transform="translate(61.284) rotate(-130)"/>
   <use xlink:href="#trigger" transform="rotate(130)"/>
  </g>
  <g class="active">
   <use xlink:href="#trammel" transform="translate(59.452) rotate(-132)"/>
   <use xlink:href="#trigger" transform="rotate(132)"/>
  </g>
  <g class="active">
   <use xlink:href="#trammel" transform="translate(57.547) rotate(-134)"/>
   <use xlink:href="#trigger" transform="rotate(134)"/>
  </g>
  <g class="active">
   <use xlink:href="#trammel" transform="translate(55.573) rotate(-136)"/>
   <use xlink:href="#trigger" transform="rotate(136)"/>
  </g>
  <g class="active">
   <use xlink:href="#trammel" transform="translate(53.530) rotate(-138)"/>
   <use xlink:href="#trigger" transform="rotate(138)"/>
  </g>
  <g class="active">
   <use xlink:href="#trammel" transform="translate(51.423) rotate(-140)"/>
   <use xlink:href="#trigger" transform="rotate(140)"/>
  </g>
  <g class="active">
   <use xlink:href="#trammel" transform="translate(49.253) rotate(-142)"/>
   <use xlink:href="#trigger" transform="rotate(142)"/>
  </g>
  <g class="active">
   <use xlink:href="#trammel" transform="translate(47.023) rotate(-144)"/>
   <use xlink:href="#trigger" transform="rotate(144)"/>
  </g>
  <g class="active">
   <use xlink:href="#trammel" transform="translate(44.735) rotate(-146)"/>
   <use xlink:href="#trigger" transform="rotate(146)"/>
  </g>
  <g class="active">
   <use xlink:href="#trammel" transform="translate(42.394) rotate(-148)"/>
   <use xlink:href="#trigger" transform="rotate(148)"/>
  </g>
  <g class="active">
   <use xlink:href="#trammel" transform="translate(40.000) rotate(-150)"/>
   <use xlink:href="#trigger" transform="rotate(150)"/>
  </g>
  <g class="active">
   <use xlink:href="#trammel" transform="translate(37.558) rotate(-152)"/>
   <use xlink:href="#trigger" transform="rotate(152)"/>
  </g>
  <g class="active">
   <use xlink:href="#trammel" transform="translate(35.070) rotate(-154)"/>
   <use xlink:href="#trigger" transform="rotate(154)"/>
  </g>
  <g class="active">
   <use xlink:href="#trammel" transform="translate(32.539) rotate(-156)"/>
   <use xlink:href="#trigger" transform="rotate(156)"/>
  </g>
  <g class="active">
   <use xlink:href="#trammel" transform="translate(29.969) rotate(-158)"/>
   <use xlink:href="#trigger" transform="rotate(158)"/>
  </g>
  <g class="active">
   <use xlink:href="#trammel" transform="translate(27.362) rotate(-160)"/>
   <use xlink:href="#trigger" transform="rotate(160)"/>
  </g>
  <g class="active">
   <use xlink:href="#trammel" transform="translate(24.721) rotate(-162)"/>
   <use xlink:href="#trigger" transform="rotate(162)"/>
  </g>
  <g class="active">
   <use xlink:href="#trammel" transform="translate(22.051) rotate(-164)"/>
   <use xlink:href="#trigger" transform="rotate(164)"/>
  </g>
  <g class="active">
   <use xlink:href="#trammel" transform="translate(19.354) rotate(-166)"/>
   <use xlink:href="#trigger" transform="rotate(166)"/>
  </g>
  <g class="active">
   <use xlink:href="#trammel" transform="translate(16.633) rotate(-168)"/>
   <use xlink:href="#trigger" transform="rotate(168)"/>
  </g>
  <g class="active">
   <use xlink:href="#trammel" transform="translate(13.892) rotate(-170)"/>
   <use xlink:href="#trigger" transform="rotate(170)"/>
  </g>
  <g class="active">
   <use xlink:href="#trammel" transform="translate(11.134) rotate(-172)"/>
   <use xlink:href="#trigger" transform="rotate(172)"/>
  </g>
  <g class="active">
   <use xlink:href="#trammel" transform="translate(8.362) rotate(-174)"/>
   <use xlink:href="#trigger" transform="rotate(174)"/>
  </g>
  <g class="active">
   <use xlink:href="#trammel" transform="translate(5.581) rotate(-176)"/>
   <use xlink:href="#trigger" transform="rotate(176)"/>
  </g>
  <g class="active">
   <use xlink:href="#trammel" transform="translate(2.792) rotate(-178)"/>
   <use xlink:href="#trigger" transform="rotate(178)"/>
  </g>
  <g class="active">
   <use xlink:href="#trammel" transform="translate(0.000) rotate(-180)"/>
   <use xlink:href="#trigger" transform="rotate(180)"/>
  </g>
  <g class="active">
   <use xlink:href="#trammel" transform="translate(-2.792) rotate(-182)"/>
   <use xlink:href="#trigger" transform="rotate(182)"/>
  </g>
  <g class="active">
   <use xlink:href="#trammel" transform="translate(-5.581) rotate(-184)"/>
   <use xlink:href="#trigger" transform="rotate(184)"/>
  </g>
  <g class="active">
   <use xlink:href="#trammel" transform="translate(-8.362) rotate(-186)"/>
   <use xlink:href="#trigger" transform="rotate(186)"/>
  </g>
  <g class="active">
   <use xlink:href="#trammel" transform="translate(-11.134) rotate(-188)"/>
   <use xlink:href="#trigger" transform="rotate(188)"/>
  </g>
  <g class="active">
   <use xlink:href="#trammel" transform="translate(-13.892) rotate(-190)"/>
   <use xlink:href="#trigger" transform="rotate(190)"/>
  </g>
  <g class="active">
   <use xlink:href="#trammel" transform="translate(-16.633) rotate(-192)"/>
   <use xlink:href="#trigger" transform="rotate(192)"/>
  </g>
  <g class="active">
   <use xlink:href="#trammel" transform="translate(-19.354) rotate(-194)"/>
   <use xlink:href="#trigger" transform="rotate(194)"/>
  </g>
  <g class="active">
   <use xlink:href="#trammel" transform="translate(-22.051) rotate(-196)"/>
   <use xlink:href="#trigger" transform="rotate(196)"/>
  </g>
  <g class="active">
   <use xlink:href="#trammel" transform="translate(-24.721) rotate(-198)"/>
   <use xlink:href="#trigger" transform="rotate(198)"/>
  </g>
  <g class="active">
   <use xlink:href="#trammel" transform="translate(-27.362) rotate(-200)"/>
   <use xlink:href="#trigger" transform="rotate(200)"/>
  </g>
  <g class="active">
   <use xlink:href="#trammel" transform="translate(-29.969) rotate(-202)"/>
   <use xlink:href="#trigger" transform="rotate(202)"/>
  </g>
  <g class="active">
   <use xlink:href="#trammel" transform="translate(-32.539) rotate(-204)"/>
   <use xlink:href="#trigger" transform="rotate(204)"/>
  </g>
  <g class="active">
   <use xlink:href="#trammel" transform="translate(-35.070) rotate(-206)"/>
   <use xlink:href="#trigger" transform="rotate(206)"/>
  </g>
  <g class="active">
   <use xlink:href="#trammel" transform="translate(-37.558) rotate(-208)"/>
   <use xlink:href="#trigger" transform="rotate(208)"/>
  </g>
  <g class="active">
   <use xlink:href="#trammel" transform="translate(-40.000) rotate(-210)"/>
   <use xlink:href="#trigger" transform="rotate(210)"/>
  </g>
  <g class="active">
   <use xlink:href="#trammel" transform="translate(-42.394) rotate(-212)"/>
   <use xlink:href="#trigger" transform="rotate(212)"/>
  </g>
  <g class="active">
   <use xlink:href="#trammel" transform="translate(-44.735) rotate(-214)"/>
   <use xlink:href="#trigger" transform="rotate(214)"/>
  </g>
  <g class="active">
   <use xlink:href="#trammel" transform="translate(-47.023) rotate(-216)"/>
   <use xlink:href="#trigger" transform="rotate(216)"/>
  </g>
  <g class="active">
   <use xlink:href="#trammel" transform="translate(-49.253) rotate(-218)"/>
   <use xlink:href="#trigger" transform="rotate(218)"/>
  </g>
  <g class="active">
   <use xlink:href="#trammel" transform="translate(-51.423) rotate(-220)"/>
   <use xlink:href="#trigger" transform="rotate(220)"/>
  </g>
  <g class="active">
   <use xlink:href="#trammel" transform="translate(-53.530) rotate(-222)"/>
   <use xlink:href="#trigger" transform="rotate(222)"/>
  </g>
  <g class="active">
   <use xlink:href="#trammel" transform="translate(-55.573) rotate(-224)"/>
   <use xlink:href="#trigger" transform="rotate(224)"/>
  </g>
  <g class="active">
   <use xlink:href="#trammel" transform="translate(-57.547) rotate(-226)"/>
   <use xlink:href="#trigger" transform="rotate(226)"/>
  </g>
  <g class="active">
   <use xlink:href="#trammel" transform="translate(-59.452) rotate(-228)"/>
   <use xlink:href="#trigger" transform="rotate(228)"/>
  </g>
  <g class="active">
   <use xlink:href="#trammel" transform="translate(-61.284) rotate(-230)"/>
   <use xlink:href="#trigger" transform="rotate(230)"/>
  </g>
  <g class="active">
   <use xlink:href="#trammel" transform="translate(-63.041) rotate(-232)"/>
   <use xlink:href="#trigger" transform="rotate(232)"/>
  </g>
  <g class="active">
   <use xlink:href="#trammel" transform="translate(-64.721) rotate(-234)"/>
   <use xlink:href="#trigger" transform="rotate(234)"/>
  </g>
  <g class="active">
   <use xlink:href="#trammel" transform="translate(-66.323) rotate(-236)"/>
   <use xlink:href="#trigger" transform="rotate(236)"/>
  </g>
  <g class="active">
   <use xlink:href="#trammel" transform="translate(-67.844) rotate(-238)"/>
   <use xlink:href="#trigger" transform="rotate(238)"/>
  </g>
  <g class="active">
   <use xlink:href="#trammel" transform="translate(-69.282) rotate(-240)"/>
   <use xlink:href="#trigger" transform="rotate(240)"/>
  </g>
  <g class="active">
   <use xlink:href="#trammel" transform="translate(-70.636) rotate(-242)"/>
   <use xlink:href="#trigger" transform="rotate(242)"/>
  </g>
  <g class="active">
   <use xlink:href="#trammel" transform="translate(-71.904) rotate(-244)"/>
   <use xlink:href="#trigger" transform="rotate(244)"/>
  </g>
  <g class="active">
   <use xlink:href="#trammel" transform="translate(-73.084) rotate(-246)"/>
   <use xlink:href="#trigger" transform="rotate(246)"/>
  </g>
  <g class="active">
   <use xlink:href="#trammel" transform="translate(-74.175) rotate(-248)"/>
   <use xlink:href="#trigger" transform="rotate(248)"/>
  </g>
  <g class="active">
   <use xlink:href="#trammel" transform="translate(-75.175) rotate(-250)"/>
   <use xlink:href="#trigger" transform="rotate(250)"/>
  </g>
  <g class="active">
   <use xlink:href="#trammel" transform="translate(-76.085) rotate(-252)"/>
   <use xlink:href="#trigger" transform="rotate(252)"/>
  </g>
  <g class="active">
   <use xlink:href="#trammel" transform="translate(-76.901) rotate(-254)"/>
   <use xlink:href="#trigger" transform="rotate(254)"/>
  </g>
  <g class="active">
   <use xlink:href="#trammel" transform="translate(-77.624) rotate(-256)"/>
   <use xlink:href="#trigger" transform="rotate(256)"/>
  </g>
  <g class="active">
   <use xlink:href="#trammel" transform="translate(-78.252) rotate(-258)"/>
   <use xlink:href="#trigger" transform="rotate(258)"/>
  </g>
  <g class="active">
   <use xlink:href="#trammel" transform="translate(-78.785) rotate(-260)"/>
   <use xlink:href="#trigger" transform="rotate(260)"/>
  </g>
  <g class="active">
   <use xlink:href="#trammel" transform="translate(-79.221) rotate(-262)"/>
   <use xlink:href="#trigger" transform="rotate(262)"/>
  </g>
  <g class="active">
   <use xlink:href="#trammel" transform="translate(-79.562) rotate(-264)"/>
   <use xlink:href="#trigger" transform="rotate(264)"/>
  </g>
  <g class="active">
   <use xlink:href="#trammel" transform="translate(-79.805) rotate(-266)"/>
   <use xlink:href="#trigger" transform="rotate(266)"/>
  </g>
  <g class="active">
   <use xlink:href="#trammel" transform="translate(-79.951) rotate(-268)"/>
   <use xlink:href="#trigger" transform="rotate(268)"/>
  </g>
  <g class="active">
   <use xlink:href="#trammel" transform="translate(-80.000) rotate(-270)"/>
   <use xlink:href="#trigger" transform="rotate(270)"/>
  </g>
  <g class="active">
   <use xlink:href="#trammel" transform="translate(-79.951) rotate(-272)"/>
   <use xlink:href="#trigger" transform="rotate(272)"/>
  </g>
  <g class="active">
   <use xlink:href="#trammel" transform="translate(-79.805) rotate(-274)"/>
   <use xlink:href="#trigger" transform="rotate(274)"/>
  </g>
  <g class="active">
   <use xlink:href="#trammel" transform="translate(-79.562) rotate(-276)"/>
   <use xlink:href="#trigger" transform="rotate(276)"/>
  </g>
  <g class="active">
   <use xlink:href="#trammel" transform="translate(-79.221) rotate(-278)"/>
   <use xlink:href="#trigger" transform="rotate(278)"/>
  </g>
  <g class="active">
   <use xlink:href="#trammel" transform="translate(-78.785) rotate(-280)"/>
   <use xlink:href="#trigger" transform="rotate(280)"/>
  </g>
  <g class="active">
   <use xlink:href="#trammel" transform="translate(-78.252) rotate(-282)"/>
   <use xlink:href="#trigger" transform="rotate(282)"/>
  </g>
  <g class="active">
   <use xlink:href="#trammel" transform="translate(-77.624) rotate(-284)"/>
   <use xlink:href="#trigger" transform="rotate(284)"/>
  </g>
  <g class="active">
   <use xlink:href="#trammel" transform="translate(-76.901) rotate(-286)"/>
   <use xlink:href="#trigger" transform="rotate(286)"/>
  </g>
  <g class="active">
   <use xlink:href="#trammel" transform="translate(-76.085) rotate(-288)"/>
   <use xlink:href="#trigger" transform="rotate(288)"/>
  </g>
  <g class="active">
   <use xlink:href="#trammel" transform="translate(-75.175) rotate(-290)"/>
   <use xlink:href="#trigger" transform="rotate(290)"/>
  </g>
  <g class="active">
   <use xlink:href="#trammel" transform="translate(-74.175) rotate(-292)"/>
   <use xlink:href="#trigger" transform="rotate(292)"/>
  </g>
  <g class="active">
   <use xlink:href="#trammel" transform="translate(-73.084) rotate(-294)"/>
   <use xlink:href="#trigger" transform="rotate(294)"/>
  </g>
  <g class="active">
   <use xlink:href="#trammel" transform="translate(-71.904) rotate(-296)"/>
   <use xlink:href="#trigger" transform="rotate(296)"/>
  </g>
  <g class="active">
   <use xlink:href="#trammel" transform="translate(-70.636) rotate(-298)"/>
   <use xlink:href="#trigger" transform="rotate(298)"/>
  </g>
  <g class="active">
   <use xlink:href="#trammel" transform="translate(-69.282) rotate(-300)"/>
   <use xlink:href="#trigger" transform="rotate(300)"/>
  </g>
  <g class="active">
   <use xlink:href="#trammel" transform="translate(-67.844) rotate(-302)"/>
   <use xlink:href="#trigger" transform="rotate(302)"/>
  </g>
  <g class="active">
   <use xlink:href="#trammel" transform="translate(-66.323) rotate(-304)"/>
   <use xlink:href="#trigger" transform="rotate(304)"/>
  </g>
  <g class="active">
   <use xlink:href="#trammel" transform="translate(-64.721) rotate(-306)"/>
   <use xlink:href="#trigger" transform="rotate(306)"/>
  </g>
  <g class="active">
   <use xlink:href="#trammel" transform="translate(-63.041) rotate(-308)"/>
   <use xlink:href="#trigger" transform="rotate(308)"/>
  </g>
  <g class="active">
   <use xlink:href="#trammel" transform="translate(-61.284) rotate(-310)"/>
   <use xlink:href="#trigger" transform="rotate(310)"/>
  </g>
  <g class="active">
   <use xlink:href="#trammel" transform="translate(-59.452) rotate(-312)"/>
   <use xlink:href="#trigger" transform="rotate(312)"/>
  </g>
  <g class="active">
   <use xlink:href="#trammel" transform="translate(-57.547) rotate(-314)"/>
   <use xlink:href="#trigger" transform="rotate(314)"/>
  </g>
  <g class="active">
   <use xlink:href="#trammel" transform="translate(-55.573) rotate(-316)"/>
   <use xlink:href="#trigger" transform="rotate(316)"/>
  </g>
  <g class="active">
   <use xlink:href="#trammel" transform="translate(-53.530) rotate(-318)"/>
   <use xlink:href="#trigger" transform="rotate(318)"/>
  </g>
  <g class="active">
   <use xlink:href="#trammel" transform="translate(-51.423) rotate(-320)"/>
   <use xlink:href="#trigger" transform="rotate(320)"/>
  </g>
  <g class="active">
   <use xlink:href="#trammel" transform="translate(-49.253) rotate(-322)"/>
   <use xlink:href="#trigger" transform="rotate(322)"/>
  </g>
  <g class="active">
   <use xlink:href="#trammel" transform="translate(-47.023) rotate(-324)"/>
   <use xlink:href="#trigger" transform="rotate(324)"/>
  </g>
  <g class="active">
   <use xlink:href="#trammel" transform="translate(-44.735) rotate(-326)"/>
   <use xlink:href="#trigger" transform="rotate(326)"/>
  </g>
  <g class="active">
   <use xlink:href="#trammel" transform="translate(-42.394) rotate(-328)"/>
   <use xlink:href="#trigger" transform="rotate(328)"/>
  </g>
  <g class="active">
   <use xlink:href="#trammel" transform="translate(-40.000) rotate(-330)"/>
   <use xlink:href="#trigger" transform="rotate(330)"/>
  </g>
  <g class="active">
   <use xlink:href="#trammel" transform="translate(-37.558) rotate(-332)"/>
   <use xlink:href="#trigger" transform="rotate(332)"/>
  </g>
  <g class="active">
   <use xlink:href="#trammel" transform="translate(-35.070) rotate(-334)"/>
   <use xlink:href="#trigger" transform="rotate(334)"/>
  </g>
  <g class="active">
   <use xlink:href="#trammel" transform="translate(-32.539) rotate(-336)"/>
   <use xlink:href="#trigger" transform="rotate(336)"/>
  </g>
  <g class="active">
   <use xlink:href="#trammel" transform="translate(-29.969) rotate(-338)"/>
   <use xlink:href="#trigger" transform="rotate(338)"/>
  </g>
  <g class="active">
   <use xlink:href="#trammel" transform="translate(-27.362) rotate(-340)"/>
   <use xlink:href="#trigger" transform="rotate(340)"/>
  </g>
  <g class="active">
   <use xlink:href="#trammel" transform="translate(-24.721) rotate(-342)"/>
   <use xlink:href="#trigger" transform="rotate(342)"/>
  </g>
  <g class="active">
   <use xlink:href="#trammel" transform="translate(-22.051) rotate(-344)"/>
   <use xlink:href="#trigger" transform="rotate(344)"/>
  </g>
  <g class="active">
   <use xlink:href="#trammel" transform="translate(-19.354) rotate(-346)"/>
   <use xlink:href="#trigger" transform="rotate(346)"/>
  </g>
  <g class="active">
   <use xlink:href="#trammel" transform="translate(-16.633) rotate(-348)"/>
   <use xlink:href="#trigger" transform="rotate(348)"/>
  </g>
  <g class="active">
   <use xlink:href="#trammel" transform="translate(-13.892) rotate(-350)"/>
   <use xlink:href="#trigger" transform="rotate(350)"/>
  </g>
  <g class="active">
   <use xlink:href="#trammel" transform="translate(-11.134) rotate(-352)"/>
   <use xlink:href="#trigger" transform="rotate(352)"/>
  </g>
  <g class="active">
   <use xlink:href="#trammel" transform="translate(-8.362) rotate(-354)"/>
   <use xlink:href="#trigger" transform="rotate(354)"/>
  </g>
  <g class="active">
   <use xlink:href="#trammel" transform="translate(-5.581) rotate(-356)"/>
   <use xlink:href="#trigger" transform="rotate(356)"/>
  </g>
  <g class="active">
   <use xlink:href="#trammel" transform="translate(-2.792) rotate(-358)"/>
   <use xlink:href="#trigger" transform="rotate(358)"/>
  </g>
  <g class="active">
   <use xlink:href="#trammel" transform="translate(-0.000) rotate(-360)"/>
   <use xlink:href="#trigger" transform="rotate(360)"/>
  </g>
  <g class="active">
   <use xlink:href="#trammel" transform="translate(2.792) rotate(-362)"/>
   <use xlink:href="#trigger" transform="rotate(362)"/>
  </g>
  <g class="active">
   <use xlink:href="#trammel" transform="translate(5.581) rotate(-364)"/>
   <use xlink:href="#trigger" transform="rotate(364)"/>
  </g>
  <g class="active">
   <use xlink:href="#trammel" transform="translate(8.362) rotate(-366)"/>
   <use xlink:href="#trigger" transform="rotate(366)"/>
  </g>
  <g class="active">
   <use xlink:href="#trammel" transform="translate(11.134) rotate(-368)"/>
   <use xlink:href="#trigger" transform="rotate(368)"/>
  </g>
  <g class="active">
   <use xlink:href="#trammel" transform="translate(13.892) rotate(-370)"/>
   <use xlink:href="#trigger" transform="rotate(370)"/>
  </g>
  <g class="active">
   <use xlink:href="#trammel" transform="translate(16.633) rotate(-372)"/>
   <use xlink:href="#trigger" transform="rotate(372)"/>
  </g>
  <g class="active">
   <use xlink:href="#trammel" transform="translate(19.354) rotate(-374)"/>
   <use xlink:href="#trigger" transform="rotate(374)"/>
  </g>
  <g class="active">
   <use xlink:href="#trammel" transform="translate(22.051) rotate(-376)"/>
   <use xlink:href="#trigger" transform="rotate(376)"/>
  </g>
  <g class="active">
   <use xlink:href="#trammel" transform="translate(24.721) rotate(-378)"/>
   <use xlink:href="#trigger" transform="rotate(378)"/>
  </g>
  <g class="active">
   <use xlink:href="#trammel" transform="translate(27.362) rotate(-380)"/>
   <use xlink:href="#trigger" transform="rotate(380)"/>
  </g>
  <g class="active">
   <use xlink:href="#trammel" transform="translate(29.969) rotate(-382)"/>
   <use xlink:href="#trigger" transform="rotate(382)"/>
  </g>
  <g class="active">
   <use xlink:href="#trammel" transform="translate(32.539) rotate(-384)"/>
   <use xlink:href="#trigger" transform="rotate(384)"/>
  </g>
  <g class="active">
   <use xlink:href="#trammel" transform="translate(35.070) rotate(-386)"/>
   <use xlink:href="#trigger" transform="rotate(386)"/>
  </g>
  <g class="active">
   <use xlink:href="#trammel" transform="translate(37.558) rotate(-388)"/>
   <use xlink:href="#trigger" transform="rotate(388)"/>
  </g>
<!--   END_DYNAMIC_MAIN -->
  <g class="inactive" transform="translate(-40) rotate(30)">
   <rect x="-2" y="-81" width="4" height="82" rx="2" ry="2"/>
   <rect x="-1" y="-101" width="2" height="122" rx="1" ry="1"/>
   <use xlink:href="#trammel"/>
  </g>
 </g>
</svg>
<!-- Please retain this and other comments, which contain Python code to generate this SVG. """

import re, math
def fmt(string): ## string.format(**vars()) using tags {expression!format} by CMG Lee
 def f(tag): i_sep = tag.rfind('!'); return (re.sub('\.0$', '', str(eval(tag[1:-1])))
  if (i_sep < 0) else ('{:%s}' % tag[i_sep + 1:-1]).format(eval(tag[1:i_sep])))
 return (re.sub(r'(?<!{){[^{}]+}', lambda m:f(m.group()), string)
         .replace('{{', '{').replace('}}', '}'))
def append(obj, string): return obj.append(fmt(string))
def tabbify(cellss, separator='|'):
 cellpadss = [list(rows) + [''] * (len(max(cellss, key=len)) - len(rows)) for rows in cellss]
 fmts = ['%%%ds' % (max([len(str(cell)) for cell in cols])) for cols in zip(*cellpadss)]
 return '\n'.join([separator.join(fmts) % tuple(rows) for rows in cellpadss])
def hex_rgb(colour): ## convert [#]RGB to #RRGGBB and [#]RRGGBB to #RRGGBB
 return '#%s' % (colour if len(colour) > 4 else ''.join([c * 2 for c in colour])).lstrip('#')
def roundm(x, multiple=1):
 if   (isinstance(x, tuple)): return tuple(roundm(list(x), multiple))
 elif (isinstance(x, list )): return [roundm(x_i, multiple) for x_i in x]
 else: return int(math.floor(float(x) / multiple + 0.5)) * multiple

(out_defs, out_mains) = ([], [])
outss = []
l     = 80
for deg in range(30, 390, 2):
 rad  = math.radians(deg)
 x    = math.sin(rad) * l
 outss.append([deg, rad, x])
 append(out_mains, '''\
  <g class="active">
   <use xlink:href="#trammel" transform="translate({x!.3f}) rotate({-deg})"/>
   <use xlink:href="#trigger" transform="rotate({deg})"/>
  </g>''')
print(tabbify(outss))

half_width = roundm(l * 1.3)
out_p = fmt('''width="100%" height="100%"\
 viewBox="{-half_width} {-half_width} {2 * half_width} {2 * half_width}"''')

## Compile everything into an .svg file
myself   = open(__file__, 'r').read() ## the contents of this very file
file_out = open(__file__[:__file__.rfind('.')] + '.svg', 'wb') ## *.* -> *.svg
try: ## use try/finally so that file is closed even if write fails
 file_out.write('''<?xml version="1.0" encoding="utf-8"?><!%s%s
%s%s%s\n%s%s\n%s%s''' % ('-', '-', ## because SVG comments cannot have 2 consecutive '-'s
  myself[:myself.find('width',myself.find('<svg'))], ## assume width specified before height/viewBox
  out_p, ## replace SVG width/height/viewBox with {out_p} & dynamic SVG blocks with {out*s} contents
  myself[myself.find ('>',myself.find('<svg')):
         myself.find ('\n',myself.find('BEGIN_'+'DYNAMIC_DEFS'))], '\n'.join(out_defs),
  myself[myself.rfind('\n',0,myself.find('END_'+'DYNAMIC_DEFS')):
         myself.find ('\n',myself.find('BEGIN_'+'DYNAMIC_MAIN'))], '\n'.join(out_mains),
  myself[myself.rfind('\n',0,myself.find('END_'+'DYNAMIC_MAIN')):]))
finally:
 file_out.close()

## SVG-Python near-polyglot framework version 3 by CMG Lee (March 2018) -->
