[
{
    "model": "sites.site",
    "pk": 32,
    "fields": {
        "domain": "www.mersenne.roia.fr",
        "name": "roia"
    }
},
{
    "model": "ptf.ptfsite",
    "pk": 32,
    "fields": {
        "acro": "roia",
        "public": null,
        "prev_pub_date": null,
        "last_pub_date": null
    }
}
]
