[{
    "model": "ptf.resource",
    "fields": {
        "classname": "Collection",
        "provider": 1,
        "pid": "AHL",
        "sid": null,
        "doi": null,
        "title_xml": "<title-group>article-title xml:space=\"preserve\">Annales Henri Lebesgue</article-title></title-group>",
        "lang": "fr",
        "title_tex": "Annales Henri Lebesgue",
        "title_html": "Annales Henri Lebesgue",
        "trans_lang": "und",
        "trans_title_tex": "",
        "trans_title_html": "",
        "abbrev": ""
    }
},
{
    "model": "ptf.resource",
    "fields": {
        "classname": "Container",
        "provider": 1,
        "pid": "AHL_0__0_0",
        "sid": null,
        "doi": null,
        "title_xml": "<title-group>article-title xml:space=\"preserve\">Annales Henri Lebesgue upcoming volume</article-title></title-group>",
        "lang": "en",
        "title_tex": "Annales Henri Lebesgue upcoming volume",
        "title_html": "Annales Henri Lebesgue upcoming volume",
        "trans_lang": "fr",
        "trans_title_tex": "Annales Henri Lebesgue volume à paraitre",
        "trans_title_html": "Annales Henri Lebesgue volume à paraitre",
        "abbrev": ""
    }
},
{
    "model": "ptf.collection",
    "fields": {
        "resource_ptr": ["AHL", 2],
        "coltype": "journal",
        "title_sort": "Annales Henri Lebesgue",
        "wall": 0,
        "fyear": 2017,
        "lyear": 2017,
        "last_doi": 0
    }
},
{
    "model": "ptf.container",
    "fields": {
        "ctype": "issue",
        "resource_ptr": ["AHL_0__0_0", 2],
        "year": "2017-2017",
        "number": "",
        "my_collection": null,
        "vseries": "",
        "volume": "",
        "vseries_int": 0,
        "volume_int": 0,
        "number_int": 0,
        "seq": 1,
        "my_publisher": null,
        "last_modified": "2016-12-20T07:25:16.127Z"
    }
},
{
    "model": "ptf.sitemembership",
    "fields": {
        "resource": ["AHL_0__0_0", 2],
        "deployed": "2017-02-23T08:20:51.257Z",
        "online": null,
        "site": 5
    }
},
{
    "model": "ptf.sitemembership",
    "fields": {
        "resource": ["AHL", 2],
        "deployed": "2017-02-23T08:20:51.257Z",
        "online": null,
        "site": 5
    }
}
]