[
{
    "model": "sites.site",
    "pk": 5,
    "fields": {
        "domain": "www.mersenne.ahl.fr",
        "name": "ahl"
    }
},
{
    "model": "ptf.ptfsite",
    "pk": 5,
    "fields": {
        "acro": "ahl",
        "public": null,
        "prev_pub_date": null,
        "last_pub_date": null
    }
}
]