[
{
    "model": "sites.site",
    "pk": 34,
    "fields": {
        "domain": "www.mersenne.cras.fr",
        "name": "cr"
    }
},
{
    "model": "ptf.ptfsite",
    "pk": 34,
    "fields": {
        "acro": "cr",
        "public": null,
        "prev_pub_date": null,
        "last_pub_date": null
    }
}
]
