[
  {
    "model": "mersenne_cms.page",
    "fields": {
      "mersenne_id": "homepage",
      "site_id": 34,
      "content_fr": "Contenu à modifier",
      "menu_title_fr": "Accueil",
      "menu_title_en": "Accueil",
      "state": "published",
      "slug_fr": "accueil",
      "slug_en": "home",
      "position": "top"
    }
  },
  {
    "model": "mersenne_cms.page",
    "fields": {
      "mersenne_id": "issues",
      "site_id": 34,
      "menu_title_fr": "Notre revue",
      "menu_title_en": "Notre revue",
      "state": "published",
      "slug_fr": "menu",
      "slug_en": "menu",
      "position": "top"
    }
  },
  {
    "model": "mersenne_cms.page",
    "fields": {
      "mersenne_id": "next_articles",
      "parent_page": ["menu", 34],
      "site_id": 34,
      "menu_title_fr": "Articles à paraître",
      "menu_title_en": "Articles à paraître",
      "state": "published",
      "slug_fr": "article-a-paraitre",
      "slug_en": "coming-articles",
      "editable": false,
      "position": "top"
    }
  },
  {
    "model": "mersenne_cms.page",
    "fields": {
      "mersenne_id": "volumes",
      "parent_page": ["menu", 34],
      "site_id": 34,
      "menu_title_fr": "Tous les tomes en ligne",
      "menu_title_en": "Tous les tomes en ligne",
      "state": "published",
      "slug_fr": "tous-les-tomes",
      "slug_en": "all-volumes",
      "editable": false,
      "position": "top"
    }
  }
]
