[
{
    "model": "sites.site",
    "pk": {
        "domain": "www.proceedings.centre-mersenne.org",
        "name": "proceedings"
    }
},
{
    "model": "ptf.ptfsite",
    "pk": 38,
    "fields": {
        "acro": "proceedings",
        "public": null,
        "prev_pub_date": null,
        "last_pub_date": null
    }
}
]
