[
  {
    "model": "mersenne_cms.page",
    "fields": {
      "mersenne_id": "homepage",
      "site_id": 38,
      "content_fr": "proceedings Contenu à modifier",
      "menu_title_fr": "Accueil",
      "menu_title_en": "Accueil",
      "state": "published",
      "slug_fr": "accueil",
      "slug_en": "home",
      "position": "top"
    }
  }
]
