\relax 
\providecommand\hyper@newdestlabel[2]{}
\catcode `:\active 
\catcode `;\active 
\catcode `!\active 
\catcode `?\active 
\providecommand\HyperFirstAtBeginDocument{\AtBeginDocument}
\HyperFirstAtBeginDocument{\ifx\hyper@anchor\@undefined
\global\let\oldcontentsline\contentsline
\gdef\contentsline#1#2#3#4{\oldcontentsline{#1}{#2}{#3}}
\global\let\oldnewlabel\newlabel
\gdef\newlabel#1#2{\newlabelxx{#1}#2}
\gdef\newlabelxx#1#2#3#4#5#6{\oldnewlabel{#1}{{#2}{#3}}}
\AtEndDocument{\ifx\hyper@anchor\@undefined
\let\contentsline\oldcontentsline
\let\newlabel\oldnewlabel
\fi}
\fi}
\global\let\hyper@last\relax 
\gdef\HyperFirstAtBeginDocument#1{#1}
\providecommand\HyField@AuxAddToFields[1]{}
\providecommand\HyField@AuxAddToCoFields[2]{}
\select@language{english}
\@writefile{toc}{\select@language{english}}
\@writefile{lof}{\select@language{english}}
\@writefile{lot}{\select@language{english}}
\select@language{english}
\@writefile{toc}{\select@language{english}}
\@writefile{lof}{\select@language{english}}
\@writefile{lot}{\select@language{english}}
\select@language{french}
\@writefile{toc}{\select@language{french}}
\@writefile{lof}{\select@language{french}}
\@writefile{lot}{\select@language{french}}
\select@language{english}
\@writefile{toc}{\select@language{english}}
\@writefile{lof}{\select@language{english}}
\@writefile{lot}{\select@language{english}}
\@writefile{toc}{\contentsline {section}{\tocsection {}{1}{Introduction}}{58}{section.2}}
\newlabel{Section: introduction}{{1}{58}{Introduction}{section.2}{}}
\newlabel{Subsection: main results}{{1.1}{58}{Main results}{subsection.3}{}}
\@writefile{toc}{\contentsline {subsection}{\tocsubsection {}{1.1}{Main results}}{58}{subsection.3}}
\newlabel{corollarypairs}{{1.1}{58}{}{theorem.4}{}}
\newlabel{corollarypairsa}{{a}{58}{}{Item.5}{}}
\newlabel{corollarypairsb}{{b}{58}{}{Item.6}{}}
\newlabel{corollarypairsc}{{c}{58}{}{Item.7}{}}
\@writefile{lof}{\contentsline {figure}{\numberline {1}{\ignorespaces \smaller A ribbon graph ($G$, left) can be fattened into an oriented surface with boundary ($S_G$, middle) in an essentially unique way. The closed surface ($\Sigma _G$, right) is given by attaching $2$-cells to each boundary component of $S_G$. In this case $\Sigma _G$ has genus zero because $\chi (\Sigma _G)=\chi (G)+2=3-5+2=0$ since two $2$ cells were added. }}{60}{figure.20}}
\newlabel{FigureFatgraph}{{1}{60}{\smaller A ribbon graph ($G$, left) can be fattened into an oriented surface with boundary ($S_G$, middle) in an essentially unique way. The closed surface ($\Sigma _G$, right) is given by attaching $2$-cells to each boundary component of $S_G$. In this case $\Sigma _G$ has genus zero because $\chi (\Sigma _G)=\chi (G)+2=3-5+2=0$ since two $2$ cells were added}{figure.20}{}}
\@writefile{lof}{\contentsline {figure}{\numberline {2}{\ignorespaces \smaller Front projection of a standard Legendrian unknot.}}{61}{figure.22}}
\newlabel{FigureLens}{{2}{61}{\smaller Front projection of a standard Legendrian unknot}{figure.22}{}}
\@writefile{lof}{\contentsline {figure}{\numberline {3}{\ignorespaces \smaller Two components $\Lambda _G^i$, $\Lambda _G^j$ are linked over the edge $E$.}}{61}{figure.28}}
\newlabel{FigureE}{{3}{61}{\smaller Two components $\Lambda _G^i$, $\Lambda _G^j$ are linked over the edge $E$}{figure.28}{}}
\@writefile{lof}{\contentsline {figure}{\numberline {4}{\ignorespaces \smaller Components $\Lambda _G^i$, $\Lambda _G^j$, $\Lambda _G^k$ spiral positively around a positive vertex in $G$. The $i$th cusp line (black) goes under the $j$th cusp line (blue).}}{62}{figure.29}}
\newlabel{FigureT}{{4}{62}{\smaller Components $\Lambda _G^i$, $\Lambda _G^j$, $\Lambda _G^k$ spiral positively around a positive vertex in $G$. The $i$th cusp line (black) goes under the $j$th cusp line (blue)}{figure.29}{}}
\@writefile{lof}{\contentsline {figure}{\numberline {5}{\ignorespaces \smaller A bicolored trivalent ribbon graph with two vertices labeled with the same color.}}{62}{figure.30}}
\newlabel{Fig: 11}{{5}{62}{\smaller A bicolored trivalent ribbon graph with two vertices labeled with the same color}{figure.30}{}}
\newlabel{euler}{{1.16}{62}{}{theorem.34}{}}
\@writefile{lof}{\contentsline {figure}{\numberline {6}{\ignorespaces \smaller The mesh Legendrian $\Lambda _G$ corresponding to the $G$ of Figure \ref  {Fig: 11} consists of three components, one black, one blue and one red. Its front $\pi (\Lambda _G)$ is a subset of $J^0(S^2)=S^2 \times \mathbb  {R}_z$. We think of $S^2$ as $\mathbb  {R}^2_{x,y}$ compactified at infinity and draw $\pi (\Lambda _G)$ as a movie of $1$-dimensional fronts $\Sigma _y \subset J^0(\mathbb  {R}_x)=\mathbb  {R}_x \times \mathbb  {R}_z$, fixed at infinity, where $y$ is the time coordinate. We will see that $\Lambda _G$ is generated by a function $f:S^3\tmspace  -\thinmuskip {.1667em}\mathchoice {\DOTSB \relbar \joinrel \rightarrow }{\rightarrow }{\rightarrow }{\rightarrow }\tmspace  -\thinmuskip {.1667em}\mathbb  {R}$, where we view\nonbreakingspace $S^3$ as the total space of the Hopf fibration $S^1\tmspace  -\thinmuskip {.1667em}\mathchoice {\DOTSB \relbar \joinrel \rightarrow }{\rightarrow }{\rightarrow }{\rightarrow }\tmspace  -\thinmuskip {.1667em}S^3\tmspace  -\thinmuskip {.1667em}\mathchoice {\DOTSB \relbar \joinrel \rightarrow }{\rightarrow }{\rightarrow }{\rightarrow }\tmspace  -\thinmuskip {.1667em}S^2$. The Legendrian\nonbreakingspace $\Lambda _G$ is a Borromean link in the sense that any two of the three components of $\Lambda _G$ form a trivial Legendrian link, but the three together form a nontrivial Legendrian link. Moreover, $\Lambda _G$ is trivial as a formal Legendrian link.}}{63}{figure.31}}
\newlabel{Fig: start}{{6}{63}{\smaller The mesh Legendrian $\Lambda _G$ corresponding to the $G$ of Figure \ref {Fig: 11} consists of three components, one black, one blue and one red. Its front $\pi (\Lambda _G)$ is a subset of $J^0(S^2)=S^2 \times \bR _z$. We think of $S^2$ as $\bR ^2_{x,y}$ compactified at infinity and draw $\pi (\Lambda _G)$ as a movie of $1$-dimensional fronts $\Sigma _y \subset J^0(\bR _x)=\bR _x \times \bR _z$, fixed at infinity, where $y$ is the time coordinate. We will see that $\Lambda _G$ is generated by a function $f:S^3\!\to \!\bR $, where we view~$S^3$ as the total space of the Hopf fibration $S^1\!\to \!S^3\!\to \!S^2$. The Legendrian~$\Lambda _G$ is a Borromean link in the sense that any two of the three components of $\Lambda _G$ form a trivial Legendrian link, but the three together form a nontrivial Legendrian link. Moreover, $\Lambda _G$ is trivial as a formal Legendrian link}{figure.31}{}}
\citation{IK93}
\citation{IK93}
\newlabel{reidemeister}{{1.17}{64}{}{theorem.35}{}}
\newlabel{calculation}{{1.18}{64}{}{theorem.36}{}}
\newlabel{rem: notation of IK}{{1.19}{64}{}{theorem.37}{}}
\newlabel{turaev}{{1.20}{64}{}{theorem.38}{}}
\citation{IK93}
\@writefile{toc}{\contentsline {subsection}{\tocsubsection {}{1.2}{Structure of the article}}{65}{subsection.40}}
\citation{C02}
\citation{E98}
\citation{EES07}
\newlabel{naturality}{{1.3}{66}{Naturality of Legendrian invariants}{subsection.41}{}}
\@writefile{toc}{\contentsline {subsection}{\tocsubsection {}{1.3}{Naturality of Legendrian invariants}}{66}{subsection.41}}
\newlabel{def: naturality}{{1.23}{66}{}{theorem.43}{}}
\citation{STZ17}
\citation{GKS12}
\citation{JKS16}
\citation{HI19}
\citation{STWZ15}
\citation{CM18}
\@writefile{toc}{\contentsline {subsection}{\tocsubsection {}{1.4}{Cluster algebras}}{67}{subsection.45}}
\citation{JKS16}
\citation{5W}
\@writefile{lof}{\contentsline {figure}{\numberline {7}{\ignorespaces \smaller A spanning tree in a bicolored trivalent ribbon graph (left) produces, on the perimeter, a cyclic quiver with $n$ clockwise arrow $a_i$ and $n$ counterclockwise arrows $b_i$ satisfying the preprojective relations $a_ib_i=a_jb_j$ for all $i,j$ and the Jensen-King-Su relations $b^k=a^{n-k}$ when there are $k-1$ positive vertices. In this example, $a^2=b^8$.}}{68}{figure.46}}
\newlabel{FigureCA}{{7}{68}{\smaller A spanning tree in a bicolored trivalent ribbon graph (left) produces, on the perimeter, a cyclic quiver with $n$ clockwise arrow $a_i$ and $n$ counterclockwise arrows $b_i$ satisfying the preprojective relations $a_ib_i=a_jb_j$ for all $i,j$ and the Jensen-King-Su relations $b^k=a^{n-k}$ when there are $k-1$ positive vertices. In this example, $a^2=b^8$}{figure.46}{}}
\@writefile{toc}{\contentsline {subsubsection}{\tocsubsubsection {}{}{Acknowledgements}}{68}{section*.47}}
\@writefile{toc}{\contentsline {section}{\tocsection {}{2}{Generating families}}{69}{section.48}}
\newlabel{Section: generating families}{{2}{69}{Generating families}{section.48}{}}
\@writefile{toc}{\contentsline {subsection}{\tocsubsection {}{2.1}{Legendrians as Cerf diagrams}}{69}{subsection.49}}
\citation{EG98}
\@writefile{lof}{\contentsline {figure}{\numberline {8}{\ignorespaces \smaller A $1$-parameter family of functions generating an ``eye'' shaped Cerf diagram.}}{70}{figure.54}}
\newlabel{Fig: simple Legendrian}{{8}{70}{\smaller A $1$-parameter family of functions generating an ``eye'' shaped Cerf diagram}{figure.54}{}}
\@writefile{lof}{\contentsline {figure}{\numberline {9}{\ignorespaces \smaller Legendrian submanifold of $J^1\mathbb  R$ on left with front projection on right. This Legendrian cannot be generated by any family of functions.}}{70}{figure.55}}
\newlabel{FigLegendrian}{{9}{70}{\smaller Legendrian submanifold of $J^1\mathbb R$ on left with front projection on right. This Legendrian cannot be generated by any family of functions}{figure.55}{}}
\newlabel{Definition: fibration at infinity}{{2.5}{70}{}{theorem.56}{}}
\citation{AGV85}
\citation{E12}
\newlabel{Remark: infinity family}{{2.6}{71}{}{theorem.57}{}}
\@writefile{toc}{\contentsline {subsection}{\tocsubsection {}{2.2}{Existence of generating families}}{71}{subsection.58}}
\newlabel{Proposition: global non-existence}{{2.8}{71}{}{theorem.60}{}}
\citation{STZ17}
\citation{C84}
\citation{LS85}
\citation{S86}
\citation{C96}
\citation{EG98}
\@writefile{lof}{\contentsline {figure}{\numberline {10}{\ignorespaces \smaller If the zig-zag is disjoint from the rest of the front,\hfill \unhbox \voidb@x \hbox {} \hbox to\hsize {\hss $H_\ast (f_b^{-1}[z_0,z_1],f_b^{-1}(z_0))$\hss } would be the same at both endpoints. But this relative homology in degree $k-1$ is zero on the left end and nonzero on the right end.}}{72}{figure.61}}
\newlabel{FigZigZag}{{10}{72}{\smaller If the zig-zag is disjoint from the rest of the front,\hfill \mbox {} \centerline {$H_\ast (f_b^{-1}[z_0,z_1],f_b^{-1}(z_0))$} would be the same at both endpoints. But this relative homology in degree $k-1$ is zero on the left end and nonzero on the right end}{figure.61}{}}
\@writefile{toc}{\contentsline {subsection}{\tocsubsection {}{2.3}{Homotopy lifting property}}{72}{subsection.65}}
\citation{EG98}
\newlabel{Persistence Theorem}{{2.13}{73}{Homotopy lifting property}{theorem.67}{}}
\@writefile{toc}{\contentsline {subsection}{\tocsubsection {}{2.4}{Generating family invariants}}{73}{subsection.69}}
\citation{T01}
\citation{T06}
\citation{FR11}
\citation{S06}
\citation{SS16}
\citation{FI04}
\citation{S05}
\citation{H04}
\citation{La11}
\newlabel{theorem: GF}{{2.16}{74}{}{theorem.71}{}}
\citation{HR15}
\citation{RS18}
\citation{V92}
\citation{EG98}
\citation{EG98}
\@writefile{toc}{\contentsline {subsection}{\tocsubsection {}{2.5}{Beyond trivial bundles}}{75}{subsection.75}}
\citation{GKS12}
\newlabel{globally linked}{{2.21}{76}{}{theorem.77}{}}
\newlabel{corollary: mesh Legendrians are globally linked}{{2.25}{76}{}{theorem.81}{}}
\citation{DR11}
\@writefile{lof}{\contentsline {figure}{\numberline {11}{\ignorespaces \smaller Spin this figure about the dotted line to get (the front projection of) the mesh Legendrian corresponding to the graph with one circular edge and no vertices.}}{77}{figure.82}}
\newlabel{FigSimpleLink}{{11}{77}{\smaller Spin this figure about the dotted line to get (the front projection of) the mesh Legendrian corresponding to the graph with one circular edge and no vertices}{figure.82}{}}
\@writefile{lof}{\contentsline {figure}{\numberline {12}{\ignorespaces \smaller A one parameter family of functions on the circle generating the Cerf diagram of Figure \ref  {Fig: link}.}}{77}{figure.83}}
\newlabel{FigFuncOnCircle}{{12}{77}{\smaller A one parameter family of functions on the circle generating the Cerf diagram of Figure \ref {Fig: link}}{figure.83}{}}
\newlabel{Question: remember}{{2.26}{77}{}{theorem.84}{}}
\citation{RS18}
\@writefile{lof}{\contentsline {figure}{\numberline {13}{\ignorespaces \smaller A cone singularity}}{78}{figure.86}}
\newlabel{Fig: cone}{{13}{78}{\smaller A cone singularity}{figure.86}{}}
\@writefile{lof}{\contentsline {figure}{\numberline {14}{\ignorespaces \smaller The Legendrian of Dimitroglou-Rizell cut over dotted line to show details.}}{78}{figure.87}}
\newlabel{FigDR}{{14}{78}{\smaller The Legendrian of Dimitroglou-Rizell cut over dotted line to show details}{figure.87}{}}
\@writefile{toc}{\contentsline {section}{\tocsection {}{3}{Turaev torsion}}{78}{section.89}}
\newlabel{Section: turaev torsion}{{3}{78}{Turaev torsion}{section.89}{}}
\newlabel{reidemeistertorsion}{{3.1}{78}{Torsion from the Morse-theoretic viewpoint}{subsection.90}{}}
\@writefile{toc}{\contentsline {subsection}{\tocsubsection {}{3.1}{Torsion from the Morse-theoretic viewpoint}}{78}{subsection.90}}
\citation{IK93}
\newlabel{second remark about IK conventions}{{3.1}{79}{}{theorem.91}{}}
\newlabel{reidemeisterdef}{{3.2}{80}{}{theorem.92}{}}
\@writefile{toc}{\contentsline {subsection}{\tocsubsection {}{3.2}{Euler structures and Turaev torsion}}{81}{subsection.94}}
\newlabel{indet}{{3.6}{81}{}{theorem.98}{}}
\@writefile{lof}{\contentsline {figure}{\numberline {15}{\ignorespaces \smaller The paths $p_x$ from $m_0$ to each critical point $x$ are compatible with the Euler structure if each composition $p_x\# p_{xy}\# \overline  p_y$ is null homotopic.}}{82}{figure.97}}
\newlabel{Fig: Euler}{{15}{82}{\smaller The paths $p_x$ from $m_0$ to each critical point $x$ are compatible with the Euler structure if each composition $p_x\# p_{xy}\# \overline p_y$ is null homotopic}{figure.97}{}}
\newlabel{Def: euler compatible}{{3.8}{82}{}{theorem.100}{}}
\newlabel{Def: euler compatiblea}{{a}{82}{}{Item.101}{}}
\newlabel{Def: euler compatibleb}{{b}{82}{}{Item.102}{}}
\newlabel{inv}{{3.9}{82}{}{theorem.103}{}}
\newlabel{Definition: weak}{{3.10}{83}{}{theorem.104}{}}
\newlabel{weakindet}{{3.12}{83}{}{theorem.106}{}}
\newlabel{Def: weak euler compatible}{{3.14}{83}{}{theorem.108}{}}
\newlabel{Def: weak euler compatiblea}{{a}{83}{}{Item.109}{}}
\newlabel{Def: weak euler compatibleb}{{b}{83}{}{Item.110}{}}
\newlabel{weakinv}{{3.15}{83}{}{theorem.111}{}}
\@writefile{toc}{\contentsline {subsection}{\tocsubsection {}{3.3}{Fibre Turaev torsion}}{84}{subsection.112}}
\newlabel{torsionpair}{{3.16}{84}{}{theorem.113}{}}
\newlabel{def:317}{{3.17}{84}{}{theorem.114}{}}
\newlabel{def:3171}{{1}{84}{}{Item.115}{}}
\newlabel{def:3172}{{2}{84}{}{Item.116}{}}
\newlabel{Def: function euler}{{3.18}{84}{}{theorem.117}{}}
\newlabel{familyturaev}{{3.19}{84}{}{theorem.119}{}}
\@writefile{lof}{\contentsline {figure}{\numberline {16}{\ignorespaces \smaller Given that $C_1,C_2$ are simply connected, a $\rho $-compatible weak Euler structure on $F_b$ is given by choosing a path $\alpha $ from $x$ to $y$ so that $\gamma =\alpha \#\beta $ is in the kernel of $\rho $, where $\beta $ is any path from $x$ to $y$ in $C_1$ and similarly for $x',y'$.}}{85}{figure.118}}
\newlabel{Fig: rho-compatible weak Euler structure}{{16}{85}{\smaller Given that $C_1,C_2$ are simply connected, a $\rho $-compatible weak Euler structure on $F_b$ is given by choosing a path $\alpha $ from $x$ to $y$ so that $\gamma =\alpha \#\beta $ is in the kernel of $\rho $, where $\beta $ is any path from $x$ to $y$ in $C_1$ and similarly for $x',y'$}{figure.118}{}}
\@writefile{toc}{\contentsline {subsection}{\tocsubsection {}{3.4}{Torsion of open manifolds}}{86}{subsection.121}}
\newlabel{Lemma: bars}{{3.21}{86}{}{theorem.122}{}}
\citation{EG98}
\newlabel{lemma: we need C1}{{3.23}{87}{}{theorem.124}{}}
\newlabel{ex: standard quadratic}{{3.24}{87}{}{theorem.125}{}}
\newlabel{torsiontriple}{{3.27}{88}{}{theorem.128}{}}
\newlabel{Section: stability of torsion}{{3.5}{88}{Stability of torsion}{subsection.129}{}}
\@writefile{toc}{\contentsline {subsection}{\tocsubsection {}{3.5}{Stability of torsion}}{88}{subsection.129}}
\newlabel{Proposition: turaev stability}{{3.28}{89}{}{theorem.132}{}}
\newlabel{sec: invariant}{{3.6}{89}{A Legendrian invariant}{subsection.134}{}}
\@writefile{toc}{\contentsline {subsection}{\tocsubsection {}{3.6}{A Legendrian invariant}}{89}{subsection.134}}
\newlabel{functoriality}{{3.35}{90}{}{theorem.140}{}}
\newlabel{legendrianinvariant}{{3.36}{90}{}{theorem.141}{}}
\newlabel{remark: need triples}{{3.37}{91}{}{theorem.142}{}}
\newlabel{cobordism}{{3.38}{91}{}{theorem.143}{}}
\@writefile{toc}{\contentsline {section}{\tocsection {}{4}{Mesh Legendrians}}{91}{section.145}}
\newlabel{Section: mesh Legendrians}{{4}{91}{Mesh Legendrians}{section.145}{}}
\newlabel{systems of disks}{{4.1}{91}{Generating families from systems of disks}{subsection.146}{}}
\@writefile{toc}{\contentsline {subsection}{\tocsubsection {}{4.1}{Generating families from systems of disks}}{91}{subsection.146}}
\citation{IK93}
\citation{I87}
\citation{EM12}
\citation{IK93}
\newlabel{contractibility}{{4.2}{92}{}{theorem.148}{}}
\newlabel{systems}{{4.5}{92}{}{theorem.151}{}}
\@writefile{lof}{\contentsline {figure}{\numberline {17}{\ignorespaces \smaller A system of 3 disks $D_1,D_2,D_3$ in $E$ the Hopf circle bundle over $S^2$ is shown in this sequence of cross-sections of these disks. This gives the fiberwise PGMF illustrated in Figure \ref  {Fig: start}.}}{93}{figure.152}}
\newlabel{Fig: system of disks}{{17}{93}{\smaller A system of 3 disks $D_1,D_2,D_3$ in $E$ the Hopf circle bundle over $S^2$ is shown in this sequence of cross-sections of these disks. This gives the fiberwise PGMF illustrated in Figure \ref {Fig: start}}{figure.152}{}}
\citation{IK93}
\@writefile{lof}{\contentsline {figure}{\numberline {18}{\ignorespaces \smaller As we go clockwise around a positive vertex (center) the canonical section moves positively around the fiber circle $i\mathchoice {\DOTSB \relbar \joinrel \rightarrow }{\rightarrow }{\rightarrow }{\rightarrow }j\mathchoice {\DOTSB \relbar \joinrel \rightarrow }{\rightarrow }{\rightarrow }{\rightarrow }k\mathchoice {\DOTSB \relbar \joinrel \rightarrow }{\rightarrow }{\rightarrow }{\rightarrow }i$ giving winding number $-1$. As we go counterclockwise around the midpoint of the edge $E_{ik}$ connecting two positive vertices, we go from\nonbreakingspace $i$ to\nonbreakingspace $k$ back to\nonbreakingspace $i$ in the positive direction giving winding number $+1$. Around the midpoint of an $E_{jk}$ connecting positive and negative vertices we go positively from $j$ to $k$ then negatively from $k$ to $j$ giving winding number zero.}}{94}{figure.153}}
\newlabel{Fig: 3 circles}{{18}{94}{\smaller As we go clockwise around a positive vertex (center) the canonical section moves positively around the fiber circle $i\to j\to k\to i$ giving winding number $-1$. As we go counterclockwise around the midpoint of the edge $E_{ik}$ connecting two positive vertices, we go from~$i$ to~$k$ back to~$i$ in the positive direction giving winding number $+1$. Around the midpoint of an $E_{jk}$ connecting positive and negative vertices we go positively from $j$ to $k$ then negatively from $k$ to $j$ giving winding number zero}{figure.153}{}}
\newlabel{generation}{{4.6}{94}{}{theorem.154}{}}
\citation{I04}
\citation{K92}
\citation{I04}
\citation{I04}
\citation{J89}
\newlabel{euler for circle}{{4.7}{95}{}{theorem.155}{}}
\@writefile{lof}{\contentsline {figure}{\numberline {19}{\ignorespaces \smaller The cyclic poset on a positive triangle coming from a positive vertex in a ribbon graph is shown. For a negative triangle we reverse all the cyclic orders. As morphisms in the category of cyclic sets and inclusions, this gives six $2$-simplices. Each gives a contribution of \hbox to\hsize {\hss $ c_\mathscr  {Z}(\{k\},\{j,k\},\{i,j,k\})={1}/{12} $\hss } to the Euler number of the covering for a total of ${1}/{2}$ for each positive vertex.}}{96}{figure.156}}
\newlabel{Fig: cyclic sets}{{19}{96}{\smaller The cyclic poset on a positive triangle coming from a positive vertex in a ribbon graph is shown. For a negative triangle we reverse all the cyclic orders. As morphisms in the category of cyclic sets and inclusions, this gives six $2$-simplices. Each gives a contribution of \centerline {$ c_\cZ (\{k\},\{j,k\},\{i,j,k\})=\sfrac 1{12} $} to the Euler number of the covering for a total of $\sfrac 12$ for each positive vertex}{figure.156}{}}
\newlabel{formal triviality}{{4.2}{96}{Formal triviality}{subsection.158}{}}
\@writefile{toc}{\contentsline {subsection}{\tocsubsection {}{4.2}{Formal triviality}}{96}{subsection.158}}
\newlabel{unlinked}{{4.9}{96}{}{theorem.159}{}}
\@writefile{lof}{\contentsline {figure}{\numberline {20}{\ignorespaces \smaller A disjoint union of flying saucers lying over disjoint balls.}}{97}{figure.163}}
\newlabel{FigureDisjointUnion}{{20}{97}{\smaller A disjoint union of flying saucers lying over disjoint balls}{figure.163}{}}
\@writefile{toc}{\contentsline {subsection}{\tocsubsection {}{4.3}{$0$-parametric Morse theory}}{98}{subsection.164}}
\newlabel{Lemma 0}{{4.13}{98}{}{theorem.165}{}}
\newlabel{Lemma 0.0}{{4.14}{99}{}{theorem.166}{}}
\newlabel{prop: un=vm lemma}{{4.15}{99}{}{theorem.167}{}}
\@writefile{toc}{\contentsline {subsection}{\tocsubsection {}{4.4}{$1$-parametric Morse theory}}{99}{subsection.170}}
\citation{IK93}
\newlabel{lem: ab=v}{{4.16}{100}{}{theorem.172}{}}
\citation{IK93}
\@writefile{lof}{\contentsline {figure}{\numberline {21}{\ignorespaces \smaller Portion of the front projection of $\Lambda _G$ lying over a curve transverse to an edge of $G$: $t_-,t_0,t_+$ are parameter values along this curve. The critical points $y_i,y_j$ have index $2k$ and $x_i,x_j$ have index $2k+1$. The four two-headed vertical arrows indicate the possible handle slides which we claim must be: $y_{ij}^{-b},x_{ji}^{-a}, x_{ij}^{b},y_{ji}^{a}$. }}{101}{figure.171}}
\newlabel{Fig: link}{{21}{101}{\smaller Portion of the front projection of $\Lambda _G$ lying over a curve transverse to an edge of $G$: $t_-,t_0,t_+$ are parameter values along this curve. The critical points $y_i,y_j$ have index $2k$ and $x_i,x_j$ have index $2k+1$. The four two-headed vertical arrows indicate the possible handle slides which we claim must be: $y_{ij}^{-b},x_{ji}^{-a}, x_{ij}^{b},y_{ji}^{a}$}{figure.171}{}}
\@writefile{toc}{\contentsline {subsection}{\tocsubsection {}{4.5}{$2$-parametric Morse theory}}{101}{subsection.174}}
\citation{HW73}
\citation{IK93}
\newlabel{possible exchange points}{{4.18}{102}{}{theorem.175}{}}
\newlabel{eq: no concurrent exchanges}{{4.1}{103}{$2$-parametric Morse theory}{equation.176}{}}
\@writefile{lof}{\contentsline {figure}{\numberline {22}{\ignorespaces \smaller Critical points of the lower index $2k$ are denoted $y_i$. The upper index critical points are $x_i$. Corresponding birth-death points are indicated by $z_i$. The triangle on the right is the triangle of birth death lines projected to the base with overcrossing indicating that $z_3$ is above $z_2$, etc. at the corners. The shaded region indicates the position of possible exchange points. The critical values of $x_3,y_3,z_1,z_2$ at the bottom corner are indicated by the figure in the middle. On the left side is a possible graphic for the function along the $z_3$ birth-death line with possible exchanges indicated with\nonbreakingspace $\ast $. See also Figure \ref  {FigureT} and the left side of \ref  {FigureR} showing the same thing. }}{103}{figure.177}}
\newlabel{Fig: birth-death triangle}{{22}{103}{\smaller Critical points of the lower index $2k$ are denoted $y_i$. The upper index critical points are $x_i$. Corresponding birth-death points are indicated by $z_i$. The triangle on the right is the triangle of birth death lines projected to the base with overcrossing indicating that $z_3$ is above $z_2$, etc. at the corners. The shaded region indicates the position of possible exchange points. The critical values of $x_3,y_3,z_1,z_2$ at the bottom corner are indicated by the figure in the middle. On the left side is a possible graphic for the function along the $z_3$ birth-death line with possible exchanges indicated with~$\ast $. See also Figure \ref {FigureT} and the left side of \ref {FigureR} showing the same thing}{figure.177}{}}
\newlabel{a3=v2 and b3=v}{{4.19}{104}{}{theorem.178}{}}
\newlabel{enum:a}{{a}{104}{$2$-parametric Morse theory}{Item.179}{}}
\newlabel{enum:b}{{b}{104}{$2$-parametric Morse theory}{Item.180}{}}
\@writefile{lof}{\contentsline {figure}{\numberline {23}{\ignorespaces \smaller The curve $\gamma $.}}{104}{figure.181}}
\newlabel{Fig: gamma}{{23}{104}{\smaller The curve $\gamma $}{figure.181}{}}
\citation{IK93}
\citation{IK93}
\@writefile{toc}{\contentsline {subsection}{\tocsubsection {}{4.6}{Conclusion of the computation}}{106}{subsection.183}}
\newlabel{thm: punching hole}{{4.22}{106}{}{theorem.185}{}}
\@writefile{lof}{\contentsline {figure}{\numberline {24}{\ignorespaces \smaller The ribbon graph (left) shows that $\Sigma _G=S^2$, $\Lambda _G$ has 6 components and $w(G)=\frac  12(7-1)=3$. So, $n=3$, $\varepsilon =+$. The handle slide pattern (right) has $p=7,q=1$ giving $\DOTSB \prod@ \slimits@ a_i=v^{15}$. The edges $E_{16},E_{26},E_{36},E_{46}$ force $a_7=b_8$, $a_9=b_{10}$, $a_1=b_2$, $a_3=b_4$. So, $a_7a_8a_9a_{10}a_1a_2a_3a_4=v^4$. Since there are 7 internal edges the internal $a_i$ multiply to $v^7$. Therefore $a_5a_6=v^{15-11}=v^4$. But $a_6=u^3b_5$. So, $v^4=a_5a_6=u^3a_5b_5=u^3v$. So, $v^3=u^3$.}}{107}{figure.186}}
\newlabel{FigureCA2}{{24}{107}{\smaller The ribbon graph (left) shows that $\Sigma _G=S^2$, $\Lambda _G$ has 6 components and $w(G)=\frac 12(7-1)=3$. So, $n=3$, $\varepsilon =+$. The handle slide pattern (right) has $p=7,q=1$ giving $\prod a_i=v^{15}$. The edges $E_{16},E_{26},E_{36},E_{46}$ force $a_7=b_8$, $a_9=b_{10}$, $a_1=b_2$, $a_3=b_4$. So, $a_7a_8a_9a_{10}a_1a_2a_3a_4=v^4$. Since there are 7 internal edges the internal $a_i$ multiply to $v^7$. Therefore $a_5a_6=v^{15-11}=v^4$. But $a_6=u^3b_5$. So, $v^4=a_5a_6=u^3a_5b_5=u^3v$. So, $v^3=u^3$}{figure.186}{}}
\citation{R35}
\citation{F35}
\citation{dR39}
\citation{M61}
\citation{M66}
\newlabel{proof of JKS}{{4.24}{108}{}{theorem.188}{}}
\@writefile{toc}{\contentsline {section}{\tocsection {Appendix}{}{Appendix. Overview of torsion}}{108}{section*.189}}
\newlabel{ap:torsion}{{4.6}{108}{Appendix. Overview of torsion}{section*.189}{}}
\@writefile{toc}{\contentsline {subsection}{\tocsubsection {}{A.1}{Reidemeister and Turaev torsion}}{108}{subsection.191}}
\citation{T86}
\citation{MT96}
\citation{T98}
\citation{W76}
\citation{K89}
\citation{IK93a}
\citation{IK93}
\citation{I02}
\citation{I04}
\@writefile{toc}{\contentsline {subsection}{\tocsubsection {}{A.2}{Higher Reidemeister torsion}}{109}{subsection.192}}
\citation{I87}
\citation{EM12}
\citation{I02}
\citation{I05}
\citation{BL95}
\citation{RS71}
\citation{DWW03}
\citation{IK93a}
\citation{IK93}
\citation{IK93}
\citation{IK93}
\newlabel{pictures for K3}{{A.3}{110}{Pictures for $K_3$}{subsection.193}{}}
\@writefile{toc}{\contentsline {subsection}{\tocsubsection {}{A.3}{Pictures for $K_3$}}{110}{subsection.193}}
\citation{K}
\citation{IK93}
\citation{IK93}
\citation{IK93}
\citation{IK93}
\citation{IK93}
\citation{IK93a}
\citation{IK93}
\@writefile{lof}{\contentsline {figure}{\numberline {25}{\ignorespaces \smaller The black lines indicate $k+1/k+1$ handle slides $x_{ij}^a$ giving column operations in the incidence matrices. The blue lines indicate $k/k$ handle slides $y_{ij}^b$ giving row operations. Exchange point, denoted $Z_{ij}^c$, is where the $i$th upper index critical point slides under the $j$th lower index critical point. The green dotted line indicates a discontinuity in the labeling. This is the ``cut'' that appears in the proof of Theorem \ref  {thm: punching hole}. The triangles are two black vertices connected by three edges of the ribbon graph labeled $E_{ij}$.}}{112}{figure.194}}
\newlabel{FigureR}{{25}{112}{\smaller The black lines indicate $k+1/k+1$ handle slides $x_{ij}^a$ giving column operations in the incidence matrices. The blue lines indicate $k/k$ handle slides $y_{ij}^b$ giving row operations. Exchange point, denoted $Z_{ij}^c$, is where the $i$th upper index critical point slides under the $j$th lower index critical point. The green dotted line indicates a discontinuity in the labeling. This is the ``cut'' that appears in the proof of Theorem \ref {thm: punching hole}. The triangles are two black vertices connected by three edges of the ribbon graph labeled $E_{ij}$}{figure.194}{}}
\citation{S61}
\citation{B64}
\citation{M63}
\citation{W50}
\citation{C70}
\citation{HW73}
\@writefile{toc}{\contentsline {subsection}{\tocsubsection {}{A.4}{Pseudo-isotopy theory}}{113}{subsection.196}}
\citation{EG98}
\citation{EG98}
\citation{I79}
\citation{I82}
\newlabel{Theorem: wh1}{{A.2}{114}{}{theorem.197}{}}
\@writefile{lof}{\contentsline {figure}{\numberline {26}{\ignorespaces \smaller An ``eye'' (homeomorphic to $S^1$) in $\mathbb  {R}^2=J^0(\mathbb  {R})$. Spin this around the dotted line to get a ``lens'' (homeomorphic to $S^2$) in $\mathbb  {R}^3=J^0(\mathbb  {R}^2)$. }}{114}{figure.198}}
\newlabel{Fig: eye}{{26}{114}{\smaller An ``eye'' (homeomorphic to $S^1$) in $\bR ^2=J^0(\bR )$. Spin this around the dotted line to get a ``lens'' (homeomorphic to $S^2$) in $\bR ^3=J^0(\bR ^2)$}{figure.198}{}}
\citation{I88}
\citation{W82}
\citation{K18}
\@writefile{toc}{\contentsline {subsection}{\tocsubsection {}{A.5}{Floer-theoretic torsions}}{115}{subsection.199}}
\citation{F95}
\citation{S02}
\citation{EG98}
\citation{AK18}
\citation{S17}
\citation{HL99}
\citation{L05a}
\citation{L05b}
\citation{C17}
\bibstyle{jepalpha+eid}
\bibdata{alvarez-igusa}
\bibcite{AK18}{AK18}
\bibcite{AGV85}{AGZV12}
\bibcite{B64}{Bar64}
\bibcite{5W}{BFG{$^{+}$}18}
\bibcite{BL95}{BL95}
\bibcite{CM18}{CM18}
\bibcite{C70}{Cer70}
\@writefile{toc}{\contentsline {section}{\tocsection {Appendix}{}{References}}{116}{section*.200}}
\bibcite{C84}{Cha84}
\bibcite{C17}{Cha19}
\bibcite{C96}{Che96}
\bibcite{C02}{Che02}
\bibcite{DR11}{DR11}
\bibcite{DWW03}{DWW03}
\bibcite{EES07}{EES07}
\bibcite{E98}{Eli98}
\bibcite{EG98}{EG98}
\bibcite{EM12}{EM12}
\bibcite{F35}{Fra35}
\bibcite{FI04}{FI04}
\bibcite{FR11}{FR11}
\bibcite{F95}{Fuk97}
\bibcite{GKS12}{GKS12}
\bibcite{HI19}{HI19}
\bibcite{HW73}{HW73}
\bibcite{H04}{Hen11}
\bibcite{HR15}{HR15}
\bibcite{HL99}{HL99}
\bibcite{K}{Igu}
\bibcite{I79}{Igu79}
\bibcite{I82}{Igu84}
\bibcite{I87}{Igu87}
\bibcite{I88}{Igu88}
\bibcite{IK93a}{Igu93}
\bibcite{I02}{Igu02}
\bibcite{I04}{Igu04}
\bibcite{I05}{Igu05}
\bibcite{IK93}{IK93}
\bibcite{J89}{Jek89}
\bibcite{JKS16}{JKS16}
\bibcite{T06}{JT06}
\bibcite{K89}{Kle89}
\bibcite{K92}{Kon92}
\bibcite{K18}{Kra18}
\bibcite{La11}{Lau12}
\bibcite{LS85}{LS85}
\bibcite{L05a}{Lee05a}
\bibcite{L05b}{Lee05b}
\bibcite{M63}{Maz63}
\bibcite{MT96}{MT96}
\bibcite{M61}{Mil61}
\bibcite{M66}{Mil66}
\bibcite{E12}{Mur19}
\bibcite{RS71}{RS71}
\bibcite{R35}{Rei35}
\bibcite{dR39}{dR40}
\bibcite{RS18}{RS18}
\bibcite{S05}{Sab05}
\bibcite{S06}{Sab06}
\bibcite{SS16}{SS16}
\bibcite{STWZ15}{STWZ19}
\bibcite{STZ17}{STZ17}
\bibcite{S86}{Sik86}
\bibcite{S61}{Sma61}
\bibcite{S17}{Su{\'a}17}
\bibcite{S02}{Sul02}
\bibcite{T01}{Tra01}
\bibcite{T86}{Tur86}
\bibcite{T98}{Tur98}
\bibcite{V92}{Vit92}
\bibcite{W76}{Wag78}
\bibcite{W82}{Wal82}
\bibcite{W50}{Whi50}
\newlabel{maxlabelwd}{38.00616pt}
\newlabel{tocindent-1}{0pt}
\newlabel{tocindent0}{52.9166pt}
\newlabel{tocindent1}{12.08325pt}
\newlabel{tocindent2}{0pt}
\newlabel{tocindent3}{0pt}
\newlabel{tocindent4}{0pt}
\newlabel{tocindent5}{0pt}
\newlabel{TheLastPage}{119}
