[
{
    "model": "ptf.provider",
    "pk": 1,
    "fields": {
        "name": "mathdoc",
        "pid_type": "mathdoc-id",
        "sid_type": null
    }
},
{
    "model": "ptf.provider",
    "pk": 2,
    "fields": {
        "name": "edp",
        "pid_type": "edps-id",
        "sid_type": null
    }
},
{
    "model": "ptf.provider",
    "pk": 3,
    "fields": {
        "name": "dmlcz",
        "pid_type": "dmlcz-id",
        "sid_type": null
    }
},
{
    "model": "ptf.provider",
    "pk": 4,
    "fields": {
        "name": "bdim",
        "pid_type": "bdim-id",
        "sid_type": null
    }
},
{
    "model": "ptf.provider",
    "pk": 5,
    "fields": {
        "name": "euclid",
        "pid_type": "euclid",
        "sid_type": null
    }
},
{
    "model": "ptf.provider",
    "pk": 6,
    "fields": {
        "name": "gdz",
        "pid_type": "gdz-id",
        "sid_type": null
    }
},
{
    "model": "ptf.provider",
    "pk": 7,
    "fields": {
        "name": "dmle",
        "pid_type": "dmle-id",
        "sid_type": null
    }
},
{
    "model": "ptf.provider",
    "pk": 8,
    "fields": {
        "name": "elibm",
        "pid_type": "elibm-id",
        "sid_type": null
    }
},
{
    "model": "ptf.provider",
    "pk": 9,
    "fields": {
        "name": "pldml",
        "pid_type": "pldml-id",
        "sid_type": null
    }
},
{
    "model": "ptf.provider",
    "pk": 10,
    "fields": {
        "name": "pmath",
        "pid_type": "pm-id",
        "sid_type": null
    }
},
{
    "model": "ptf.provider",
    "pk": 11,
    "fields": {
        "name": "hdml",
        "pid_type": "hdml-id",
        "sid_type": null
    }
},
{
    "model": "ptf.provider",
    "pk": 12,
    "fields": {
        "name": "gdml",
        "pid_type": "gdml-id",
        "sid_type": null
    }
},
{
    "model": "ptf.provider",
    "pk": 13,
    "fields": {
        "name": "other",
        "pid_type": "other",
        "sid_type": null
    }
},
{
    "model": "ptf.provider",
    "pk": 14,
    "fields": {
        "name": "eudml",
        "pid_type": "eudml-id",
        "sid_type": null
    }
},
{
    "model": "ptf.provider",
    "pk": 15,
    "fields": {
        "name": "arxiv",
        "pid_type": "arxiv-id",
        "sid_type": null
    }
},
{
    "model": "ptf.provider",
    "pk": 16,
    "fields": {
        "name": "hal",
        "pid_type": "hal-id",
        "sid_type": null
    }
},
{
    "model": "ptf.provider",
    "pk": 17,
    "fields": {
        "name": "publisher",
        "pid_type": "publisher-id",
        "sid_type": null
    }
},
{
    "model": "ptf.provider",
    "pk": 18,
    "fields": {
        "name": "publisher_simple",
        "pid_type": "publisher",
        "sid_type": null
    }
},
  {
    "model": "ptf.provider",
    "pk": 22,
    "fields": {
      "name": "enssib",
      "pid_type": "enssib-id",
      "sid_type": null
    }
  },
  {
    "model": "ptf.provider",
    "pk": 23,
    "fields": {
      "name": "mrr-centre-mersenne",
      "pid_type": "mrr-id",
      "sid_type": null
    }
  }
]
