\relax 
\providecommand\hyper@newdestlabel[2]{}
\catcode `:\active 
\catcode `;\active 
\catcode `!\active 
\catcode `?\active 
\providecommand\HyperFirstAtBeginDocument{\AtBeginDocument}
\HyperFirstAtBeginDocument{\ifx\hyper@anchor\@undefined
\global\let\oldcontentsline\contentsline
\gdef\contentsline#1#2#3#4{\oldcontentsline{#1}{#2}{#3}}
\global\let\oldnewlabel\newlabel
\gdef\newlabel#1#2{\newlabelxx{#1}#2}
\gdef\newlabelxx#1#2#3#4#5#6{\oldnewlabel{#1}{{#2}{#3}}}
\AtEndDocument{\ifx\hyper@anchor\@undefined
\let\contentsline\oldcontentsline
\let\newlabel\oldnewlabel
\fi}
\fi}
\global\let\hyper@last\relax 
\gdef\HyperFirstAtBeginDocument#1{#1}
\providecommand\HyField@AuxAddToFields[1]{}
\providecommand\HyField@AuxAddToCoFields[2]{}
\select@language{english}
\@writefile{toc}{\select@language{english}}
\@writefile{lof}{\select@language{english}}
\@writefile{lot}{\select@language{english}}
\select@language{english}
\@writefile{toc}{\select@language{english}}
\@writefile{lof}{\select@language{english}}
\@writefile{lot}{\select@language{english}}
\select@language{french}
\@writefile{toc}{\select@language{french}}
\@writefile{lof}{\select@language{french}}
\@writefile{lot}{\select@language{french}}
\select@language{english}
\@writefile{toc}{\select@language{english}}
\@writefile{lof}{\select@language{english}}
\@writefile{lot}{\select@language{english}}
\citation{Kas84}
\citation{DK16}
\citation{DK16}
\citation{DK18}
\@writefile{toc}{\contentsline {section}{\tocsection {}{1}{Introduction}}{28}{section.2}}
\citation{KS90}
\citation{Tam08}
\citation{GS14}
\citation{DK19}
\citation{KS01}
\citation{DK16}
\citation{KS16}
\citation{Kas16}
\citation{DK19}
\@writefile{toc}{\contentsline {section}{\tocsection {}{2}{Notations and complements}}{29}{section.3}}
\newlabel{se:not}{{2}{29}{Notations and complements}{section.3}{}}
\@writefile{toc}{\contentsline {subsection}{\tocsubsection {}{2.1}{Bordered spaces}}{29}{subsection.4}}
\newlabel{eq:k}{{2.1}{29}{Bordered spaces}{equation.5}{}}
\citation{DK16}
\newlabel{sse:indingood}{{2.2}{30}{Ind-sheaves on good spaces}{subsection.11}{}}
\@writefile{toc}{\contentsline {subsection}{\tocsubsection {}{2.2}{Ind-sheaves on good spaces}}{30}{subsection.11}}
\newlabel{eq:table}{{2.2}{30}{Ind-sheaves on good spaces}{equation.12}{}}
\citation{DK16}
\citation{KS01}
\@writefile{toc}{\contentsline {subsection}{\tocsubsection {}{2.3}{Ind-sheaves on bordered spaces}}{31}{subsection.13}}
\newlabel{eq:tsepb}{{2.3}{31}{Ind-sheaves on bordered spaces}{equation.14}{}}
\newlabel{st:tsepb}{{2.4}{31}{Ind-sheaves on bordered spaces}{equation.15}{}}
\newlabel{eq:i*!}{{2.5}{31}{Ind-sheaves on bordered spaces}{equation.16}{}}
\newlabel{lem:iab}{{2.1}{31}{}{theorem.17}{}}
\newlabel{lem:iabi}{{i}{31}{}{Item.18}{}}
\newlabel{lem:iabii}{{ii}{31}{}{Item.19}{}}
\newlabel{lem:iabiii}{{iii}{31}{}{Item.20}{}}
\newlabel{lem:alphaop}{{2.2}{32}{}{theorem.21}{}}
\newlabel{lem:alphaopi}{{i}{32}{}{Item.22}{}}
\newlabel{lem:alphaopii}{{ii}{32}{}{Item.23}{}}
\newlabel{lem:alphaopiii}{{iii}{32}{}{Item.24}{}}
\@writefile{toc}{\contentsline {subsection}{\tocsubsection {}{2.4}{Enhanced ind-sheaves}}{33}{subsection.25}}
\newlabel{eq:fihom}{{2.6}{33}{Enhanced ind-sheaves}{equation.28}{}}
\newlabel{eq:fhom}{{2.7}{33}{Enhanced ind-sheaves}{equation.29}{}}
\newlabel{sse:stable}{{2.5}{34}{Stable objects}{subsection.30}{}}
\@writefile{toc}{\contentsline {subsection}{\tocsubsection {}{2.5}{Stable objects}}{34}{subsection.30}}
\newlabel{no:ex}{{2.3}{34}{}{theorem.31}{}}
\newlabel{no:exi}{{i}{34}{}{Item.32}{}}
\newlabel{no:exii}{{ii}{34}{}{Item.33}{}}
\citation{KS16}
\citation{DK16}
\@writefile{toc}{\contentsline {subsection}{\tocsubsection {}{2.6}{Constructible objects}}{35}{subsection.34}}
\@writefile{toc}{\contentsline {section}{\tocsection {}{3}{Sheafification}}{35}{section.35}}
\newlabel{se:sh}{{3}{35}{Sheafification}{section.35}{}}
\@writefile{toc}{\contentsline {subsection}{\tocsubsection {}{3.1}{Associated ind-sheaf}}{35}{subsection.36}}
\newlabel{lem:ishadj}{{3.2}{35}{}{theorem.38}{}}
\newlabel{lem:ishadji}{{i}{35}{}{Item.39}{}}
\citation{DK16}
\citation{DK16}
\newlabel{lem:ishadjii}{{ii}{36}{}{Item.40}{}}
\newlabel{lem:ishadjiii}{{iii}{36}{}{Item.41}{}}
\newlabel{lem:ishop}{{3.3}{36}{}{theorem.42}{}}
\newlabel{lem:ishopi}{{i}{36}{}{Item.43}{}}
\newlabel{lem:ishopii}{{ii}{36}{}{Item.44}{}}
\newlabel{lem:ishopiii}{{iii}{36}{}{Item.45}{}}
\citation{KS01}
\citation{KS16}
\citation{DK16}
\@writefile{toc}{\contentsline {subsection}{\tocsubsection {}{3.2}{Associated sheaf}}{38}{subsection.46}}
\newlabel{eq:shstb}{{3.1}{38}{Associated sheaf}{equation.50}{}}
\newlabel{lem:shi}{{3.5}{38}{}{theorem.51}{}}
\newlabel{pro:KScor}{{3.6}{38}{\cite [Cor.\,6.6.6]{KS16}}{theorem.53}{}}
\newlabel{cor:shother}{{3.7}{39}{}{theorem.54}{}}
\newlabel{eq:she}{{3.2}{39}{Associated sheaf}{equation.55}{}}
\newlabel{pro:sheid}{{3.8}{39}{}{theorem.56}{}}
\newlabel{pro:sheidi}{{i}{39}{}{Item.57}{}}
\newlabel{pro:sheidii}{{ii}{39}{}{Item.58}{}}
\newlabel{lem:shop}{{3.9}{39}{}{theorem.59}{}}
\newlabel{lem:shopi}{{i}{39}{}{Item.60}{}}
\newlabel{lem:shopii}{{ii}{39}{}{Item.61}{}}
\citation{KS03}
\citation{IT20}
\citation{DK16}
\citation{KS16}
\citation{KS16}
\newlabel{lem:shopiii}{{iii}{40}{}{Item.62}{}}
\newlabel{exam:310}{{3.10}{40}{}{theorem.63}{}}
\@writefile{toc}{\contentsline {subsection}{\tocsubsection {}{3.3}{(Weak-)\tmspace  +\thinmuskip {.1667em}constructibility}}{40}{subsection.65}}
\citation{DK16}
\newlabel{enum:i}{{i}{41}{(Weak-)\,constructibility}{Item.68}{}}
\newlabel{enum:ii}{{ii}{41}{(Weak-)\,constructibility}{Item.69}{}}
\citation{DK16}
\citation{DK18}
\citation{DK18}
\newlabel{lem:shetens}{{3.14}{42}{}{theorem.71}{}}
\@writefile{toc}{\contentsline {section}{\tocsection {}{4}{Stalk formula}}{42}{section.72}}
\newlabel{se:germ}{{4}{42}{Stalk formula}{section.72}{}}
\@writefile{toc}{\contentsline {subsection}{\tocsubsection {}{4.1}{Restriction and stalk formula}}{42}{subsection.73}}
\newlabel{pro:sgerm}{{4.1}{42}{}{theorem.74}{}}
\citation{KS16}
\citation{KS16}
\newlabel{eq:sectT}{{4.1}{43}{}{equation.75}{}}
\newlabel{pf:i}{{i}{43}{Restriction and stalk formula}{Item.76}{}}
\newlabel{pf:ii}{{ii}{43}{Restriction and stalk formula}{Item.77}{}}
\citation{DK19nu}
\newlabel{pf:iii}{{iii}{44}{Restriction and stalk formula}{Item.78}{}}
\@writefile{toc}{\contentsline {section}{\tocsection {}{5}{Specialization and microlocalization}}{44}{section.81}}
\newlabel{se:numu}{{5}{44}{Specialization and microlocalization}{section.81}{}}
\citation{DK19nu}
\citation{DK19nu}
\newlabel{sse:blow}{{5.1}{45}{Real oriented blow-up transforms}{subsection.82}{}}
\@writefile{toc}{\contentsline {subsection}{\tocsubsection {}{5.1}{Real oriented blow-up transforms}}{45}{subsection.82}}
\newlabel{eq:blowMN}{{5.1}{45}{Real oriented blow-up transforms}{subsection.82}{}}
\newlabel{lem:psiphigerm}{{5.1}{45}{}{theorem.83}{}}
\citation{DK19nu}
\@writefile{toc}{\contentsline {subsection}{\tocsubsection {}{5.2}{Sheafification on vector bundles}}{46}{subsection.84}}
\newlabel{lem:oshsho}{{5.2}{46}{}{theorem.85}{}}
\citation{DK19nu}
\citation{KS90}
\citation{DK19nu}
\@writefile{toc}{\contentsline {subsection}{\tocsubsection {}{5.3}{Specialization and microlocalization}}{47}{subsection.86}}
\newlabel{eq:nd}{{5.1}{47}{Specialization and microlocalization}{equation.87}{}}
\citation{DK19nu}
\citation{KS90}
\citation{DK19nu}
\newlabel{pro:numugerm}{{5.3}{48}{}{theorem.88}{}}
\newlabel{pro:numugermi}{{i}{48}{}{Item.89}{}}
\newlabel{pro:numugermii}{{ii}{48}{}{Item.90}{}}
\citation{DK16}
\@writefile{toc}{\contentsline {section}{\tocsection {Appendix}{A}{Complements on enhanced ind-sheaves}}{50}{appendix.91}}
\newlabel{se:compl}{{A}{50}{Complements on enhanced ind-sheaves}{appendix.91}{}}
\newlabel{eq:DFK}{{A.1}{50}{}{equation.93}{}}
\newlabel{prop:extd}{{A.2}{50}{}{theorem.94}{}}
\citation{DK16}
\newlabel{lem:carsq}{{A.3}{51}{}{theorem.96}{}}
\newlabel{lem:A3}{{A.4}{51}{}{theorem.97}{}}
\@writefile{toc}{\contentsline {section}{\tocsection {Appendix}{B}{Complements on weak constructibility}}{51}{appendix.98}}
\newlabel{se:wc}{{B}{51}{Complements on weak constructibility}{appendix.98}{}}
\citation{KS90}
\@writefile{toc}{\contentsline {subsection}{\tocsubsection {}{B.1}{Lojasiewicz's inequalities}}{52}{subsection.99}}
\newlabel{lem:Loj}{{B.1}{52}{}{theorem.100}{}}
\newlabel{lem:Loji}{{i}{52}{}{Item.101}{}}
\newlabel{lem:Lojii}{{ii}{52}{}{Item.102}{}}
\newlabel{eq:Lojhyp}{{B.1}{52}{}{equation.103}{}}
\newlabel{th:subanalytic ext}{{B.2}{52}{}{theorem.104}{}}
\newlabel{cor:FKU}{{B.3}{52}{}{theorem.105}{}}
\citation{KS90}
\@writefile{toc}{\contentsline {subsection}{\tocsubsection {}{B.2}{Barycentric decomposition}}{53}{subsection.106}}
\newlabel{lem:Zloccl}{{B.4}{53}{}{theorem.107}{}}
\newlabel{lem:Zloccli}{{i}{53}{}{Item.108}{}}
\newlabel{lem:Zlocclia}{{ia}{53}{}{Item.109}{}}
\newlabel{lem:Zlocclib}{{ib}{53}{}{Item.110}{}}
\newlabel{lem:Zlocclii}{{ii}{53}{}{Item.111}{}}
\newlabel{lem:Zloccliia}{{iia}{53}{}{Item.112}{}}
\newlabel{lem:Zloccliib}{{iib}{53}{}{Item.113}{}}
\newlabel{lem:Zloccliii}{{iii}{53}{}{Item.114}{}}
\newlabel{lem:Zloccliiia}{{iiia}{53}{}{Item.115}{}}
\newlabel{lem:Zloccliiib}{{iiib}{53}{}{Item.116}{}}
\newlabel{lem:Usigma}{{B.5}{53}{}{theorem.117}{}}
\newlabel{eq:bary}{{B.2}{54}{Barycentric decomposition}{equation.118}{}}
\newlabel{sublemma}{{B.6}{54}{}{theorem.119}{}}
\@writefile{toc}{\contentsline {subsection}{\tocsubsection {}{B.3}{Proof of Theorem\nonbreakingspace \ref  {th:subanalytic ext}}}{54}{subsection.120}}
\newlabel{subsec:proof}{{B.3}{54}{Proof of Theorem~\ref {th:subanalytic ext}}{subsection.120}{}}
\newlabel{lem:contr}{{B.7}{54}{}{theorem.121}{}}
\newlabel{cond:Sigma}{{B.3}{54}{}{equation.122}{}}
\bibstyle{jepplain+eid}
\bibdata{dagnolo-kashiwara}
\bibcite{DK16}{1}
\bibcite{DK18}{2}
\bibcite{DK19}{3}
\bibcite{DK19nu}{4}
\bibcite{GS14}{5}
\bibcite{IT20}{6}
\bibcite{Kas84}{7}
\bibcite{Kas16}{8}
\bibcite{KS90}{9}
\bibcite{KS01}{10}
\bibcite{KS03}{11}
\bibcite{KS16}{12}
\bibcite{Tam08}{13}
\newlabel{maxlabelwd}{13.22232pt}
\newlabel{tocindent-1}{0pt}
\newlabel{tocindent0}{52.9166pt}
\newlabel{tocindent1}{60.4166pt}
\newlabel{tocindent2}{0pt}
\newlabel{tocindent3}{0pt}
\newlabel{tocindent4}{0pt}
\newlabel{tocindent5}{0pt}
\@writefile{toc}{\contentsline {section}{\tocsection {Appendix}{}{References}}{55}{section*.123}}
\newlabel{TheLastPage}{55}
