\BOOKMARK [1][-]{section.2}{\376\377\0001\000.\000\040\000I\000n\000t\000r\000o\000d\000u\000c\000t\000i\000o\000n}{}% 1
\BOOKMARK [1][-]{section.3}{\376\377\0002\000.\000\040\000N\000o\000t\000a\000t\000i\000o\000n\000s\000\040\000a\000n\000d\000\040\000c\000o\000m\000p\000l\000e\000m\000e\000n\000t\000s}{}% 2
\BOOKMARK [1][-]{section.35}{\376\377\0003\000.\000\040\000S\000h\000e\000a\000f\000i\000f\000i\000c\000a\000t\000i\000o\000n}{}% 3
\BOOKMARK [1][-]{section.72}{\376\377\0004\000.\000\040\000S\000t\000a\000l\000k\000\040\000f\000o\000r\000m\000u\000l\000a}{}% 4
\BOOKMARK [1][-]{section.81}{\376\377\0005\000.\000\040\000S\000p\000e\000c\000i\000a\000l\000i\000z\000a\000t\000i\000o\000n\000\040\000a\000n\000d\000\040\000m\000i\000c\000r\000o\000l\000o\000c\000a\000l\000i\000z\000a\000t\000i\000o\000n}{}% 5
\BOOKMARK [1][-]{appendix.91}{\376\377\000A\000p\000p\000e\000n\000d\000i\000x\000\040\000A\000.\000\040\000C\000o\000m\000p\000l\000e\000m\000e\000n\000t\000s\000\040\000o\000n\000\040\000e\000n\000h\000a\000n\000c\000e\000d\000\040\000i\000n\000d\000-\000s\000h\000e\000a\000v\000e\000s}{}% 6
\BOOKMARK [1][-]{appendix.98}{\376\377\000A\000p\000p\000e\000n\000d\000i\000x\000\040\000B\000.\000\040\000C\000o\000m\000p\000l\000e\000m\000e\000n\000t\000s\000\040\000o\000n\000\040\000w\000e\000a\000k\000\040\000c\000o\000n\000s\000t\000r\000u\000c\000t\000i\000b\000i\000l\000i\000t\000y}{}% 7
\BOOKMARK [1][-]{section*.123}{\376\377\000R\000e\000f\000e\000r\000e\000n\000c\000e\000s}{}% 8
