[
{
    "model": "sites.site",
    "pk": 13,
    "fields": {
        "domain": "www.mersenne.pmb.fr",
        "name": "pmb"
    }
},
{
    "model": "ptf.ptfsite",
    "pk": 13,
    "fields": {
        "acro": "pmb",
        "public": null,
        "prev_pub_date": null,
        "last_pub_date": null
    }
}
]
