[
  {
    "id": 4,
    "object_id": 0,
    "domain": "annals.math.princeton.edu",
    "website": "https://annals.math.princeton.edu",
    "name": "Annals Of Mathematics",
    "create_xissue": "",
    "periode_href": "/(?P<year>\\d{4})",
    "article_href": "/(?P<vol>\\d{1,3})\\-(?P<num>\\d+)/p(?P<article>\\d+)",
    "pdf_href": "/wp-content/uploads/"
  },
  {
    "id": 10,
    "object_id": 1,
    "domain": "hdml.di.ionio.gr",
    "website": "https://hdml.di.ionio.gr/en/browse/Journals",
    "name": "Hellenic Digital Mathematics Library",
    "create_xissue": "true",
    "periode_href": "",
    "article_href": "(?P<base>en/item/Journals)/(\\p{Greek}+|s|\\s)+/(?P<volume>\\d+)/(?P<num>\\d+)",
    "pdf_href": "pdfs/journals"
  },
  {
    "id": 1,
    "object_id": 2,
    "domain": "eudml.org",
    "website": "http://eudml.org/",
    "name": "European Digital Mathematics Library",
    "create_xissue": "true",
    "periode_href": "",
    "article_href":  "",
    "pdf_href": ""
  },
  {
    "id": 6,
    "object_id": 4,
    "domain": "mathnet.ru",
    "website": "https://www.mathnet.ru/",
    "name": "Mathnet.ru",
    "create_xissue": "false",
    "periode_href": "/php/archive.phtml\\?jrnid=\\w+&wshow=issue&year=(?P<number>\\d+)",
    "article_href":  "/eng/",
    "pdf_href": "/php/getFT.phtml"
  },
  {
    "id": 7,
    "object_id": 4,
    "domain": "archive.org",
    "website": "https://archive.org/",
    "name": "Archive.org",
    "create_xissue": "true",
    "periode_href": "?and[]=year%3A\"\\d{4}\")",
    "article_href":  "/details/",
    "pdf_href": ""
  }
]