[
{
    "model": "sites.site",
    "pk": 33,
    "fields": {
        "domain": "www.mersenne.mrr.fr",
        "name": "mrr"
    }
},
{
    "model": "ptf.ptfsite",
    "pk": 33,
    "fields": {
        "acro": "mrr",
        "public": null,
        "prev_pub_date": null,
        "last_pub_date": null
    }
}
]
