[
  {
    "model": "mersenne_cms.page",
    "fields": {
      "mersenne_id": "homepage",
      "site_id": 33,
      "content_en": "TBD",
      "menu_title_en": "Accueil",
      "state": "published",
      "slug_en": "home",
      "position": "top"
    }
  },
  {
    "model": "mersenne_cms.page",
    "fields": {
      "mersenne_id": "issues",
      "site_id": 33,
      "menu_title_en": "Notre revue",
      "state": "published",
      "slug_en": "menu",
      "position": "top"
    }
  },
  {
    "model": "mersenne_cms.page",
    "fields": {
      "mersenne_id": "next_articles",
      "parent_page": ["menu", 33],
      "site_id": 33,
      "menu_title_en": "Articles à paraître",
      "state": "published",
      "slug_en": "coming-articles",
      "editable": false,
      "position": "top"
    }
  },
  {
    "model": "mersenne_cms.page",
    "fields": {
      "mersenne_id": "volumes",
      "parent_page": ["menu", 32],
      "site_id": 32,
      "menu_title_en": "Tous les tomes en ligne",
      "state": "published",
      "slug_en": "all-volumes",
      "editable": false,
      "position": "top"
    }
  }
]
