PWD /cedram_dev/production_tex/CEDRAM/JEP/JEP_2021__8_
INPUT /usr/local/texlive/2017/texmf.cnf
INPUT /usr/local/texlive/2017/texmf-dist/web2c/texmf.cnf
INPUT /usr/local/texlive/2017/texmf-var/web2c/pdftex/pdflatex.fmt
INPUT JEP_2021__8_.tex
OUTPUT JEP_2021__8_.log
INPUT /usr/local/texlive/texmf-mersenne/tex/latex/cedram/base/cedram.cls
INPUT /usr/local/texlive/texmf-mersenne/tex/latex/cedram/base/cedram.cls
INPUT /usr/local/texlive/2017/texmf-dist/tex/latex/etex-pkg/etex.sty
INPUT /usr/local/texlive/2017/texmf-dist/tex/latex/etex-pkg/etex.sty
INPUT /usr/local/texlive/2017/texmf-dist/tex/latex/ifplatform/ifplatform.sty
INPUT /usr/local/texlive/2017/texmf-dist/tex/latex/ifplatform/ifplatform.sty
INPUT /usr/local/texlive/2017/texmf-dist/tex/generic/oberdiek/pdftexcmds.sty
INPUT /usr/local/texlive/2017/texmf-dist/tex/generic/oberdiek/pdftexcmds.sty
INPUT /usr/local/texlive/2017/texmf-dist/tex/generic/oberdiek/infwarerr.sty
INPUT /usr/local/texlive/2017/texmf-dist/tex/generic/oberdiek/infwarerr.sty
INPUT /usr/local/texlive/2017/texmf-dist/tex/generic/oberdiek/ifluatex.sty
INPUT /usr/local/texlive/2017/texmf-dist/tex/generic/oberdiek/ifluatex.sty
INPUT /usr/local/texlive/2017/texmf-dist/tex/generic/oberdiek/ltxcmds.sty
INPUT /usr/local/texlive/2017/texmf-dist/tex/generic/oberdiek/ltxcmds.sty
INPUT /usr/local/texlive/2017/texmf-dist/tex/generic/oberdiek/ifpdf.sty
INPUT /usr/local/texlive/2017/texmf-dist/tex/generic/oberdiek/ifpdf.sty
INPUT /usr/local/texlive/2017/texmf-dist/tex/generic/oberdiek/catchfile.sty
INPUT /usr/local/texlive/2017/texmf-dist/tex/generic/oberdiek/catchfile.sty
INPUT /usr/local/texlive/2017/texmf-dist/tex/generic/oberdiek/etexcmds.sty
INPUT /usr/local/texlive/2017/texmf-dist/tex/generic/oberdiek/etexcmds.sty
INPUT /dev/null
INPUT JEP_2021__8_.w18
INPUT JEP_2021__8_.w18
INPUT has_cedrics.aux
INPUT has_cedrics.aux
INPUT /usr/local/texlive/2017/texmf-dist/tex/generic/babel/babel.sty
INPUT /usr/local/texlive/2017/texmf-dist/tex/generic/babel/babel.sty
INPUT /usr/local/texlive/2017/texmf-dist/tex/generic/babel/switch.def
INPUT /usr/local/texlive/2017/texmf-dist/tex/generic/babel-french/frenchb.ldf
INPUT /usr/local/texlive/2017/texmf-dist/tex/generic/babel-french/frenchb.ldf
INPUT /usr/local/texlive/2017/texmf-dist/tex/generic/babel-french/french.ldf
INPUT /usr/local/texlive/2017/texmf-dist/tex/generic/babel/babel.def
INPUT /usr/local/texlive/2017/texmf-dist/tex/generic/babel/switch.def
INPUT /usr/local/texlive/2017/texmf-dist/tex/generic/babel-english/english.ldf
INPUT /usr/local/texlive/2017/texmf-dist/tex/generic/babel-english/english.ldf
INPUT /usr/local/texlive/2017/texmf-dist/tex/latex/carlisle/scalefnt.sty
INPUT /usr/local/texlive/2017/texmf-dist/tex/latex/carlisle/scalefnt.sty
INPUT /usr/local/texlive/2017/texmf-dist/tex/latex/graphics/keyval.sty
INPUT /usr/local/texlive/2017/texmf-dist/tex/latex/graphics/keyval.sty
INPUT /usr/local/texlive/2017/texmf-dist/tex/latex/amsmath/amsmath.sty
INPUT /usr/local/texlive/2017/texmf-dist/tex/latex/amsmath/amsmath.sty
INPUT /usr/local/texlive/2017/texmf-dist/tex/latex/amsmath/amstext.sty
INPUT /usr/local/texlive/2017/texmf-dist/tex/latex/amsmath/amstext.sty
INPUT /usr/local/texlive/2017/texmf-dist/tex/latex/amsmath/amsgen.sty
INPUT /usr/local/texlive/2017/texmf-dist/tex/latex/amsmath/amsgen.sty
INPUT /usr/local/texlive/2017/texmf-dist/tex/latex/amsmath/amsbsy.sty
INPUT /usr/local/texlive/2017/texmf-dist/tex/latex/amsmath/amsbsy.sty
INPUT /usr/local/texlive/2017/texmf-dist/tex/latex/amsmath/amsopn.sty
INPUT /usr/local/texlive/2017/texmf-dist/tex/latex/amsmath/amsopn.sty
INPUT /usr/local/texlive/2017/texmf-dist/tex/latex/amsfonts/umsa.fd
INPUT /usr/local/texlive/2017/texmf-dist/tex/latex/amsfonts/umsa.fd
INPUT /usr/local/texlive/2017/texmf-dist/tex/latex/amsfonts/amsfonts.sty
INPUT /usr/local/texlive/2017/texmf-dist/tex/latex/amsfonts/amsfonts.sty
INPUT /usr/local/texlive/2017/texmf-dist/tex/latex/hyperref/nohyperref.sty
INPUT /usr/local/texlive/2017/texmf-dist/tex/latex/hyperref/nohyperref.sty
INPUT /usr/local/texlive/2017/texmf-dist/tex/latex/oberdiek/letltxmacro.sty
INPUT /usr/local/texlive/2017/texmf-dist/tex/latex/oberdiek/letltxmacro.sty
INPUT /usr/local/texlive/2017/texmf-dist/tex/latex/placeins/placeins.sty
INPUT /usr/local/texlive/2017/texmf-dist/tex/latex/placeins/placeins.sty
INPUT /usr/local/texlive/2017/texmf-dist/tex/latex/base/fontenc.sty
INPUT /usr/local/texlive/2017/texmf-dist/tex/latex/base/fontenc.sty
INPUT /usr/local/texlive/2017/texmf-dist/tex/latex/base/t1enc.def
INPUT /usr/local/texlive/2017/texmf-dist/tex/latex/base/t1enc.def
INPUT /usr/local/texlive/2017/texmf-dist/fonts/map/fontname/texfonts.map
INPUT /usr/local/texlive/2017/texmf-dist/fonts/tfm/jknappen/ec/ecrm1000.tfm
INPUT /usr/local/texlive/2017/texmf-dist/tex/latex/lm/lmodern.sty
INPUT /usr/local/texlive/2017/texmf-dist/tex/latex/lm/lmodern.sty
INPUT /usr/local/texlive/2017/texmf-dist/tex/latex/base/textcomp.sty
INPUT /usr/local/texlive/2017/texmf-dist/tex/latex/base/textcomp.sty
INPUT /usr/local/texlive/2017/texmf-dist/tex/latex/base/ts1enc.def
INPUT /usr/local/texlive/2017/texmf-dist/tex/latex/base/ts1enc.def
INPUT /usr/local/texlive/2017/texmf-dist/tex/latex/base/inputenc.sty
INPUT /usr/local/texlive/2017/texmf-dist/tex/latex/base/inputenc.sty
INPUT /usr/local/texlive/2017/texmf-dist/tex/latex/base/utf8.def
INPUT /usr/local/texlive/2017/texmf-dist/tex/latex/base/utf8.def
INPUT /usr/local/texlive/2017/texmf-dist/tex/latex/base/t1enc.dfu
INPUT /usr/local/texlive/2017/texmf-dist/tex/latex/base/t1enc.dfu
INPUT /usr/local/texlive/2017/texmf-dist/tex/latex/base/ot1enc.dfu
INPUT /usr/local/texlive/2017/texmf-dist/tex/latex/base/ot1enc.dfu
INPUT /usr/local/texlive/2017/texmf-dist/tex/latex/base/omsenc.dfu
INPUT /usr/local/texlive/2017/texmf-dist/tex/latex/base/omsenc.dfu
INPUT /usr/local/texlive/2017/texmf-dist/tex/latex/base/ts1enc.dfu
INPUT /usr/local/texlive/2017/texmf-dist/tex/latex/base/ts1enc.dfu
INPUT /usr/local/texlive/2017/texmf-dist/tex/latex/xcolor/xcolor.sty
INPUT /usr/local/texlive/2017/texmf-dist/tex/latex/xcolor/xcolor.sty
INPUT /usr/local/texlive/2017/texmf-dist/tex/latex/graphics-cfg/color.cfg
INPUT /usr/local/texlive/2017/texmf-dist/tex/latex/graphics-cfg/color.cfg
INPUT /usr/local/texlive/2017/texmf-dist/tex/latex/graphics-def/pdftex.def
INPUT /usr/local/texlive/2017/texmf-dist/tex/latex/graphics-def/pdftex.def
INPUT /usr/local/texlive/2017/texmf-dist/tex/latex/graphics/graphicx.sty
INPUT /usr/local/texlive/2017/texmf-dist/tex/latex/graphics/graphicx.sty
INPUT /usr/local/texlive/2017/texmf-dist/tex/latex/graphics/graphics.sty
INPUT /usr/local/texlive/2017/texmf-dist/tex/latex/graphics/graphics.sty
INPUT /usr/local/texlive/2017/texmf-dist/tex/latex/graphics/trig.sty
INPUT /usr/local/texlive/2017/texmf-dist/tex/latex/graphics/trig.sty
INPUT /usr/local/texlive/2017/texmf-dist/tex/latex/graphics-cfg/graphics.cfg
INPUT /usr/local/texlive/2017/texmf-dist/tex/latex/graphics-cfg/graphics.cfg
INPUT /usr/local/texlive/2017/texmf-dist/tex/latex/fancyvrb/fancyvrb.sty
INPUT /usr/local/texlive/2017/texmf-dist/tex/latex/fancyvrb/fancyvrb.sty
INPUT /usr/local/texlive/2017/texmf-dist/tex/latex/pdfpages/pdfpages.sty
INPUT /usr/local/texlive/2017/texmf-dist/tex/latex/pdfpages/pdfpages.sty
INPUT /usr/local/texlive/2017/texmf-dist/tex/latex/base/ifthen.sty
INPUT /usr/local/texlive/2017/texmf-dist/tex/latex/base/ifthen.sty
INPUT /usr/local/texlive/2017/texmf-dist/tex/latex/tools/calc.sty
INPUT /usr/local/texlive/2017/texmf-dist/tex/latex/tools/calc.sty
INPUT /usr/local/texlive/2017/texmf-dist/tex/latex/eso-pic/eso-pic.sty
INPUT /usr/local/texlive/2017/texmf-dist/tex/latex/eso-pic/eso-pic.sty
INPUT /usr/local/texlive/2017/texmf-dist/tex/generic/oberdiek/atbegshi.sty
INPUT /usr/local/texlive/2017/texmf-dist/tex/generic/oberdiek/atbegshi.sty
INPUT /usr/local/texlive/2017/texmf-dist/tex/latex/pdfpages/pppdftex.def
INPUT /usr/local/texlive/2017/texmf-dist/tex/latex/pdfpages/pppdftex.def
INPUT /usr/local/texlive/texmf-mersenne/tex/latex/cedram/JEP/cedram-JEP.clo
INPUT /usr/local/texlive/texmf-mersenne/tex/latex/cedram/JEP/cedram-JEP.clo
INPUT /usr/local/texlive/2017/texmf-var/fonts/map/pdftex/updmap/pdftex.map
INPUT /usr/local/texlive/texmf-mersenne/fonts/map/adobe-didot/pdo.map
INPUT /usr/local/texlive/2017/texmf-dist/tex/latex/isodate/isodate.sty
INPUT /usr/local/texlive/2017/texmf-dist/tex/latex/isodate/isodate.sty
INPUT /usr/local/texlive/2017/texmf-dist/tex/latex/substr/substr.sty
INPUT /usr/local/texlive/2017/texmf-dist/tex/latex/substr/substr.sty
INPUT /usr/local/texlive/2017/texmf-dist/tex/latex/substr/substr.sty
INPUT /usr/local/texlive/2017/texmf-dist/tex/latex/isodate/french.idf
INPUT /usr/local/texlive/2017/texmf-dist/tex/latex/isodate/french.idf
INPUT /usr/local/texlive/2017/texmf-dist/tex/latex/isodate/english.idf
INPUT /usr/local/texlive/2017/texmf-dist/tex/latex/isodate/english.idf
INPUT /usr/local/texlive/2017/texmf-dist/tex/latex/amsfonts/amssymb.sty
INPUT /usr/local/texlive/2017/texmf-dist/tex/latex/amsfonts/amssymb.sty
INPUT /usr/local/texlive/2017/texmf-dist/tex/latex/tools/xspace.sty
INPUT /usr/local/texlive/2017/texmf-dist/tex/latex/tools/xspace.sty
INPUT /usr/local/texlive/texmf-mersenne/tex/latex/required/JEP/smfenum.sty
INPUT /usr/local/texlive/texmf-mersenne/tex/latex/required/JEP/smfenum.sty
INPUT /usr/local/texlive/2017/texmf-dist/tex/latex/amscls/upref.sty
INPUT /usr/local/texlive/2017/texmf-dist/tex/latex/amscls/upref.sty
INPUT JEP_2021__8_.aux
INPUT JEP_2021__8_.aux
OUTPUT JEP_2021__8_.aux
INPUT /usr/local/texlive/2017/texmf-dist/tex/latex/base/ts1cmr.fd
INPUT /usr/local/texlive/2017/texmf-dist/tex/latex/base/ts1cmr.fd
INPUT /usr/local/texlive/2017/texmf-dist/tex/latex/lm/t1lmr.fd
INPUT /usr/local/texlive/2017/texmf-dist/tex/latex/lm/t1lmr.fd
INPUT /usr/local/texlive/2017/texmf-dist/fonts/tfm/public/lm/ec-lmr10.tfm
INPUT /usr/local/texlive/2017/texmf-dist/fonts/tfm/public/lm/ec-lmr8.tfm
INPUT /usr/local/texlive/2017/texmf-dist/fonts/tfm/public/cm/cmr8.tfm
INPUT /usr/local/texlive/2017/texmf-dist/fonts/tfm/public/cm/cmr6.tfm
INPUT /usr/local/texlive/2017/texmf-dist/fonts/tfm/public/cm/cmmi8.tfm
INPUT /usr/local/texlive/2017/texmf-dist/fonts/tfm/public/cm/cmmi6.tfm
INPUT /usr/local/texlive/2017/texmf-dist/fonts/tfm/public/cm/cmsy8.tfm
INPUT /usr/local/texlive/2017/texmf-dist/fonts/tfm/public/cm/cmsy6.tfm
INPUT /usr/local/texlive/2017/texmf-dist/fonts/tfm/public/amsfonts/cmextra/cmex8.tfm
INPUT /usr/local/texlive/2017/texmf-dist/fonts/tfm/public/amsfonts/cmextra/cmex7.tfm
INPUT /usr/local/texlive/2017/texmf-dist/fonts/tfm/public/amsfonts/cmextra/cmex7.tfm
INPUT /usr/local/texlive/2017/texmf-dist/tex/latex/amsfonts/umsa.fd
INPUT /usr/local/texlive/2017/texmf-dist/tex/latex/amsfonts/umsa.fd
INPUT /usr/local/texlive/2017/texmf-dist/fonts/tfm/public/amsfonts/symbols/msam10.tfm
INPUT /usr/local/texlive/2017/texmf-dist/fonts/tfm/public/amsfonts/symbols/msam7.tfm
INPUT /usr/local/texlive/2017/texmf-dist/fonts/tfm/public/amsfonts/symbols/msam5.tfm
INPUT /usr/local/texlive/2017/texmf-dist/tex/latex/amsfonts/umsb.fd
INPUT /usr/local/texlive/2017/texmf-dist/tex/latex/amsfonts/umsb.fd
INPUT /usr/local/texlive/2017/texmf-dist/fonts/tfm/public/amsfonts/symbols/msbm10.tfm
INPUT /usr/local/texlive/2017/texmf-dist/fonts/tfm/public/amsfonts/symbols/msbm7.tfm
INPUT /usr/local/texlive/2017/texmf-dist/fonts/tfm/public/amsfonts/symbols/msbm5.tfm
INPUT /usr/local/texlive/2017/texmf-dist/tex/context/base/mkii/supp-pdf.mkii
INPUT /usr/local/texlive/2017/texmf-dist/tex/context/base/mkii/supp-pdf.mkii
INPUT /usr/local/texlive/2017/texmf-dist/tex/latex/oberdiek/epstopdf-base.sty
INPUT /usr/local/texlive/2017/texmf-dist/tex/latex/oberdiek/epstopdf-base.sty
INPUT /usr/local/texlive/2017/texmf-dist/tex/latex/oberdiek/grfext.sty
INPUT /usr/local/texlive/2017/texmf-dist/tex/latex/oberdiek/grfext.sty
INPUT /usr/local/texlive/2017/texmf-dist/tex/generic/oberdiek/kvdefinekeys.sty
INPUT /usr/local/texlive/2017/texmf-dist/tex/generic/oberdiek/kvdefinekeys.sty
INPUT /usr/local/texlive/2017/texmf-dist/tex/latex/oberdiek/kvoptions.sty
INPUT /usr/local/texlive/2017/texmf-dist/tex/latex/oberdiek/kvoptions.sty
INPUT /usr/local/texlive/2017/texmf-dist/tex/generic/oberdiek/kvsetkeys.sty
INPUT /usr/local/texlive/2017/texmf-dist/tex/generic/oberdiek/kvsetkeys.sty
INPUT /usr/local/texlive/2017/texmf-dist/tex/latex/latexconfig/epstopdf-sys.cfg
INPUT /usr/local/texlive/2017/texmf-dist/tex/latex/latexconfig/epstopdf-sys.cfg
INPUT JEP_2021__8_-pdftimestamp.txt
INPUT JEP_2021__8_-pdftimestamp.txt
INPUT /usr/local/texlive/2017/texmf-dist/tex/latex/oberdiek/pdflscape.sty
INPUT /usr/local/texlive/2017/texmf-dist/tex/latex/oberdiek/pdflscape.sty
INPUT /usr/local/texlive/2017/texmf-dist/tex/latex/graphics/lscape.sty
INPUT /usr/local/texlive/2017/texmf-dist/tex/latex/graphics/lscape.sty
INPUT /usr/local/texlive/2017/texmf-dist/tex/generic/ifxetex/ifxetex.sty
INPUT /usr/local/texlive/2017/texmf-dist/tex/generic/ifxetex/ifxetex.sty
INPUT /usr/local/texlive/texmf-mersenne/tex/latex/cedram/JEP/JEP-front.tex
INPUT /usr/local/texlive/texmf-mersenne/tex/latex/cedram/JEP/JEP-front.tex
INPUT /usr/local/texlive/texmf-mersenne/tex/latex/cedram/JEP/JEP-titre.tex
INPUT /usr/local/texlive/texmf-mersenne/tex/latex/cedram/JEP/JEP-titre.tex
INPUT /usr/local/texlive/texmf-mersenne/tex/latex/cedram/JEP/titre-jep-color.png
INPUT /usr/local/texlive/texmf-mersenne/tex/latex/cedram/JEP/titre-jep-color.png
OUTPUT JEP_2021__8_.pdf
INPUT /usr/local/texlive/texmf-mersenne/tex/latex/cedram/JEP/titre-jep-color.png
INPUT /usr/local/texlive/texmf-mersenne/tex/latex/fonts/adobe-didot/t1pdoj.fd
INPUT /usr/local/texlive/texmf-mersenne/tex/latex/fonts/adobe-didot/t1pdoj.fd
INPUT /usr/local/texlive/texmf-mersenne/fonts/tfm/adobe-didot/pdorj8t.tfm
INPUT /usr/local/texlive/texmf-mersenne/fonts/tfm/adobe-didot/pdorj8t.tfm
INPUT /usr/local/texlive/texmf-mersenne/tex/latex/fonts/adobe-didot/t1pdo.fd
INPUT /usr/local/texlive/texmf-mersenne/tex/latex/fonts/adobe-didot/t1pdo.fd
INPUT /usr/local/texlive/texmf-mersenne/fonts/tfm/adobe-didot/pdorc8t.tfm
INPUT /usr/local/texlive/texmf-mersenne/fonts/tfm/adobe-didot/pdorj8t.tfm
INPUT /usr/local/texlive/texmf-mersenne/fonts/vf/adobe-didot/pdorc8t.vf
INPUT /usr/local/texlive/texmf-mersenne/fonts/tfm/adobe-didot/pdorcj8r.tfm
INPUT /usr/local/texlive/texmf-mersenne/fonts/tfm/adobe-didot/pdor8r.tfm
INPUT /usr/local/texlive/texmf-mersenne/fonts/vf/adobe-didot/pdorj8t.vf
INPUT /usr/local/texlive/texmf-mersenne/fonts/tfm/adobe-didot/pdorj8r.tfm
INPUT /usr/local/texlive/texmf-mersenne/tex/latex/cedram/JEP/JEP-special.tex
INPUT /usr/local/texlive/texmf-mersenne/tex/latex/cedram/JEP/JEP-special.tex
INPUT JEP-Sommaire.pdf
INPUT JEP-Sommaire.pdf
INPUT ./JEP-Sommaire.pdf
INPUT ./JEP-Sommaire.pdf
INPUT ./JEP-Sommaire.pdf
INPUT JEP-Sommaire.pdf
INPUT ./JEP-Sommaire.pdf
INPUT ./JEP-Sommaire.pdf
INPUT JEP-Sommaire.pdf
INPUT ./JEP-Sommaire.pdf
INPUT ./JEP-Sommaire.pdf
INPUT JEP-Sommaire.pdf
INPUT ./JEP-Sommaire.pdf
INPUT JEP-Sommaire.pdf
INPUT ./JEP-Sommaire.pdf
INPUT JEP-Sommaire.pdf
INPUT ./JEP-Sommaire.pdf
INPUT guarino-et-al/guarino-et-al.pdf
INPUT guarino-et-al/guarino-et-al.pdf
INPUT ./guarino-et-al/guarino-et-al.pdf
INPUT ./guarino-et-al/guarino-et-al.pdf
INPUT ./guarino-et-al/guarino-et-al.pdf
INPUT guarino-et-al/guarino-et-al.pdf
INPUT ./guarino-et-al/guarino-et-al.pdf
INPUT ./guarino-et-al/guarino-et-al.pdf
INPUT guarino-et-al/guarino-et-al.pdf
INPUT ./guarino-et-al/guarino-et-al.pdf
INPUT ./guarino-et-al/guarino-et-al.pdf
INPUT guarino-et-al/guarino-et-al.pdf
INPUT ./guarino-et-al/guarino-et-al.pdf
INPUT guarino-et-al/guarino-et-al.pdf
INPUT ./guarino-et-al/guarino-et-al.pdf
INPUT guarino-et-al/guarino-et-al.pdf
INPUT ./guarino-et-al/guarino-et-al.pdf
INPUT guarino-et-al/guarino-et-al.pdf
INPUT ./guarino-et-al/guarino-et-al.pdf
INPUT ./guarino-et-al/guarino-et-al.pdf
INPUT guarino-et-al/guarino-et-al.pdf
INPUT ./guarino-et-al/guarino-et-al.pdf
INPUT guarino-et-al/guarino-et-al.pdf
INPUT ./guarino-et-al/guarino-et-al.pdf
INPUT guarino-et-al/guarino-et-al.pdf
INPUT ./guarino-et-al/guarino-et-al.pdf
INPUT ./guarino-et-al/guarino-et-al.pdf
INPUT guarino-et-al/guarino-et-al.pdf
INPUT ./guarino-et-al/guarino-et-al.pdf
INPUT guarino-et-al/guarino-et-al.pdf
INPUT ./guarino-et-al/guarino-et-al.pdf
INPUT guarino-et-al/guarino-et-al.pdf
INPUT ./guarino-et-al/guarino-et-al.pdf
INPUT ./guarino-et-al/guarino-et-al.pdf
INPUT guarino-et-al/guarino-et-al.pdf
INPUT ./guarino-et-al/guarino-et-al.pdf
INPUT guarino-et-al/guarino-et-al.pdf
INPUT ./guarino-et-al/guarino-et-al.pdf
INPUT guarino-et-al/guarino-et-al.pdf
INPUT ./guarino-et-al/guarino-et-al.pdf
INPUT ./guarino-et-al/guarino-et-al.pdf
INPUT guarino-et-al/guarino-et-al.pdf
INPUT ./guarino-et-al/guarino-et-al.pdf
INPUT guarino-et-al/guarino-et-al.pdf
INPUT ./guarino-et-al/guarino-et-al.pdf
INPUT guarino-et-al/guarino-et-al.pdf
INPUT ./guarino-et-al/guarino-et-al.pdf
INPUT ./guarino-et-al/guarino-et-al.pdf
INPUT guarino-et-al/guarino-et-al.pdf
INPUT ./guarino-et-al/guarino-et-al.pdf
INPUT guarino-et-al/guarino-et-al.pdf
INPUT ./guarino-et-al/guarino-et-al.pdf
INPUT guarino-et-al/guarino-et-al.pdf
INPUT ./guarino-et-al/guarino-et-al.pdf
INPUT ./guarino-et-al/guarino-et-al.pdf
INPUT guarino-et-al/guarino-et-al.pdf
INPUT ./guarino-et-al/guarino-et-al.pdf
INPUT guarino-et-al/guarino-et-al.pdf
INPUT ./guarino-et-al/guarino-et-al.pdf
INPUT guarino-et-al/guarino-et-al.pdf
INPUT ./guarino-et-al/guarino-et-al.pdf
INPUT ./guarino-et-al/guarino-et-al.pdf
INPUT guarino-et-al/guarino-et-al.pdf
INPUT ./guarino-et-al/guarino-et-al.pdf
INPUT guarino-et-al/guarino-et-al.pdf
INPUT ./guarino-et-al/guarino-et-al.pdf
INPUT guarino-et-al/guarino-et-al.pdf
INPUT ./guarino-et-al/guarino-et-al.pdf
INPUT ./guarino-et-al/guarino-et-al.pdf
INPUT guarino-et-al/guarino-et-al.pdf
INPUT ./guarino-et-al/guarino-et-al.pdf
INPUT guarino-et-al/guarino-et-al.pdf
INPUT ./guarino-et-al/guarino-et-al.pdf
INPUT guarino-et-al/guarino-et-al.pdf
INPUT ./guarino-et-al/guarino-et-al.pdf
INPUT ./guarino-et-al/guarino-et-al.pdf
INPUT guarino-et-al/guarino-et-al.pdf
INPUT ./guarino-et-al/guarino-et-al.pdf
INPUT guarino-et-al/guarino-et-al.pdf
INPUT ./guarino-et-al/guarino-et-al.pdf
INPUT guarino-et-al/guarino-et-al.pdf
INPUT ./guarino-et-al/guarino-et-al.pdf
INPUT ./guarino-et-al/guarino-et-al.pdf
INPUT guarino-et-al/guarino-et-al.pdf
INPUT ./guarino-et-al/guarino-et-al.pdf
INPUT guarino-et-al/guarino-et-al.pdf
INPUT ./guarino-et-al/guarino-et-al.pdf
INPUT guarino-et-al/guarino-et-al.pdf
INPUT ./guarino-et-al/guarino-et-al.pdf
INPUT ./guarino-et-al/guarino-et-al.pdf
INPUT guarino-et-al/guarino-et-al.pdf
INPUT ./guarino-et-al/guarino-et-al.pdf
INPUT guarino-et-al/guarino-et-al.pdf
INPUT ./guarino-et-al/guarino-et-al.pdf
INPUT guarino-et-al/guarino-et-al.pdf
INPUT ./guarino-et-al/guarino-et-al.pdf
INPUT ./guarino-et-al/guarino-et-al.pdf
INPUT guarino-et-al/guarino-et-al.pdf
INPUT ./guarino-et-al/guarino-et-al.pdf
INPUT guarino-et-al/guarino-et-al.pdf
INPUT ./guarino-et-al/guarino-et-al.pdf
INPUT guarino-et-al/guarino-et-al.pdf
INPUT ./guarino-et-al/guarino-et-al.pdf
INPUT ./guarino-et-al/guarino-et-al.pdf
INPUT guarino-et-al/guarino-et-al.pdf
INPUT ./guarino-et-al/guarino-et-al.pdf
INPUT guarino-et-al/guarino-et-al.pdf
INPUT ./guarino-et-al/guarino-et-al.pdf
INPUT guarino-et-al/guarino-et-al.pdf
INPUT ./guarino-et-al/guarino-et-al.pdf
INPUT ./guarino-et-al/guarino-et-al.pdf
INPUT guarino-et-al/guarino-et-al.pdf
INPUT ./guarino-et-al/guarino-et-al.pdf
INPUT guarino-et-al/guarino-et-al.pdf
INPUT ./guarino-et-al/guarino-et-al.pdf
INPUT guarino-et-al/guarino-et-al.pdf
INPUT ./guarino-et-al/guarino-et-al.pdf
INPUT ./guarino-et-al/guarino-et-al.pdf
INPUT guarino-et-al/guarino-et-al.pdf
INPUT ./guarino-et-al/guarino-et-al.pdf
INPUT guarino-et-al/guarino-et-al.pdf
INPUT ./guarino-et-al/guarino-et-al.pdf
INPUT guarino-et-al/guarino-et-al.pdf
INPUT ./guarino-et-al/guarino-et-al.pdf
INPUT ./guarino-et-al/guarino-et-al.pdf
INPUT guarino-et-al/guarino-et-al.pdf
INPUT ./guarino-et-al/guarino-et-al.pdf
INPUT guarino-et-al/guarino-et-al.pdf
INPUT ./guarino-et-al/guarino-et-al.pdf
INPUT guarino-et-al/guarino-et-al.pdf
INPUT ./guarino-et-al/guarino-et-al.pdf
INPUT ./guarino-et-al/guarino-et-al.pdf
INPUT guarino-et-al/guarino-et-al.pdf
INPUT ./guarino-et-al/guarino-et-al.pdf
INPUT guarino-et-al/guarino-et-al.pdf
INPUT ./guarino-et-al/guarino-et-al.pdf
INPUT guarino-et-al/guarino-et-al.pdf
INPUT ./guarino-et-al/guarino-et-al.pdf
INPUT ./guarino-et-al/guarino-et-al.pdf
INPUT guarino-et-al/guarino-et-al.pdf
INPUT ./guarino-et-al/guarino-et-al.pdf
INPUT guarino-et-al/guarino-et-al.pdf
INPUT ./guarino-et-al/guarino-et-al.pdf
INPUT guarino-et-al/guarino-et-al.pdf
INPUT ./guarino-et-al/guarino-et-al.pdf
INPUT ./guarino-et-al/guarino-et-al.pdf
INPUT guarino-et-al/guarino-et-al.pdf
INPUT ./guarino-et-al/guarino-et-al.pdf
INPUT guarino-et-al/guarino-et-al.pdf
INPUT ./guarino-et-al/guarino-et-al.pdf
INPUT guarino-et-al/guarino-et-al.pdf
INPUT ./guarino-et-al/guarino-et-al.pdf
INPUT ./guarino-et-al/guarino-et-al.pdf
INPUT guarino-et-al/guarino-et-al.pdf
INPUT ./guarino-et-al/guarino-et-al.pdf
INPUT guarino-et-al/guarino-et-al.pdf
INPUT ./guarino-et-al/guarino-et-al.pdf
INPUT guarino-et-al/guarino-et-al.pdf
INPUT ./guarino-et-al/guarino-et-al.pdf
INPUT ./guarino-et-al/guarino-et-al.pdf
INPUT guarino-et-al/guarino-et-al.pdf
INPUT ./guarino-et-al/guarino-et-al.pdf
INPUT guarino-et-al/guarino-et-al.pdf
INPUT ./guarino-et-al/guarino-et-al.pdf
INPUT guarino-et-al/guarino-et-al.pdf
INPUT ./guarino-et-al/guarino-et-al.pdf
INPUT ./guarino-et-al/guarino-et-al.pdf
INPUT guarino-et-al/guarino-et-al.pdf
INPUT ./guarino-et-al/guarino-et-al.pdf
INPUT guarino-et-al/guarino-et-al.pdf
INPUT ./guarino-et-al/guarino-et-al.pdf
INPUT guarino-et-al/guarino-et-al.pdf
INPUT ./guarino-et-al/guarino-et-al.pdf
INPUT ./guarino-et-al/guarino-et-al.pdf
INPUT guarino-et-al/guarino-et-al.pdf
INPUT ./guarino-et-al/guarino-et-al.pdf
INPUT guarino-et-al/guarino-et-al.pdf
INPUT ./guarino-et-al/guarino-et-al.pdf
INPUT guarino-et-al/guarino-et-al.pdf
INPUT ./guarino-et-al/guarino-et-al.pdf
INPUT ./guarino-et-al/guarino-et-al.pdf
INPUT guarino-et-al/guarino-et-al.pdf
INPUT ./guarino-et-al/guarino-et-al.pdf
INPUT guarino-et-al/guarino-et-al.pdf
INPUT ./guarino-et-al/guarino-et-al.pdf
INPUT dagnolo-kashiwara/dagnolo-kashiwara.pdf
INPUT dagnolo-kashiwara/dagnolo-kashiwara.pdf
INPUT ./dagnolo-kashiwara/dagnolo-kashiwara.pdf
INPUT ./dagnolo-kashiwara/dagnolo-kashiwara.pdf
INPUT ./dagnolo-kashiwara/dagnolo-kashiwara.pdf
INPUT dagnolo-kashiwara/dagnolo-kashiwara.pdf
INPUT ./dagnolo-kashiwara/dagnolo-kashiwara.pdf
INPUT ./dagnolo-kashiwara/dagnolo-kashiwara.pdf
INPUT dagnolo-kashiwara/dagnolo-kashiwara.pdf
INPUT ./dagnolo-kashiwara/dagnolo-kashiwara.pdf
INPUT ./dagnolo-kashiwara/dagnolo-kashiwara.pdf
INPUT dagnolo-kashiwara/dagnolo-kashiwara.pdf
INPUT ./dagnolo-kashiwara/dagnolo-kashiwara.pdf
INPUT dagnolo-kashiwara/dagnolo-kashiwara.pdf
INPUT ./dagnolo-kashiwara/dagnolo-kashiwara.pdf
INPUT dagnolo-kashiwara/dagnolo-kashiwara.pdf
INPUT ./dagnolo-kashiwara/dagnolo-kashiwara.pdf
INPUT dagnolo-kashiwara/dagnolo-kashiwara.pdf
INPUT ./dagnolo-kashiwara/dagnolo-kashiwara.pdf
INPUT ./dagnolo-kashiwara/dagnolo-kashiwara.pdf
INPUT dagnolo-kashiwara/dagnolo-kashiwara.pdf
INPUT ./dagnolo-kashiwara/dagnolo-kashiwara.pdf
INPUT dagnolo-kashiwara/dagnolo-kashiwara.pdf
INPUT ./dagnolo-kashiwara/dagnolo-kashiwara.pdf
INPUT dagnolo-kashiwara/dagnolo-kashiwara.pdf
INPUT ./dagnolo-kashiwara/dagnolo-kashiwara.pdf
INPUT ./dagnolo-kashiwara/dagnolo-kashiwara.pdf
INPUT dagnolo-kashiwara/dagnolo-kashiwara.pdf
INPUT ./dagnolo-kashiwara/dagnolo-kashiwara.pdf
INPUT dagnolo-kashiwara/dagnolo-kashiwara.pdf
INPUT ./dagnolo-kashiwara/dagnolo-kashiwara.pdf
INPUT dagnolo-kashiwara/dagnolo-kashiwara.pdf
INPUT ./dagnolo-kashiwara/dagnolo-kashiwara.pdf
INPUT ./dagnolo-kashiwara/dagnolo-kashiwara.pdf
INPUT dagnolo-kashiwara/dagnolo-kashiwara.pdf
INPUT ./dagnolo-kashiwara/dagnolo-kashiwara.pdf
INPUT dagnolo-kashiwara/dagnolo-kashiwara.pdf
INPUT ./dagnolo-kashiwara/dagnolo-kashiwara.pdf
INPUT dagnolo-kashiwara/dagnolo-kashiwara.pdf
INPUT ./dagnolo-kashiwara/dagnolo-kashiwara.pdf
INPUT ./dagnolo-kashiwara/dagnolo-kashiwara.pdf
INPUT dagnolo-kashiwara/dagnolo-kashiwara.pdf
INPUT ./dagnolo-kashiwara/dagnolo-kashiwara.pdf
INPUT dagnolo-kashiwara/dagnolo-kashiwara.pdf
INPUT ./dagnolo-kashiwara/dagnolo-kashiwara.pdf
INPUT dagnolo-kashiwara/dagnolo-kashiwara.pdf
INPUT ./dagnolo-kashiwara/dagnolo-kashiwara.pdf
INPUT ./dagnolo-kashiwara/dagnolo-kashiwara.pdf
INPUT dagnolo-kashiwara/dagnolo-kashiwara.pdf
INPUT ./dagnolo-kashiwara/dagnolo-kashiwara.pdf
INPUT dagnolo-kashiwara/dagnolo-kashiwara.pdf
INPUT ./dagnolo-kashiwara/dagnolo-kashiwara.pdf
INPUT dagnolo-kashiwara/dagnolo-kashiwara.pdf
INPUT ./dagnolo-kashiwara/dagnolo-kashiwara.pdf
INPUT ./dagnolo-kashiwara/dagnolo-kashiwara.pdf
INPUT dagnolo-kashiwara/dagnolo-kashiwara.pdf
INPUT ./dagnolo-kashiwara/dagnolo-kashiwara.pdf
INPUT dagnolo-kashiwara/dagnolo-kashiwara.pdf
INPUT ./dagnolo-kashiwara/dagnolo-kashiwara.pdf
INPUT dagnolo-kashiwara/dagnolo-kashiwara.pdf
INPUT ./dagnolo-kashiwara/dagnolo-kashiwara.pdf
INPUT ./dagnolo-kashiwara/dagnolo-kashiwara.pdf
INPUT dagnolo-kashiwara/dagnolo-kashiwara.pdf
INPUT ./dagnolo-kashiwara/dagnolo-kashiwara.pdf
INPUT dagnolo-kashiwara/dagnolo-kashiwara.pdf
INPUT ./dagnolo-kashiwara/dagnolo-kashiwara.pdf
INPUT dagnolo-kashiwara/dagnolo-kashiwara.pdf
INPUT ./dagnolo-kashiwara/dagnolo-kashiwara.pdf
INPUT ./dagnolo-kashiwara/dagnolo-kashiwara.pdf
INPUT dagnolo-kashiwara/dagnolo-kashiwara.pdf
INPUT ./dagnolo-kashiwara/dagnolo-kashiwara.pdf
INPUT dagnolo-kashiwara/dagnolo-kashiwara.pdf
INPUT ./dagnolo-kashiwara/dagnolo-kashiwara.pdf
INPUT dagnolo-kashiwara/dagnolo-kashiwara.pdf
INPUT ./dagnolo-kashiwara/dagnolo-kashiwara.pdf
INPUT ./dagnolo-kashiwara/dagnolo-kashiwara.pdf
INPUT dagnolo-kashiwara/dagnolo-kashiwara.pdf
INPUT ./dagnolo-kashiwara/dagnolo-kashiwara.pdf
INPUT dagnolo-kashiwara/dagnolo-kashiwara.pdf
INPUT ./dagnolo-kashiwara/dagnolo-kashiwara.pdf
INPUT dagnolo-kashiwara/dagnolo-kashiwara.pdf
INPUT ./dagnolo-kashiwara/dagnolo-kashiwara.pdf
INPUT ./dagnolo-kashiwara/dagnolo-kashiwara.pdf
INPUT dagnolo-kashiwara/dagnolo-kashiwara.pdf
INPUT ./dagnolo-kashiwara/dagnolo-kashiwara.pdf
INPUT dagnolo-kashiwara/dagnolo-kashiwara.pdf
INPUT ./dagnolo-kashiwara/dagnolo-kashiwara.pdf
INPUT dagnolo-kashiwara/dagnolo-kashiwara.pdf
INPUT ./dagnolo-kashiwara/dagnolo-kashiwara.pdf
INPUT ./dagnolo-kashiwara/dagnolo-kashiwara.pdf
INPUT dagnolo-kashiwara/dagnolo-kashiwara.pdf
INPUT ./dagnolo-kashiwara/dagnolo-kashiwara.pdf
INPUT dagnolo-kashiwara/dagnolo-kashiwara.pdf
INPUT ./dagnolo-kashiwara/dagnolo-kashiwara.pdf
INPUT dagnolo-kashiwara/dagnolo-kashiwara.pdf
INPUT ./dagnolo-kashiwara/dagnolo-kashiwara.pdf
INPUT ./dagnolo-kashiwara/dagnolo-kashiwara.pdf
INPUT dagnolo-kashiwara/dagnolo-kashiwara.pdf
INPUT ./dagnolo-kashiwara/dagnolo-kashiwara.pdf
INPUT dagnolo-kashiwara/dagnolo-kashiwara.pdf
INPUT ./dagnolo-kashiwara/dagnolo-kashiwara.pdf
INPUT dagnolo-kashiwara/dagnolo-kashiwara.pdf
INPUT ./dagnolo-kashiwara/dagnolo-kashiwara.pdf
INPUT ./dagnolo-kashiwara/dagnolo-kashiwara.pdf
INPUT dagnolo-kashiwara/dagnolo-kashiwara.pdf
INPUT ./dagnolo-kashiwara/dagnolo-kashiwara.pdf
INPUT dagnolo-kashiwara/dagnolo-kashiwara.pdf
INPUT ./dagnolo-kashiwara/dagnolo-kashiwara.pdf
INPUT dagnolo-kashiwara/dagnolo-kashiwara.pdf
INPUT ./dagnolo-kashiwara/dagnolo-kashiwara.pdf
INPUT ./dagnolo-kashiwara/dagnolo-kashiwara.pdf
INPUT dagnolo-kashiwara/dagnolo-kashiwara.pdf
INPUT ./dagnolo-kashiwara/dagnolo-kashiwara.pdf
INPUT dagnolo-kashiwara/dagnolo-kashiwara.pdf
INPUT ./dagnolo-kashiwara/dagnolo-kashiwara.pdf
INPUT dagnolo-kashiwara/dagnolo-kashiwara.pdf
INPUT ./dagnolo-kashiwara/dagnolo-kashiwara.pdf
INPUT ./dagnolo-kashiwara/dagnolo-kashiwara.pdf
INPUT dagnolo-kashiwara/dagnolo-kashiwara.pdf
INPUT ./dagnolo-kashiwara/dagnolo-kashiwara.pdf
INPUT dagnolo-kashiwara/dagnolo-kashiwara.pdf
INPUT ./dagnolo-kashiwara/dagnolo-kashiwara.pdf
INPUT dagnolo-kashiwara/dagnolo-kashiwara.pdf
INPUT ./dagnolo-kashiwara/dagnolo-kashiwara.pdf
INPUT ./dagnolo-kashiwara/dagnolo-kashiwara.pdf
INPUT dagnolo-kashiwara/dagnolo-kashiwara.pdf
INPUT ./dagnolo-kashiwara/dagnolo-kashiwara.pdf
INPUT dagnolo-kashiwara/dagnolo-kashiwara.pdf
INPUT ./dagnolo-kashiwara/dagnolo-kashiwara.pdf
INPUT dagnolo-kashiwara/dagnolo-kashiwara.pdf
INPUT ./dagnolo-kashiwara/dagnolo-kashiwara.pdf
INPUT ./dagnolo-kashiwara/dagnolo-kashiwara.pdf
INPUT dagnolo-kashiwara/dagnolo-kashiwara.pdf
INPUT ./dagnolo-kashiwara/dagnolo-kashiwara.pdf
INPUT dagnolo-kashiwara/dagnolo-kashiwara.pdf
INPUT ./dagnolo-kashiwara/dagnolo-kashiwara.pdf
INPUT dagnolo-kashiwara/dagnolo-kashiwara.pdf
INPUT ./dagnolo-kashiwara/dagnolo-kashiwara.pdf
INPUT ./dagnolo-kashiwara/dagnolo-kashiwara.pdf
INPUT dagnolo-kashiwara/dagnolo-kashiwara.pdf
INPUT ./dagnolo-kashiwara/dagnolo-kashiwara.pdf
INPUT dagnolo-kashiwara/dagnolo-kashiwara.pdf
INPUT ./dagnolo-kashiwara/dagnolo-kashiwara.pdf
INPUT dagnolo-kashiwara/dagnolo-kashiwara.pdf
INPUT ./dagnolo-kashiwara/dagnolo-kashiwara.pdf
INPUT ./dagnolo-kashiwara/dagnolo-kashiwara.pdf
INPUT dagnolo-kashiwara/dagnolo-kashiwara.pdf
INPUT ./dagnolo-kashiwara/dagnolo-kashiwara.pdf
INPUT dagnolo-kashiwara/dagnolo-kashiwara.pdf
INPUT ./dagnolo-kashiwara/dagnolo-kashiwara.pdf
INPUT dagnolo-kashiwara/dagnolo-kashiwara.pdf
INPUT ./dagnolo-kashiwara/dagnolo-kashiwara.pdf
INPUT ./dagnolo-kashiwara/dagnolo-kashiwara.pdf
INPUT dagnolo-kashiwara/dagnolo-kashiwara.pdf
INPUT ./dagnolo-kashiwara/dagnolo-kashiwara.pdf
INPUT dagnolo-kashiwara/dagnolo-kashiwara.pdf
INPUT ./dagnolo-kashiwara/dagnolo-kashiwara.pdf
INPUT dagnolo-kashiwara/dagnolo-kashiwara.pdf
INPUT ./dagnolo-kashiwara/dagnolo-kashiwara.pdf
INPUT ./dagnolo-kashiwara/dagnolo-kashiwara.pdf
INPUT dagnolo-kashiwara/dagnolo-kashiwara.pdf
INPUT ./dagnolo-kashiwara/dagnolo-kashiwara.pdf
INPUT dagnolo-kashiwara/dagnolo-kashiwara.pdf
INPUT ./dagnolo-kashiwara/dagnolo-kashiwara.pdf
INPUT dagnolo-kashiwara/dagnolo-kashiwara.pdf
INPUT ./dagnolo-kashiwara/dagnolo-kashiwara.pdf
INPUT ./dagnolo-kashiwara/dagnolo-kashiwara.pdf
INPUT dagnolo-kashiwara/dagnolo-kashiwara.pdf
INPUT ./dagnolo-kashiwara/dagnolo-kashiwara.pdf
INPUT dagnolo-kashiwara/dagnolo-kashiwara.pdf
INPUT ./dagnolo-kashiwara/dagnolo-kashiwara.pdf
INPUT dagnolo-kashiwara/dagnolo-kashiwara.pdf
INPUT ./dagnolo-kashiwara/dagnolo-kashiwara.pdf
INPUT ./dagnolo-kashiwara/dagnolo-kashiwara.pdf
INPUT dagnolo-kashiwara/dagnolo-kashiwara.pdf
INPUT ./dagnolo-kashiwara/dagnolo-kashiwara.pdf
INPUT dagnolo-kashiwara/dagnolo-kashiwara.pdf
INPUT ./dagnolo-kashiwara/dagnolo-kashiwara.pdf
INPUT dagnolo-kashiwara/dagnolo-kashiwara.pdf
INPUT ./dagnolo-kashiwara/dagnolo-kashiwara.pdf
INPUT ./dagnolo-kashiwara/dagnolo-kashiwara.pdf
INPUT dagnolo-kashiwara/dagnolo-kashiwara.pdf
INPUT ./dagnolo-kashiwara/dagnolo-kashiwara.pdf
INPUT dagnolo-kashiwara/dagnolo-kashiwara.pdf
INPUT ./dagnolo-kashiwara/dagnolo-kashiwara.pdf
INPUT dagnolo-kashiwara/dagnolo-kashiwara.pdf
INPUT ./dagnolo-kashiwara/dagnolo-kashiwara.pdf
INPUT ./dagnolo-kashiwara/dagnolo-kashiwara.pdf
INPUT dagnolo-kashiwara/dagnolo-kashiwara.pdf
INPUT ./dagnolo-kashiwara/dagnolo-kashiwara.pdf
INPUT dagnolo-kashiwara/dagnolo-kashiwara.pdf
INPUT ./dagnolo-kashiwara/dagnolo-kashiwara.pdf
INPUT dagnolo-kashiwara/dagnolo-kashiwara.pdf
INPUT ./dagnolo-kashiwara/dagnolo-kashiwara.pdf
INPUT ./dagnolo-kashiwara/dagnolo-kashiwara.pdf
INPUT dagnolo-kashiwara/dagnolo-kashiwara.pdf
INPUT ./dagnolo-kashiwara/dagnolo-kashiwara.pdf
INPUT dagnolo-kashiwara/dagnolo-kashiwara.pdf
INPUT ./dagnolo-kashiwara/dagnolo-kashiwara.pdf
INPUT dagnolo-kashiwara/dagnolo-kashiwara.pdf
INPUT ./dagnolo-kashiwara/dagnolo-kashiwara.pdf
INPUT ./dagnolo-kashiwara/dagnolo-kashiwara.pdf
INPUT dagnolo-kashiwara/dagnolo-kashiwara.pdf
INPUT ./dagnolo-kashiwara/dagnolo-kashiwara.pdf
INPUT dagnolo-kashiwara/dagnolo-kashiwara.pdf
INPUT ./dagnolo-kashiwara/dagnolo-kashiwara.pdf
INPUT dagnolo-kashiwara/dagnolo-kashiwara.pdf
INPUT ./dagnolo-kashiwara/dagnolo-kashiwara.pdf
INPUT ./dagnolo-kashiwara/dagnolo-kashiwara.pdf
INPUT dagnolo-kashiwara/dagnolo-kashiwara.pdf
INPUT ./dagnolo-kashiwara/dagnolo-kashiwara.pdf
INPUT dagnolo-kashiwara/dagnolo-kashiwara.pdf
INPUT ./dagnolo-kashiwara/dagnolo-kashiwara.pdf
INPUT alvarez-igusa/alvarez-igusa.pdf
INPUT alvarez-igusa/alvarez-igusa.pdf
INPUT ./alvarez-igusa/alvarez-igusa.pdf
INPUT ./alvarez-igusa/alvarez-igusa.pdf
INPUT ./alvarez-igusa/alvarez-igusa.pdf
INPUT alvarez-igusa/alvarez-igusa.pdf
INPUT ./alvarez-igusa/alvarez-igusa.pdf
INPUT ./alvarez-igusa/alvarez-igusa.pdf
INPUT alvarez-igusa/alvarez-igusa.pdf
INPUT ./alvarez-igusa/alvarez-igusa.pdf
INPUT ./alvarez-igusa/alvarez-igusa.pdf
INPUT alvarez-igusa/alvarez-igusa.pdf
INPUT ./alvarez-igusa/alvarez-igusa.pdf
INPUT alvarez-igusa/alvarez-igusa.pdf
INPUT ./alvarez-igusa/alvarez-igusa.pdf
INPUT alvarez-igusa/alvarez-igusa.pdf
INPUT ./alvarez-igusa/alvarez-igusa.pdf
INPUT alvarez-igusa/alvarez-igusa.pdf
INPUT ./alvarez-igusa/alvarez-igusa.pdf
INPUT ./alvarez-igusa/alvarez-igusa.pdf
INPUT alvarez-igusa/alvarez-igusa.pdf
INPUT ./alvarez-igusa/alvarez-igusa.pdf
INPUT alvarez-igusa/alvarez-igusa.pdf
INPUT ./alvarez-igusa/alvarez-igusa.pdf
INPUT alvarez-igusa/alvarez-igusa.pdf
INPUT ./alvarez-igusa/alvarez-igusa.pdf
INPUT ./alvarez-igusa/alvarez-igusa.pdf
INPUT alvarez-igusa/alvarez-igusa.pdf
INPUT ./alvarez-igusa/alvarez-igusa.pdf
INPUT alvarez-igusa/alvarez-igusa.pdf
INPUT ./alvarez-igusa/alvarez-igusa.pdf
INPUT alvarez-igusa/alvarez-igusa.pdf
INPUT ./alvarez-igusa/alvarez-igusa.pdf
INPUT ./alvarez-igusa/alvarez-igusa.pdf
INPUT alvarez-igusa/alvarez-igusa.pdf
INPUT ./alvarez-igusa/alvarez-igusa.pdf
INPUT alvarez-igusa/alvarez-igusa.pdf
INPUT ./alvarez-igusa/alvarez-igusa.pdf
INPUT alvarez-igusa/alvarez-igusa.pdf
INPUT ./alvarez-igusa/alvarez-igusa.pdf
INPUT ./alvarez-igusa/alvarez-igusa.pdf
INPUT alvarez-igusa/alvarez-igusa.pdf
INPUT ./alvarez-igusa/alvarez-igusa.pdf
INPUT alvarez-igusa/alvarez-igusa.pdf
INPUT ./alvarez-igusa/alvarez-igusa.pdf
INPUT alvarez-igusa/alvarez-igusa.pdf
INPUT ./alvarez-igusa/alvarez-igusa.pdf
INPUT ./alvarez-igusa/alvarez-igusa.pdf
INPUT alvarez-igusa/alvarez-igusa.pdf
INPUT ./alvarez-igusa/alvarez-igusa.pdf
INPUT alvarez-igusa/alvarez-igusa.pdf
INPUT ./alvarez-igusa/alvarez-igusa.pdf
INPUT alvarez-igusa/alvarez-igusa.pdf
INPUT ./alvarez-igusa/alvarez-igusa.pdf
INPUT ./alvarez-igusa/alvarez-igusa.pdf
INPUT alvarez-igusa/alvarez-igusa.pdf
INPUT ./alvarez-igusa/alvarez-igusa.pdf
INPUT alvarez-igusa/alvarez-igusa.pdf
INPUT ./alvarez-igusa/alvarez-igusa.pdf
INPUT alvarez-igusa/alvarez-igusa.pdf
INPUT ./alvarez-igusa/alvarez-igusa.pdf
INPUT ./alvarez-igusa/alvarez-igusa.pdf
INPUT alvarez-igusa/alvarez-igusa.pdf
INPUT ./alvarez-igusa/alvarez-igusa.pdf
INPUT alvarez-igusa/alvarez-igusa.pdf
INPUT ./alvarez-igusa/alvarez-igusa.pdf
INPUT alvarez-igusa/alvarez-igusa.pdf
INPUT ./alvarez-igusa/alvarez-igusa.pdf
INPUT ./alvarez-igusa/alvarez-igusa.pdf
INPUT alvarez-igusa/alvarez-igusa.pdf
INPUT ./alvarez-igusa/alvarez-igusa.pdf
INPUT alvarez-igusa/alvarez-igusa.pdf
INPUT ./alvarez-igusa/alvarez-igusa.pdf
INPUT alvarez-igusa/alvarez-igusa.pdf
INPUT ./alvarez-igusa/alvarez-igusa.pdf
INPUT ./alvarez-igusa/alvarez-igusa.pdf
INPUT alvarez-igusa/alvarez-igusa.pdf
INPUT ./alvarez-igusa/alvarez-igusa.pdf
INPUT alvarez-igusa/alvarez-igusa.pdf
INPUT ./alvarez-igusa/alvarez-igusa.pdf
INPUT alvarez-igusa/alvarez-igusa.pdf
INPUT ./alvarez-igusa/alvarez-igusa.pdf
INPUT ./alvarez-igusa/alvarez-igusa.pdf
INPUT alvarez-igusa/alvarez-igusa.pdf
INPUT ./alvarez-igusa/alvarez-igusa.pdf
INPUT alvarez-igusa/alvarez-igusa.pdf
INPUT ./alvarez-igusa/alvarez-igusa.pdf
INPUT alvarez-igusa/alvarez-igusa.pdf
INPUT ./alvarez-igusa/alvarez-igusa.pdf
INPUT ./alvarez-igusa/alvarez-igusa.pdf
INPUT alvarez-igusa/alvarez-igusa.pdf
INPUT ./alvarez-igusa/alvarez-igusa.pdf
INPUT alvarez-igusa/alvarez-igusa.pdf
INPUT ./alvarez-igusa/alvarez-igusa.pdf
INPUT alvarez-igusa/alvarez-igusa.pdf
INPUT ./alvarez-igusa/alvarez-igusa.pdf
INPUT ./alvarez-igusa/alvarez-igusa.pdf
INPUT alvarez-igusa/alvarez-igusa.pdf
INPUT ./alvarez-igusa/alvarez-igusa.pdf
INPUT alvarez-igusa/alvarez-igusa.pdf
INPUT ./alvarez-igusa/alvarez-igusa.pdf
INPUT alvarez-igusa/alvarez-igusa.pdf
INPUT ./alvarez-igusa/alvarez-igusa.pdf
INPUT ./alvarez-igusa/alvarez-igusa.pdf
INPUT alvarez-igusa/alvarez-igusa.pdf
INPUT ./alvarez-igusa/alvarez-igusa.pdf
INPUT alvarez-igusa/alvarez-igusa.pdf
INPUT ./alvarez-igusa/alvarez-igusa.pdf
INPUT alvarez-igusa/alvarez-igusa.pdf
INPUT ./alvarez-igusa/alvarez-igusa.pdf
INPUT ./alvarez-igusa/alvarez-igusa.pdf
INPUT alvarez-igusa/alvarez-igusa.pdf
INPUT ./alvarez-igusa/alvarez-igusa.pdf
INPUT alvarez-igusa/alvarez-igusa.pdf
INPUT ./alvarez-igusa/alvarez-igusa.pdf
INPUT alvarez-igusa/alvarez-igusa.pdf
INPUT ./alvarez-igusa/alvarez-igusa.pdf
INPUT ./alvarez-igusa/alvarez-igusa.pdf
INPUT alvarez-igusa/alvarez-igusa.pdf
INPUT ./alvarez-igusa/alvarez-igusa.pdf
INPUT alvarez-igusa/alvarez-igusa.pdf
INPUT ./alvarez-igusa/alvarez-igusa.pdf
INPUT alvarez-igusa/alvarez-igusa.pdf
INPUT ./alvarez-igusa/alvarez-igusa.pdf
INPUT ./alvarez-igusa/alvarez-igusa.pdf
INPUT alvarez-igusa/alvarez-igusa.pdf
INPUT ./alvarez-igusa/alvarez-igusa.pdf
INPUT alvarez-igusa/alvarez-igusa.pdf
INPUT ./alvarez-igusa/alvarez-igusa.pdf
INPUT alvarez-igusa/alvarez-igusa.pdf
INPUT ./alvarez-igusa/alvarez-igusa.pdf
INPUT ./alvarez-igusa/alvarez-igusa.pdf
INPUT alvarez-igusa/alvarez-igusa.pdf
INPUT ./alvarez-igusa/alvarez-igusa.pdf
INPUT alvarez-igusa/alvarez-igusa.pdf
INPUT ./alvarez-igusa/alvarez-igusa.pdf
INPUT alvarez-igusa/alvarez-igusa.pdf
INPUT ./alvarez-igusa/alvarez-igusa.pdf
INPUT ./alvarez-igusa/alvarez-igusa.pdf
INPUT alvarez-igusa/alvarez-igusa.pdf
INPUT ./alvarez-igusa/alvarez-igusa.pdf
INPUT alvarez-igusa/alvarez-igusa.pdf
INPUT ./alvarez-igusa/alvarez-igusa.pdf
INPUT alvarez-igusa/alvarez-igusa.pdf
INPUT ./alvarez-igusa/alvarez-igusa.pdf
INPUT ./alvarez-igusa/alvarez-igusa.pdf
INPUT alvarez-igusa/alvarez-igusa.pdf
INPUT ./alvarez-igusa/alvarez-igusa.pdf
INPUT alvarez-igusa/alvarez-igusa.pdf
INPUT ./alvarez-igusa/alvarez-igusa.pdf
INPUT alvarez-igusa/alvarez-igusa.pdf
INPUT ./alvarez-igusa/alvarez-igusa.pdf
INPUT ./alvarez-igusa/alvarez-igusa.pdf
INPUT alvarez-igusa/alvarez-igusa.pdf
INPUT ./alvarez-igusa/alvarez-igusa.pdf
INPUT alvarez-igusa/alvarez-igusa.pdf
INPUT ./alvarez-igusa/alvarez-igusa.pdf
INPUT alvarez-igusa/alvarez-igusa.pdf
INPUT ./alvarez-igusa/alvarez-igusa.pdf
INPUT ./alvarez-igusa/alvarez-igusa.pdf
INPUT alvarez-igusa/alvarez-igusa.pdf
INPUT ./alvarez-igusa/alvarez-igusa.pdf
INPUT alvarez-igusa/alvarez-igusa.pdf
INPUT ./alvarez-igusa/alvarez-igusa.pdf
INPUT alvarez-igusa/alvarez-igusa.pdf
INPUT ./alvarez-igusa/alvarez-igusa.pdf
INPUT ./alvarez-igusa/alvarez-igusa.pdf
INPUT alvarez-igusa/alvarez-igusa.pdf
INPUT ./alvarez-igusa/alvarez-igusa.pdf
INPUT alvarez-igusa/alvarez-igusa.pdf
INPUT ./alvarez-igusa/alvarez-igusa.pdf
INPUT alvarez-igusa/alvarez-igusa.pdf
INPUT ./alvarez-igusa/alvarez-igusa.pdf
INPUT ./alvarez-igusa/alvarez-igusa.pdf
INPUT alvarez-igusa/alvarez-igusa.pdf
INPUT ./alvarez-igusa/alvarez-igusa.pdf
INPUT alvarez-igusa/alvarez-igusa.pdf
INPUT ./alvarez-igusa/alvarez-igusa.pdf
INPUT alvarez-igusa/alvarez-igusa.pdf
INPUT ./alvarez-igusa/alvarez-igusa.pdf
INPUT ./alvarez-igusa/alvarez-igusa.pdf
INPUT alvarez-igusa/alvarez-igusa.pdf
INPUT ./alvarez-igusa/alvarez-igusa.pdf
INPUT alvarez-igusa/alvarez-igusa.pdf
INPUT ./alvarez-igusa/alvarez-igusa.pdf
INPUT alvarez-igusa/alvarez-igusa.pdf
INPUT ./alvarez-igusa/alvarez-igusa.pdf
INPUT ./alvarez-igusa/alvarez-igusa.pdf
INPUT alvarez-igusa/alvarez-igusa.pdf
INPUT ./alvarez-igusa/alvarez-igusa.pdf
INPUT alvarez-igusa/alvarez-igusa.pdf
INPUT ./alvarez-igusa/alvarez-igusa.pdf
INPUT alvarez-igusa/alvarez-igusa.pdf
INPUT ./alvarez-igusa/alvarez-igusa.pdf
INPUT ./alvarez-igusa/alvarez-igusa.pdf
INPUT alvarez-igusa/alvarez-igusa.pdf
INPUT ./alvarez-igusa/alvarez-igusa.pdf
INPUT alvarez-igusa/alvarez-igusa.pdf
INPUT ./alvarez-igusa/alvarez-igusa.pdf
INPUT alvarez-igusa/alvarez-igusa.pdf
INPUT ./alvarez-igusa/alvarez-igusa.pdf
INPUT ./alvarez-igusa/alvarez-igusa.pdf
INPUT alvarez-igusa/alvarez-igusa.pdf
INPUT ./alvarez-igusa/alvarez-igusa.pdf
INPUT alvarez-igusa/alvarez-igusa.pdf
INPUT ./alvarez-igusa/alvarez-igusa.pdf
INPUT alvarez-igusa/alvarez-igusa.pdf
INPUT ./alvarez-igusa/alvarez-igusa.pdf
INPUT ./alvarez-igusa/alvarez-igusa.pdf
INPUT alvarez-igusa/alvarez-igusa.pdf
INPUT ./alvarez-igusa/alvarez-igusa.pdf
INPUT alvarez-igusa/alvarez-igusa.pdf
INPUT ./alvarez-igusa/alvarez-igusa.pdf
INPUT alvarez-igusa/alvarez-igusa.pdf
INPUT ./alvarez-igusa/alvarez-igusa.pdf
INPUT ./alvarez-igusa/alvarez-igusa.pdf
INPUT alvarez-igusa/alvarez-igusa.pdf
INPUT ./alvarez-igusa/alvarez-igusa.pdf
INPUT alvarez-igusa/alvarez-igusa.pdf
INPUT ./alvarez-igusa/alvarez-igusa.pdf
INPUT alvarez-igusa/alvarez-igusa.pdf
INPUT ./alvarez-igusa/alvarez-igusa.pdf
INPUT ./alvarez-igusa/alvarez-igusa.pdf
INPUT alvarez-igusa/alvarez-igusa.pdf
INPUT ./alvarez-igusa/alvarez-igusa.pdf
INPUT alvarez-igusa/alvarez-igusa.pdf
INPUT ./alvarez-igusa/alvarez-igusa.pdf
INPUT alvarez-igusa/alvarez-igusa.pdf
INPUT ./alvarez-igusa/alvarez-igusa.pdf
INPUT ./alvarez-igusa/alvarez-igusa.pdf
INPUT alvarez-igusa/alvarez-igusa.pdf
INPUT ./alvarez-igusa/alvarez-igusa.pdf
INPUT alvarez-igusa/alvarez-igusa.pdf
INPUT ./alvarez-igusa/alvarez-igusa.pdf
INPUT alvarez-igusa/alvarez-igusa.pdf
INPUT ./alvarez-igusa/alvarez-igusa.pdf
INPUT ./alvarez-igusa/alvarez-igusa.pdf
INPUT alvarez-igusa/alvarez-igusa.pdf
INPUT ./alvarez-igusa/alvarez-igusa.pdf
INPUT alvarez-igusa/alvarez-igusa.pdf
INPUT ./alvarez-igusa/alvarez-igusa.pdf
INPUT alvarez-igusa/alvarez-igusa.pdf
INPUT ./alvarez-igusa/alvarez-igusa.pdf
INPUT ./alvarez-igusa/alvarez-igusa.pdf
INPUT alvarez-igusa/alvarez-igusa.pdf
INPUT ./alvarez-igusa/alvarez-igusa.pdf
INPUT alvarez-igusa/alvarez-igusa.pdf
INPUT ./alvarez-igusa/alvarez-igusa.pdf
INPUT alvarez-igusa/alvarez-igusa.pdf
INPUT ./alvarez-igusa/alvarez-igusa.pdf
INPUT ./alvarez-igusa/alvarez-igusa.pdf
INPUT alvarez-igusa/alvarez-igusa.pdf
INPUT ./alvarez-igusa/alvarez-igusa.pdf
INPUT alvarez-igusa/alvarez-igusa.pdf
INPUT ./alvarez-igusa/alvarez-igusa.pdf
INPUT alvarez-igusa/alvarez-igusa.pdf
INPUT ./alvarez-igusa/alvarez-igusa.pdf
INPUT ./alvarez-igusa/alvarez-igusa.pdf
INPUT alvarez-igusa/alvarez-igusa.pdf
INPUT ./alvarez-igusa/alvarez-igusa.pdf
INPUT alvarez-igusa/alvarez-igusa.pdf
INPUT ./alvarez-igusa/alvarez-igusa.pdf
INPUT alvarez-igusa/alvarez-igusa.pdf
INPUT ./alvarez-igusa/alvarez-igusa.pdf
INPUT ./alvarez-igusa/alvarez-igusa.pdf
INPUT alvarez-igusa/alvarez-igusa.pdf
INPUT ./alvarez-igusa/alvarez-igusa.pdf
INPUT alvarez-igusa/alvarez-igusa.pdf
INPUT ./alvarez-igusa/alvarez-igusa.pdf
INPUT alvarez-igusa/alvarez-igusa.pdf
INPUT ./alvarez-igusa/alvarez-igusa.pdf
INPUT ./alvarez-igusa/alvarez-igusa.pdf
INPUT alvarez-igusa/alvarez-igusa.pdf
INPUT ./alvarez-igusa/alvarez-igusa.pdf
INPUT alvarez-igusa/alvarez-igusa.pdf
INPUT ./alvarez-igusa/alvarez-igusa.pdf
INPUT alvarez-igusa/alvarez-igusa.pdf
INPUT ./alvarez-igusa/alvarez-igusa.pdf
INPUT ./alvarez-igusa/alvarez-igusa.pdf
INPUT alvarez-igusa/alvarez-igusa.pdf
INPUT ./alvarez-igusa/alvarez-igusa.pdf
INPUT alvarez-igusa/alvarez-igusa.pdf
INPUT ./alvarez-igusa/alvarez-igusa.pdf
INPUT alvarez-igusa/alvarez-igusa.pdf
INPUT ./alvarez-igusa/alvarez-igusa.pdf
INPUT ./alvarez-igusa/alvarez-igusa.pdf
INPUT alvarez-igusa/alvarez-igusa.pdf
INPUT ./alvarez-igusa/alvarez-igusa.pdf
INPUT alvarez-igusa/alvarez-igusa.pdf
INPUT ./alvarez-igusa/alvarez-igusa.pdf
INPUT alvarez-igusa/alvarez-igusa.pdf
INPUT ./alvarez-igusa/alvarez-igusa.pdf
INPUT ./alvarez-igusa/alvarez-igusa.pdf
INPUT alvarez-igusa/alvarez-igusa.pdf
INPUT ./alvarez-igusa/alvarez-igusa.pdf
INPUT alvarez-igusa/alvarez-igusa.pdf
INPUT ./alvarez-igusa/alvarez-igusa.pdf
INPUT alvarez-igusa/alvarez-igusa.pdf
INPUT ./alvarez-igusa/alvarez-igusa.pdf
INPUT ./alvarez-igusa/alvarez-igusa.pdf
INPUT alvarez-igusa/alvarez-igusa.pdf
INPUT ./alvarez-igusa/alvarez-igusa.pdf
INPUT alvarez-igusa/alvarez-igusa.pdf
INPUT ./alvarez-igusa/alvarez-igusa.pdf
INPUT alvarez-igusa/alvarez-igusa.pdf
INPUT ./alvarez-igusa/alvarez-igusa.pdf
INPUT ./alvarez-igusa/alvarez-igusa.pdf
INPUT alvarez-igusa/alvarez-igusa.pdf
INPUT ./alvarez-igusa/alvarez-igusa.pdf
INPUT alvarez-igusa/alvarez-igusa.pdf
INPUT ./alvarez-igusa/alvarez-igusa.pdf
INPUT alvarez-igusa/alvarez-igusa.pdf
INPUT ./alvarez-igusa/alvarez-igusa.pdf
INPUT ./alvarez-igusa/alvarez-igusa.pdf
INPUT alvarez-igusa/alvarez-igusa.pdf
INPUT ./alvarez-igusa/alvarez-igusa.pdf
INPUT alvarez-igusa/alvarez-igusa.pdf
INPUT ./alvarez-igusa/alvarez-igusa.pdf
INPUT alvarez-igusa/alvarez-igusa.pdf
INPUT ./alvarez-igusa/alvarez-igusa.pdf
INPUT ./alvarez-igusa/alvarez-igusa.pdf
INPUT alvarez-igusa/alvarez-igusa.pdf
INPUT ./alvarez-igusa/alvarez-igusa.pdf
INPUT alvarez-igusa/alvarez-igusa.pdf
INPUT ./alvarez-igusa/alvarez-igusa.pdf
INPUT alvarez-igusa/alvarez-igusa.pdf
INPUT ./alvarez-igusa/alvarez-igusa.pdf
INPUT ./alvarez-igusa/alvarez-igusa.pdf
INPUT alvarez-igusa/alvarez-igusa.pdf
INPUT ./alvarez-igusa/alvarez-igusa.pdf
INPUT alvarez-igusa/alvarez-igusa.pdf
INPUT ./alvarez-igusa/alvarez-igusa.pdf
INPUT alvarez-igusa/alvarez-igusa.pdf
INPUT ./alvarez-igusa/alvarez-igusa.pdf
INPUT ./alvarez-igusa/alvarez-igusa.pdf
INPUT alvarez-igusa/alvarez-igusa.pdf
INPUT ./alvarez-igusa/alvarez-igusa.pdf
INPUT alvarez-igusa/alvarez-igusa.pdf
INPUT ./alvarez-igusa/alvarez-igusa.pdf
INPUT alvarez-igusa/alvarez-igusa.pdf
INPUT ./alvarez-igusa/alvarez-igusa.pdf
INPUT ./alvarez-igusa/alvarez-igusa.pdf
INPUT alvarez-igusa/alvarez-igusa.pdf
INPUT ./alvarez-igusa/alvarez-igusa.pdf
INPUT alvarez-igusa/alvarez-igusa.pdf
INPUT ./alvarez-igusa/alvarez-igusa.pdf
INPUT alvarez-igusa/alvarez-igusa.pdf
INPUT ./alvarez-igusa/alvarez-igusa.pdf
INPUT ./alvarez-igusa/alvarez-igusa.pdf
INPUT alvarez-igusa/alvarez-igusa.pdf
INPUT ./alvarez-igusa/alvarez-igusa.pdf
INPUT alvarez-igusa/alvarez-igusa.pdf
INPUT ./alvarez-igusa/alvarez-igusa.pdf
INPUT alvarez-igusa/alvarez-igusa.pdf
INPUT ./alvarez-igusa/alvarez-igusa.pdf
INPUT ./alvarez-igusa/alvarez-igusa.pdf
INPUT alvarez-igusa/alvarez-igusa.pdf
INPUT ./alvarez-igusa/alvarez-igusa.pdf
INPUT alvarez-igusa/alvarez-igusa.pdf
INPUT ./alvarez-igusa/alvarez-igusa.pdf
INPUT alvarez-igusa/alvarez-igusa.pdf
INPUT ./alvarez-igusa/alvarez-igusa.pdf
INPUT ./alvarez-igusa/alvarez-igusa.pdf
INPUT alvarez-igusa/alvarez-igusa.pdf
INPUT ./alvarez-igusa/alvarez-igusa.pdf
INPUT alvarez-igusa/alvarez-igusa.pdf
INPUT ./alvarez-igusa/alvarez-igusa.pdf
INPUT alvarez-igusa/alvarez-igusa.pdf
INPUT ./alvarez-igusa/alvarez-igusa.pdf
INPUT ./alvarez-igusa/alvarez-igusa.pdf
INPUT alvarez-igusa/alvarez-igusa.pdf
INPUT ./alvarez-igusa/alvarez-igusa.pdf
INPUT alvarez-igusa/alvarez-igusa.pdf
INPUT ./alvarez-igusa/alvarez-igusa.pdf
INPUT alvarez-igusa/alvarez-igusa.pdf
INPUT ./alvarez-igusa/alvarez-igusa.pdf
INPUT ./alvarez-igusa/alvarez-igusa.pdf
INPUT alvarez-igusa/alvarez-igusa.pdf
INPUT ./alvarez-igusa/alvarez-igusa.pdf
INPUT alvarez-igusa/alvarez-igusa.pdf
INPUT ./alvarez-igusa/alvarez-igusa.pdf
INPUT alvarez-igusa/alvarez-igusa.pdf
INPUT ./alvarez-igusa/alvarez-igusa.pdf
INPUT ./alvarez-igusa/alvarez-igusa.pdf
INPUT alvarez-igusa/alvarez-igusa.pdf
INPUT ./alvarez-igusa/alvarez-igusa.pdf
INPUT alvarez-igusa/alvarez-igusa.pdf
INPUT ./alvarez-igusa/alvarez-igusa.pdf
INPUT alvarez-igusa/alvarez-igusa.pdf
INPUT ./alvarez-igusa/alvarez-igusa.pdf
INPUT ./alvarez-igusa/alvarez-igusa.pdf
INPUT alvarez-igusa/alvarez-igusa.pdf
INPUT ./alvarez-igusa/alvarez-igusa.pdf
INPUT alvarez-igusa/alvarez-igusa.pdf
INPUT ./alvarez-igusa/alvarez-igusa.pdf
INPUT alvarez-igusa/alvarez-igusa.pdf
INPUT ./alvarez-igusa/alvarez-igusa.pdf
INPUT ./alvarez-igusa/alvarez-igusa.pdf
INPUT alvarez-igusa/alvarez-igusa.pdf
INPUT ./alvarez-igusa/alvarez-igusa.pdf
INPUT alvarez-igusa/alvarez-igusa.pdf
INPUT ./alvarez-igusa/alvarez-igusa.pdf
INPUT alvarez-igusa/alvarez-igusa.pdf
INPUT ./alvarez-igusa/alvarez-igusa.pdf
INPUT ./alvarez-igusa/alvarez-igusa.pdf
INPUT alvarez-igusa/alvarez-igusa.pdf
INPUT ./alvarez-igusa/alvarez-igusa.pdf
INPUT alvarez-igusa/alvarez-igusa.pdf
INPUT ./alvarez-igusa/alvarez-igusa.pdf
INPUT alvarez-igusa/alvarez-igusa.pdf
INPUT ./alvarez-igusa/alvarez-igusa.pdf
INPUT ./alvarez-igusa/alvarez-igusa.pdf
INPUT alvarez-igusa/alvarez-igusa.pdf
INPUT ./alvarez-igusa/alvarez-igusa.pdf
INPUT alvarez-igusa/alvarez-igusa.pdf
INPUT ./alvarez-igusa/alvarez-igusa.pdf
INPUT alvarez-igusa/alvarez-igusa.pdf
INPUT ./alvarez-igusa/alvarez-igusa.pdf
INPUT ./alvarez-igusa/alvarez-igusa.pdf
INPUT alvarez-igusa/alvarez-igusa.pdf
INPUT ./alvarez-igusa/alvarez-igusa.pdf
INPUT alvarez-igusa/alvarez-igusa.pdf
INPUT ./alvarez-igusa/alvarez-igusa.pdf
INPUT alvarez-igusa/alvarez-igusa.pdf
INPUT ./alvarez-igusa/alvarez-igusa.pdf
INPUT ./alvarez-igusa/alvarez-igusa.pdf
INPUT alvarez-igusa/alvarez-igusa.pdf
INPUT ./alvarez-igusa/alvarez-igusa.pdf
INPUT alvarez-igusa/alvarez-igusa.pdf
INPUT ./alvarez-igusa/alvarez-igusa.pdf
INPUT alvarez-igusa/alvarez-igusa.pdf
INPUT ./alvarez-igusa/alvarez-igusa.pdf
INPUT ./alvarez-igusa/alvarez-igusa.pdf
INPUT alvarez-igusa/alvarez-igusa.pdf
INPUT ./alvarez-igusa/alvarez-igusa.pdf
INPUT alvarez-igusa/alvarez-igusa.pdf
INPUT ./alvarez-igusa/alvarez-igusa.pdf
INPUT alvarez-igusa/alvarez-igusa.pdf
INPUT ./alvarez-igusa/alvarez-igusa.pdf
INPUT ./alvarez-igusa/alvarez-igusa.pdf
INPUT alvarez-igusa/alvarez-igusa.pdf
INPUT ./alvarez-igusa/alvarez-igusa.pdf
INPUT alvarez-igusa/alvarez-igusa.pdf
INPUT ./alvarez-igusa/alvarez-igusa.pdf
INPUT alvarez-igusa/alvarez-igusa.pdf
INPUT ./alvarez-igusa/alvarez-igusa.pdf
INPUT ./alvarez-igusa/alvarez-igusa.pdf
INPUT alvarez-igusa/alvarez-igusa.pdf
INPUT ./alvarez-igusa/alvarez-igusa.pdf
INPUT alvarez-igusa/alvarez-igusa.pdf
INPUT ./alvarez-igusa/alvarez-igusa.pdf
INPUT masuda-et-al/masuda-et-al.pdf
INPUT masuda-et-al/masuda-et-al.pdf
INPUT ./masuda-et-al/masuda-et-al.pdf
INPUT ./masuda-et-al/masuda-et-al.pdf
INPUT ./masuda-et-al/masuda-et-al.pdf
INPUT masuda-et-al/masuda-et-al.pdf
INPUT ./masuda-et-al/masuda-et-al.pdf
INPUT ./masuda-et-al/masuda-et-al.pdf
INPUT masuda-et-al/masuda-et-al.pdf
INPUT ./masuda-et-al/masuda-et-al.pdf
INPUT ./masuda-et-al/masuda-et-al.pdf
INPUT masuda-et-al/masuda-et-al.pdf
INPUT ./masuda-et-al/masuda-et-al.pdf
INPUT masuda-et-al/masuda-et-al.pdf
INPUT ./masuda-et-al/masuda-et-al.pdf
INPUT masuda-et-al/masuda-et-al.pdf
INPUT ./masuda-et-al/masuda-et-al.pdf
INPUT masuda-et-al/masuda-et-al.pdf
INPUT ./masuda-et-al/masuda-et-al.pdf
INPUT ./masuda-et-al/masuda-et-al.pdf
INPUT masuda-et-al/masuda-et-al.pdf
INPUT ./masuda-et-al/masuda-et-al.pdf
INPUT masuda-et-al/masuda-et-al.pdf
INPUT ./masuda-et-al/masuda-et-al.pdf
INPUT masuda-et-al/masuda-et-al.pdf
INPUT ./masuda-et-al/masuda-et-al.pdf
INPUT ./masuda-et-al/masuda-et-al.pdf
INPUT masuda-et-al/masuda-et-al.pdf
INPUT ./masuda-et-al/masuda-et-al.pdf
INPUT masuda-et-al/masuda-et-al.pdf
INPUT ./masuda-et-al/masuda-et-al.pdf
INPUT masuda-et-al/masuda-et-al.pdf
INPUT ./masuda-et-al/masuda-et-al.pdf
INPUT ./masuda-et-al/masuda-et-al.pdf
INPUT masuda-et-al/masuda-et-al.pdf
INPUT ./masuda-et-al/masuda-et-al.pdf
INPUT masuda-et-al/masuda-et-al.pdf
INPUT ./masuda-et-al/masuda-et-al.pdf
INPUT masuda-et-al/masuda-et-al.pdf
INPUT ./masuda-et-al/masuda-et-al.pdf
INPUT ./masuda-et-al/masuda-et-al.pdf
INPUT masuda-et-al/masuda-et-al.pdf
INPUT ./masuda-et-al/masuda-et-al.pdf
INPUT masuda-et-al/masuda-et-al.pdf
INPUT ./masuda-et-al/masuda-et-al.pdf
INPUT masuda-et-al/masuda-et-al.pdf
INPUT ./masuda-et-al/masuda-et-al.pdf
INPUT ./masuda-et-al/masuda-et-al.pdf
INPUT masuda-et-al/masuda-et-al.pdf
INPUT ./masuda-et-al/masuda-et-al.pdf
INPUT masuda-et-al/masuda-et-al.pdf
INPUT ./masuda-et-al/masuda-et-al.pdf
INPUT masuda-et-al/masuda-et-al.pdf
INPUT ./masuda-et-al/masuda-et-al.pdf
INPUT ./masuda-et-al/masuda-et-al.pdf
INPUT masuda-et-al/masuda-et-al.pdf
INPUT ./masuda-et-al/masuda-et-al.pdf
INPUT masuda-et-al/masuda-et-al.pdf
INPUT ./masuda-et-al/masuda-et-al.pdf
INPUT masuda-et-al/masuda-et-al.pdf
INPUT ./masuda-et-al/masuda-et-al.pdf
INPUT ./masuda-et-al/masuda-et-al.pdf
INPUT masuda-et-al/masuda-et-al.pdf
INPUT ./masuda-et-al/masuda-et-al.pdf
INPUT masuda-et-al/masuda-et-al.pdf
INPUT ./masuda-et-al/masuda-et-al.pdf
INPUT masuda-et-al/masuda-et-al.pdf
INPUT ./masuda-et-al/masuda-et-al.pdf
INPUT ./masuda-et-al/masuda-et-al.pdf
INPUT masuda-et-al/masuda-et-al.pdf
INPUT ./masuda-et-al/masuda-et-al.pdf
INPUT masuda-et-al/masuda-et-al.pdf
INPUT ./masuda-et-al/masuda-et-al.pdf
INPUT masuda-et-al/masuda-et-al.pdf
INPUT ./masuda-et-al/masuda-et-al.pdf
INPUT ./masuda-et-al/masuda-et-al.pdf
INPUT masuda-et-al/masuda-et-al.pdf
INPUT ./masuda-et-al/masuda-et-al.pdf
INPUT masuda-et-al/masuda-et-al.pdf
INPUT ./masuda-et-al/masuda-et-al.pdf
INPUT masuda-et-al/masuda-et-al.pdf
INPUT ./masuda-et-al/masuda-et-al.pdf
INPUT ./masuda-et-al/masuda-et-al.pdf
INPUT masuda-et-al/masuda-et-al.pdf
INPUT ./masuda-et-al/masuda-et-al.pdf
INPUT masuda-et-al/masuda-et-al.pdf
INPUT ./masuda-et-al/masuda-et-al.pdf
INPUT masuda-et-al/masuda-et-al.pdf
INPUT ./masuda-et-al/masuda-et-al.pdf
INPUT ./masuda-et-al/masuda-et-al.pdf
INPUT masuda-et-al/masuda-et-al.pdf
INPUT ./masuda-et-al/masuda-et-al.pdf
INPUT masuda-et-al/masuda-et-al.pdf
INPUT ./masuda-et-al/masuda-et-al.pdf
INPUT masuda-et-al/masuda-et-al.pdf
INPUT ./masuda-et-al/masuda-et-al.pdf
INPUT ./masuda-et-al/masuda-et-al.pdf
INPUT masuda-et-al/masuda-et-al.pdf
INPUT ./masuda-et-al/masuda-et-al.pdf
INPUT masuda-et-al/masuda-et-al.pdf
INPUT ./masuda-et-al/masuda-et-al.pdf
INPUT masuda-et-al/masuda-et-al.pdf
INPUT ./masuda-et-al/masuda-et-al.pdf
INPUT ./masuda-et-al/masuda-et-al.pdf
INPUT masuda-et-al/masuda-et-al.pdf
INPUT ./masuda-et-al/masuda-et-al.pdf
INPUT masuda-et-al/masuda-et-al.pdf
INPUT ./masuda-et-al/masuda-et-al.pdf
INPUT masuda-et-al/masuda-et-al.pdf
INPUT ./masuda-et-al/masuda-et-al.pdf
INPUT ./masuda-et-al/masuda-et-al.pdf
INPUT masuda-et-al/masuda-et-al.pdf
INPUT ./masuda-et-al/masuda-et-al.pdf
INPUT masuda-et-al/masuda-et-al.pdf
INPUT ./masuda-et-al/masuda-et-al.pdf
INPUT masuda-et-al/masuda-et-al.pdf
INPUT ./masuda-et-al/masuda-et-al.pdf
INPUT ./masuda-et-al/masuda-et-al.pdf
INPUT masuda-et-al/masuda-et-al.pdf
INPUT ./masuda-et-al/masuda-et-al.pdf
INPUT masuda-et-al/masuda-et-al.pdf
INPUT ./masuda-et-al/masuda-et-al.pdf
INPUT masuda-et-al/masuda-et-al.pdf
INPUT ./masuda-et-al/masuda-et-al.pdf
INPUT ./masuda-et-al/masuda-et-al.pdf
INPUT masuda-et-al/masuda-et-al.pdf
INPUT ./masuda-et-al/masuda-et-al.pdf
INPUT masuda-et-al/masuda-et-al.pdf
INPUT ./masuda-et-al/masuda-et-al.pdf
INPUT masuda-et-al/masuda-et-al.pdf
INPUT ./masuda-et-al/masuda-et-al.pdf
INPUT ./masuda-et-al/masuda-et-al.pdf
INPUT masuda-et-al/masuda-et-al.pdf
INPUT ./masuda-et-al/masuda-et-al.pdf
INPUT masuda-et-al/masuda-et-al.pdf
INPUT ./masuda-et-al/masuda-et-al.pdf
INPUT masuda-et-al/masuda-et-al.pdf
INPUT ./masuda-et-al/masuda-et-al.pdf
INPUT ./masuda-et-al/masuda-et-al.pdf
INPUT masuda-et-al/masuda-et-al.pdf
INPUT ./masuda-et-al/masuda-et-al.pdf
INPUT masuda-et-al/masuda-et-al.pdf
INPUT ./masuda-et-al/masuda-et-al.pdf
INPUT masuda-et-al/masuda-et-al.pdf
INPUT ./masuda-et-al/masuda-et-al.pdf
INPUT ./masuda-et-al/masuda-et-al.pdf
INPUT masuda-et-al/masuda-et-al.pdf
INPUT ./masuda-et-al/masuda-et-al.pdf
INPUT masuda-et-al/masuda-et-al.pdf
INPUT ./masuda-et-al/masuda-et-al.pdf
INPUT masuda-et-al/masuda-et-al.pdf
INPUT ./masuda-et-al/masuda-et-al.pdf
INPUT ./masuda-et-al/masuda-et-al.pdf
INPUT masuda-et-al/masuda-et-al.pdf
INPUT ./masuda-et-al/masuda-et-al.pdf
INPUT masuda-et-al/masuda-et-al.pdf
INPUT ./masuda-et-al/masuda-et-al.pdf
INPUT masuda-et-al/masuda-et-al.pdf
INPUT ./masuda-et-al/masuda-et-al.pdf
INPUT ./masuda-et-al/masuda-et-al.pdf
INPUT masuda-et-al/masuda-et-al.pdf
INPUT ./masuda-et-al/masuda-et-al.pdf
INPUT masuda-et-al/masuda-et-al.pdf
INPUT ./masuda-et-al/masuda-et-al.pdf
INPUT masuda-et-al/masuda-et-al.pdf
INPUT ./masuda-et-al/masuda-et-al.pdf
INPUT ./masuda-et-al/masuda-et-al.pdf
INPUT masuda-et-al/masuda-et-al.pdf
INPUT ./masuda-et-al/masuda-et-al.pdf
INPUT masuda-et-al/masuda-et-al.pdf
INPUT ./masuda-et-al/masuda-et-al.pdf
INPUT masuda-et-al/masuda-et-al.pdf
INPUT ./masuda-et-al/masuda-et-al.pdf
INPUT ./masuda-et-al/masuda-et-al.pdf
INPUT masuda-et-al/masuda-et-al.pdf
INPUT ./masuda-et-al/masuda-et-al.pdf
INPUT masuda-et-al/masuda-et-al.pdf
INPUT ./masuda-et-al/masuda-et-al.pdf
INPUT masuda-et-al/masuda-et-al.pdf
INPUT ./masuda-et-al/masuda-et-al.pdf
INPUT ./masuda-et-al/masuda-et-al.pdf
INPUT masuda-et-al/masuda-et-al.pdf
INPUT ./masuda-et-al/masuda-et-al.pdf
INPUT masuda-et-al/masuda-et-al.pdf
INPUT ./masuda-et-al/masuda-et-al.pdf
INPUT masuda-et-al/masuda-et-al.pdf
INPUT ./masuda-et-al/masuda-et-al.pdf
INPUT ./masuda-et-al/masuda-et-al.pdf
INPUT masuda-et-al/masuda-et-al.pdf
INPUT ./masuda-et-al/masuda-et-al.pdf
INPUT masuda-et-al/masuda-et-al.pdf
INPUT ./masuda-et-al/masuda-et-al.pdf
OUTPUT JEP_2021__8_-cdrxml.tex
INPUT JEP_2021__8_.aux
INPUT /usr/local/texlive/2017/texmf-dist/fonts/enc/dvips/base/8r.enc
INPUT /usr/local/texlive/2017/texmf-dist/fonts/type1/public/amsfonts/cm/cmbx10.pfb
INPUT /usr/local/texlive/2017/texmf-dist/fonts/type1/public/amsfonts/cm/cmbx7.pfb
INPUT /usr/local/texlive/2017/texmf-dist/fonts/type1/public/amsfonts/cm/cmbx8.pfb
INPUT /usr/local/texlive/2017/texmf-dist/fonts/type1/public/amsfonts/cm/cmex10.pfb
INPUT /usr/local/texlive/2017/texmf-dist/fonts/type1/public/amsfonts/cmextra/cmex7.pfb
INPUT /usr/local/texlive/2017/texmf-dist/fonts/type1/public/amsfonts/cmextra/cmex8.pfb
INPUT /usr/local/texlive/2017/texmf-dist/fonts/type1/public/amsfonts/cmextra/cmex9.pfb
INPUT /usr/local/texlive/2017/texmf-dist/fonts/type1/public/amsfonts/cm/cmmi10.pfb
INPUT /usr/local/texlive/2017/texmf-dist/fonts/type1/public/amsfonts/cm/cmmi12.pfb
INPUT /usr/local/texlive/2017/texmf-dist/fonts/type1/public/amsfonts/cm/cmmi5.pfb
INPUT /usr/local/texlive/2017/texmf-dist/fonts/type1/public/amsfonts/cm/cmmi6.pfb
INPUT /usr/local/texlive/2017/texmf-dist/fonts/type1/public/amsfonts/cm/cmmi7.pfb
INPUT /usr/local/texlive/2017/texmf-dist/fonts/type1/public/amsfonts/cm/cmmi8.pfb
INPUT /usr/local/texlive/2017/texmf-dist/fonts/type1/public/amsfonts/cm/cmmi9.pfb
INPUT /usr/local/texlive/2017/texmf-dist/fonts/type1/public/amsfonts/cm/cmr10.pfb
INPUT /usr/local/texlive/2017/texmf-dist/fonts/type1/public/amsfonts/cm/cmr5.pfb
INPUT /usr/local/texlive/2017/texmf-dist/fonts/type1/public/amsfonts/cm/cmr6.pfb
INPUT /usr/local/texlive/2017/texmf-dist/fonts/type1/public/amsfonts/cm/cmr7.pfb
INPUT /usr/local/texlive/2017/texmf-dist/fonts/type1/public/amsfonts/cm/cmr8.pfb
INPUT /usr/local/texlive/2017/texmf-dist/fonts/type1/public/amsfonts/cm/cmr9.pfb
INPUT /usr/local/texlive/2017/texmf-dist/fonts/type1/public/amsfonts/cm/cmss10.pfb
INPUT /usr/local/texlive/2017/texmf-dist/fonts/type1/public/amsfonts/cm/cmss8.pfb
INPUT /usr/local/texlive/2017/texmf-dist/fonts/type1/public/amsfonts/cm/cmsy10.pfb
INPUT /usr/local/texlive/2017/texmf-dist/fonts/type1/public/amsfonts/cm/cmsy5.pfb
INPUT /usr/local/texlive/2017/texmf-dist/fonts/type1/public/amsfonts/cm/cmsy6.pfb
INPUT /usr/local/texlive/2017/texmf-dist/fonts/type1/public/amsfonts/cm/cmsy7.pfb
INPUT /usr/local/texlive/2017/texmf-dist/fonts/type1/public/amsfonts/cm/cmsy8.pfb
INPUT /usr/local/texlive/2017/texmf-dist/fonts/type1/public/amsfonts/cm/cmsy9.pfb
INPUT /usr/local/texlive/2017/texmf-dist/fonts/type1/public/amsfonts/cm/cmti8.pfb
INPUT /usr/local/texlive/2017/texmf-dist/fonts/type1/public/amsfonts/euler/eufm10.pfb
INPUT /usr/local/texlive/2017/texmf-dist/fonts/type1/public/lm/lmbx8.pfb
INPUT /usr/local/texlive/2017/texmf-dist/fonts/type1/public/lm/lmcsc10.pfb
INPUT /usr/local/texlive/2017/texmf-dist/fonts/type1/public/lm/lmr10.pfb
INPUT /usr/local/texlive/2017/texmf-dist/fonts/type1/public/lm/lmr7.pfb
INPUT /usr/local/texlive/2017/texmf-dist/fonts/type1/public/lm/lmr8.pfb
INPUT /usr/local/texlive/2017/texmf-dist/fonts/type1/public/lm/lmr9.pfb
INPUT /usr/local/texlive/2017/texmf-dist/fonts/type1/public/lm/lmri10.pfb
INPUT /usr/local/texlive/2017/texmf-dist/fonts/type1/public/lm/lmri7.pfb
INPUT /usr/local/texlive/2017/texmf-dist/fonts/type1/public/lm/lmri8.pfb
INPUT /usr/local/texlive/2017/texmf-dist/fonts/type1/public/lm/lmro8.pfb
INPUT /usr/local/texlive/2017/texmf-dist/fonts/type1/public/lm/lmss10.pfb
INPUT /usr/local/texlive/2017/texmf-dist/fonts/type1/public/lm/lmtt8.pfb
INPUT /usr/local/texlive/2017/texmf-dist/fonts/type1/public/amsfonts/symbols/msam10.pfb
INPUT /usr/local/texlive/2017/texmf-dist/fonts/type1/public/amsfonts/symbols/msam7.pfb
INPUT /usr/local/texlive/2017/texmf-dist/fonts/type1/public/amsfonts/symbols/msbm10.pfb
INPUT /usr/local/texlive/2017/texmf-dist/fonts/type1/public/amsfonts/symbols/msbm5.pfb
INPUT /usr/local/texlive/2017/texmf-dist/fonts/type1/public/amsfonts/symbols/msbm7.pfb
INPUT /usr/local/texlive/texmf-mersenne/fonts/type1/adobe-didot/pdor7d.pfb
INPUT /usr/local/texlive/texmf-mersenne/fonts/type1/adobe-didot/pdor8a.pfb
INPUT /usr/local/texlive/texmf-mersenne/fonts/type1/adobe-didot/pdorc7d.pfb
INPUT /usr/local/texlive/texmf-mersenne/fonts/type1/adobe-didot/pdord7d.pfb
INPUT /usr/local/texlive/texmf-mersenne/fonts/type1/adobe-didot/pdori8a.pfb
INPUT /usr/local/texlive/2017/texmf-dist/fonts/type1/public/rsfs/rsfs10.pfb
INPUT /usr/local/texlive/2017/texmf-dist/fonts/type1/public/rsfs/rsfs5.pfb
INPUT /usr/local/texlive/2017/texmf-dist/fonts/type1/public/rsfs/rsfs7.pfb
INPUT /usr/local/texlive/2017/texmf-dist/fonts/type1/public/xypic/xybsql10.pfb
INPUT /usr/local/texlive/2017/texmf-dist/fonts/type1/public/xypic/xycmat10.pfb
INPUT /usr/local/texlive/2017/texmf-dist/fonts/type1/public/xypic/xycmbt10.pfb
