{
    "groups": {
        "can_manage_import": {

            "auth": {
                "group": [
                    "view_group"
                ],
                "permission": [
                    "view_permission"
                ],
                "user": [
                    "view_user"
                ]
            },
            "contenttypes": {
                "contenttype": [
                    "view_contenttype"
                ]
            },
            "django_celery_results": {
                "chordcounter": [
                    "add_chordcounter",
                    "change_chordcounter",
                    "delete_chordcounter",
                    "view_chordcounter"
                ],
                "groupresult": [
                    "add_groupresult",
                    "change_groupresult",
                    "delete_groupresult",
                    "view_groupresult"
                ],
                "taskresult": [
                    "add_taskresult",
                    "change_taskresult",
                    "delete_taskresult",
                    "view_taskresult"
                ]
            },
            "gdml": {
                "gdml_log": [
                    "add_gdml_log",
                    "change_gdml_log",
                    "delete_gdml_log",
                    "view_gdml_log"
                ],
                "oai_article": [
                    "add_oai_article",
                    "change_oai_article",
                    "delete_oai_article",
                    "view_oai_article"
                ],
                "oai_book": [
                    "add_oai_book",
                    "change_oai_book",
                    "delete_oai_book",
                    "view_oai_book"
                ],
                "oai_harvest": [
                    "add_oai_harvest",
                    "change_oai_harvest",
                    "delete_oai_harvest",
                    "view_oai_harvest"
                ],
                "source": [
                    "add_source",
                    "change_source",
                    "delete_source",
                    "view_source"
                ]
            },
            "history": {
                "historyevent": [
                    "add_historyevent",
                    "change_historyevent",
                    "delete_historyevent",
                    "view_historyevent"
                ]
            },
            "ptf": {
                "abstract": [
                    "add_abstract",
                    "change_abstract",
                    "delete_abstract",
                    "view_abstract"
                ],
                "article": [
                    "add_article",
                    "change_article",
                    "delete_article",
                    "view_article"
                ],
                "author": [
                    "add_author",
                    "change_author",
                    "delete_author",
                    "view_author"
                ],
                "award": [
                    "add_award",
                    "change_award",
                    "delete_award",
                    "view_award"
                ],
                "bibitem": [
                    "add_bibitem",
                    "change_bibitem",
                    "delete_bibitem",
                    "view_bibitem"
                ],
                "bibitemid": [
                    "add_bibitemid",
                    "change_bibitemid",
                    "delete_bibitemid",
                    "view_bibitemid"
                ],
                "collection": [
                    "add_collection",
                    "change_collection",
                    "delete_collection",
                    "view_collection"
                ],
                "collectionmembership": [
                    "add_collectionmembership",
                    "change_collectionmembership",
                    "delete_collectionmembership",
                    "view_collectionmembership"
                ],
                "container": [
                    "add_container",
                    "change_container",
                    "delete_container",
                    "view_container"
                ],
                "contrib": [
                    "add_contrib",
                    "change_contrib",
                    "delete_contrib",
                    "view_contrib"
                ],
                "contribaddress": [
                    "add_contribaddress",
                    "change_contribaddress",
                    "delete_contribaddress",
                    "view_contribaddress"
                ],
                "contribgroup": [
                    "add_contribgroup",
                    "change_contribgroup",
                    "delete_contribgroup",
                    "view_contribgroup"
                ],
                "contribution": [
                    "add_contribution",
                    "change_contribution",
                    "delete_contribution",
                    "view_contribution"
                ],
                "custommeta": [
                    "add_custommeta",
                    "change_custommeta",
                    "delete_custommeta",
                    "view_custommeta"
                ],
                "datastream": [
                    "add_datastream",
                    "change_datastream",
                    "delete_datastream",
                    "view_datastream"
                ],
                "event": [
                    "add_event",
                    "change_event",
                    "delete_event",
                    "view_event"
                ],
                "eventseries": [
                    "add_eventseries",
                    "change_eventseries",
                    "delete_eventseries",
                    "view_eventseries"
                ],
                "extid": [
                    "add_extid",
                    "change_extid",
                    "delete_extid",
                    "view_extid"
                ],
                "extlink": [
                    "add_extlink",
                    "change_extlink",
                    "delete_extlink",
                    "view_extlink"
                ],
                "extrelationship": [
                    "add_extrelationship",
                    "change_extrelationship",
                    "delete_extrelationship",
                    "view_extrelationship"
                ],
                "frontmatter": [
                    "add_frontmatter",
                    "change_frontmatter",
                    "delete_frontmatter",
                    "view_frontmatter"
                ],
                "graphicalabstract": [
                    "add_graphicalabstract",
                    "change_graphicalabstract",
                    "delete_graphicalabstract",
                    "view_graphicalabstract"
                ],
                "history": [
                    "add_history",
                    "change_history",
                    "delete_history",
                    "view_history"
                ],
                "kwd": [
                    "add_kwd",
                    "change_kwd",
                    "delete_kwd",
                    "view_kwd"
                ],
                "langtable": [
                    "add_langtable",
                    "change_langtable",
                    "delete_langtable",
                    "view_langtable"
                ],
                "metadatapart": [
                    "add_metadatapart",
                    "change_metadatapart",
                    "delete_metadatapart",
                    "view_metadatapart"
                ],
                "person": [
                    "add_person",
                    "change_person",
                    "delete_person",
                    "view_person"
                ],
                "personinfo": [
                    "add_personinfo",
                    "change_personinfo",
                    "delete_personinfo",
                    "view_personinfo"
                ],
                "provider": [
                    "add_provider",
                    "change_provider",
                    "delete_provider",
                    "view_provider"
                ],
                "ptfsite": [
                    "add_ptfsite",
                    "change_ptfsite",
                    "delete_ptfsite",
                    "view_ptfsite"
                ],
                "publisher": [
                    "add_publisher",
                    "change_publisher",
                    "delete_publisher",
                    "view_publisher"
                ],
                "relatedarticles": [
                    "add_relatedarticles",
                    "change_relatedarticles",
                    "delete_relatedarticles",
                    "view_relatedarticles"
                ],
                "relatedobject": [
                    "add_relatedobject",
                    "change_relatedobject",
                    "delete_relatedobject",
                    "view_relatedobject"
                ],
                "relationname": [
                    "add_relationname",
                    "change_relationname",
                    "delete_relationname",
                    "view_relationname"
                ],
                "relationship": [
                    "add_relationship",
                    "change_relationship",
                    "delete_relationship",
                    "view_relationship"
                ],
                "resource": [
                    "add_resource",
                    "change_resource",
                    "delete_resource",
                    "view_resource"
                ],
                "resourceattribute": [
                    "add_resourceattribute",
                    "change_resourceattribute",
                    "delete_resourceattribute",
                    "view_resourceattribute"
                ],
                "resourcecategory": [
                    "add_resourcecategory",
                    "change_resourcecategory",
                    "delete_resourcecategory",
                    "view_resourcecategory"
                ],
                "resourcecount": [
                    "add_resourcecount",
                    "change_resourcecount",
                    "delete_resourcecount",
                    "view_resourcecount"
                ],
                "resourceid": [
                    "add_resourceid",
                    "change_resourceid",
                    "delete_resourceid",
                    "view_resourceid"
                ],
                "serialhistory": [
                    "add_serialhistory",
                    "change_serialhistory",
                    "delete_serialhistory",
                    "view_serialhistory"
                ],
                "sitemembership": [
                    "add_sitemembership",
                    "change_sitemembership",
                    "delete_sitemembership",
                    "view_sitemembership"
                ],
                "stats": [
                    "add_stats",
                    "change_stats",
                    "delete_stats",
                    "view_stats"
                ],
                "subj": [
                    "add_subj",
                    "change_subj",
                    "delete_subj",
                    "view_subj"
                ],
                "supplementarymaterial": [
                    "add_supplementarymaterial",
                    "change_supplementarymaterial",
                    "delete_supplementarymaterial",
                    "view_supplementarymaterial"
                ],
                "translatedarticle": [
                    "add_translatedarticle",
                    "change_translatedarticle",
                    "delete_translatedarticle",
                    "view_translatedarticle"
                ],
                "xmlbase": [
                    "add_xmlbase",
                    "change_xmlbase",
                    "delete_xmlbase",
                    "view_xmlbase"
                ]
            },
            "sessions": {
                "session": [
                    "add_session",
                    "change_session",
                    "delete_session",
                    "view_session"
                ]
            },
            "sites": {
                "site": [
                    "view_site"
                ]
            }
        },
        "can_manage_resources": {
            "account": {
                "emailaddress": [
                    "add_emailaddress",
                    "change_emailaddress",
                    "delete_emailaddress",
                    "view_emailaddress"
                ],
                "emailconfirmation": [
                    "view_emailconfirmation"
                ]
            },
            "gdml": {
                "gdml_log": [
                    "add_gdml_log",
                    "change_gdml_log",
                    "delete_gdml_log",
                    "view_gdml_log"
                ],
                "oai_article": [
                    "add_oai_article",
                    "change_oai_article",
                    "delete_oai_article",
                    "view_oai_article"
                ],
                "oai_book": [
                    "add_oai_book",
                    "change_oai_book",
                    "delete_oai_book",
                    "view_oai_book"
                ],
                "oai_harvest": [
                    "add_oai_harvest",
                    "change_oai_harvest",
                    "delete_oai_harvest",
                    "view_oai_harvest"
                ],
                "periode": [
                    "add_periode",
                    "change_periode",
                    "delete_periode",
                    "view_periode"
                ],
                "source": [
                    "view_source"
                ]
            },
            "history": {
                "historyevent": [
                    "add_historyevent",
                    "change_historyevent",
                    "delete_historyevent",
                    "view_historyevent"
                ]
            },
            "ptf": {
                "abstract": [
                    "add_abstract",
                    "change_abstract",
                    "delete_abstract",
                    "view_abstract"
                ],
                "article": [
                    "add_article",
                    "change_article",
                    "delete_article",
                    "view_article"
                ],
                "author": [
                    "add_author",
                    "change_author",
                    "delete_author",
                    "view_author"
                ],
                "award": [
                    "add_award",
                    "change_award",
                    "delete_award",
                    "view_award"
                ],
                "bibitem": [
                    "add_bibitem",
                    "change_bibitem",
                    "delete_bibitem",
                    "view_bibitem"
                ],
                "bibitemid": [
                    "add_bibitemid",
                    "change_bibitemid",
                    "delete_bibitemid",
                    "view_bibitemid"
                ],
                "collection": [
                    "add_collection",
                    "change_collection",
                    "delete_collection",
                    "view_collection"
                ],
                "collectionmembership": [
                    "add_collectionmembership",
                    "change_collectionmembership",
                    "delete_collectionmembership",
                    "view_collectionmembership"
                ],
                "container": [
                    "add_container",
                    "change_container",
                    "delete_container",
                    "view_container"
                ],
                "contrib": [
                    "add_contrib",
                    "change_contrib",
                    "delete_contrib",
                    "view_contrib"
                ],
                "contribaddress": [
                    "add_contribaddress",
                    "change_contribaddress",
                    "delete_contribaddress",
                    "view_contribaddress"
                ],
                "contribgroup": [
                    "add_contribgroup",
                    "change_contribgroup",
                    "delete_contribgroup",
                    "view_contribgroup"
                ],
                "contribution": [
                    "add_contribution",
                    "change_contribution",
                    "delete_contribution",
                    "view_contribution"
                ],
                "custommeta": [
                    "add_custommeta",
                    "change_custommeta",
                    "delete_custommeta",
                    "view_custommeta"
                ],
                "datastream": [
                    "add_datastream",
                    "change_datastream",
                    "delete_datastream",
                    "view_datastream"
                ],
                "event": [
                    "add_event",
                    "change_event",
                    "delete_event",
                    "view_event"
                ],
                "eventseries": [
                    "add_eventseries",
                    "change_eventseries",
                    "delete_eventseries",
                    "view_eventseries"
                ],
                "extid": [
                    "add_extid",
                    "change_extid",
                    "delete_extid",
                    "view_extid"
                ],
                "extlink": [
                    "add_extlink",
                    "change_extlink",
                    "delete_extlink",
                    "view_extlink"
                ],
                "extrelationship": [
                    "add_extrelationship",
                    "change_extrelationship",
                    "delete_extrelationship",
                    "view_extrelationship"
                ],
                "frontmatter": [
                    "add_frontmatter",
                    "change_frontmatter",
                    "delete_frontmatter",
                    "view_frontmatter"
                ],
                "graphicalabstract": [
                    "add_graphicalabstract",
                    "change_graphicalabstract",
                    "delete_graphicalabstract",
                    "view_graphicalabstract"
                ],
                "history": [
                    "add_history",
                    "change_history",
                    "delete_history",
                    "view_history"
                ],
                "kwd": [
                    "add_kwd",
                    "change_kwd",
                    "delete_kwd",
                    "view_kwd"
                ],
                "langtable": [
                    "add_langtable",
                    "change_langtable",
                    "delete_langtable",
                    "view_langtable"
                ],
                "metadatapart": [
                    "add_metadatapart",
                    "change_metadatapart",
                    "delete_metadatapart",
                    "view_metadatapart"
                ],
                "person": [
                    "add_person",
                    "change_person",
                    "delete_person",
                    "view_person"
                ],
                "personinfo": [
                    "add_personinfo",
                    "change_personinfo",
                    "delete_personinfo",
                    "view_personinfo"
                ],
                "provider": [
                    "add_provider",
                    "change_provider",
                    "delete_provider",
                    "view_provider"
                ],
                "ptfsite": [
                    "add_ptfsite",
                    "change_ptfsite",
                    "delete_ptfsite",
                    "view_ptfsite"
                ],
                "publisher": [
                    "add_publisher",
                    "change_publisher",
                    "delete_publisher",
                    "view_publisher"
                ],
                "relatedarticles": [
                    "add_relatedarticles",
                    "change_relatedarticles",
                    "delete_relatedarticles",
                    "view_relatedarticles"
                ],
                "relatedobject": [
                    "add_relatedobject",
                    "change_relatedobject",
                    "delete_relatedobject",
                    "view_relatedobject"
                ],
                "relationname": [
                    "add_relationname",
                    "change_relationname",
                    "delete_relationname",
                    "view_relationname"
                ],
                "relationship": [
                    "add_relationship",
                    "change_relationship",
                    "delete_relationship",
                    "view_relationship"
                ],
                "resource": [
                    "add_resource",
                    "change_resource",
                    "delete_resource",
                    "view_resource"
                ],
                "resourceattribute": [
                    "add_resourceattribute",
                    "change_resourceattribute",
                    "delete_resourceattribute",
                    "view_resourceattribute"
                ],
                "resourcecategory": [
                    "add_resourcecategory",
                    "change_resourcecategory",
                    "delete_resourcecategory",
                    "view_resourcecategory"
                ],
                "resourcecount": [
                    "add_resourcecount",
                    "change_resourcecount",
                    "delete_resourcecount",
                    "view_resourcecount"
                ],
                "resourceid": [
                    "add_resourceid",
                    "change_resourceid",
                    "delete_resourceid",
                    "view_resourceid"
                ],
                "serialhistory": [
                    "add_serialhistory",
                    "change_serialhistory",
                    "delete_serialhistory",
                    "view_serialhistory"
                ],
                "sitemembership": [
                    "add_sitemembership",
                    "change_sitemembership",
                    "delete_sitemembership",
                    "view_sitemembership"
                ],
                "stats": [
                    "add_stats",
                    "change_stats",
                    "delete_stats",
                    "view_stats"
                ],
                "subj": [
                    "add_subj",
                    "change_subj",
                    "delete_subj",
                    "view_subj"
                ],
                "supplementarymaterial": [
                    "add_supplementarymaterial",
                    "change_supplementarymaterial",
                    "delete_supplementarymaterial",
                    "view_supplementarymaterial"
                ],
                "translatedarticle": [
                    "add_translatedarticle",
                    "change_translatedarticle",
                    "delete_translatedarticle",
                    "view_translatedarticle"
                ],
                "xmlbase": [
                    "add_xmlbase",
                    "change_xmlbase",
                    "delete_xmlbase",
                    "view_xmlbase"
                ]
            }
        }
    }
}