<?xml version="1.0" encoding="UTF-8" standalone="no"?>
<svg xmlns="http://www.w3.org/2000/svg" viewBox="0 0 357 357" version="1.1">
    <style type="text/css">
        .blue{fill:#88CBC9;}
        .yellow{fill:#FFEC00;}
        .black{fill:black;}
        .white{fill:white;}
        .green{fill:#BED033;}
        .stroke-black{stroke:black}
    </style>
    <!-- Remove that rectangle for transparent background -->
    <rect class="white" width="357" height="357"/>
    <g id="Artefacts">
        <path class="blue" d="m 267.8,-0.1 c 0,0 26.5,54.2 58.7,114.5 6.1,11.3 12.3,22.6 18.1,34 10.9,21.2 -1.3,46.9 -24.6,52.4 -13.1,3.1 -31.8,-1.8 -41.4,-20 -40.9,-77.3 -38.3,-77.1 -79.5,-154.3 -4.8,-9 -13.9,-26.9 -13.9,-26.9 z"/>
        <path class="blue" d="m 156.4,-0.2 c 0,0 25.3,49.7 41.5,79.9 6.1,11.3 12.3,22.6 18.1,34 10.9,21.2 -1.3,46.9 -24.6,52.4 -13.1,3.1 -31.8,-1.8 -41.4,-20 C 123.9,96.8 74.2,-0.4 74.2,-0.4 Z"/>
        <polygon class="blue" points="357,0 357,120 300,0"/>
        <polygon class="yellow" points="229,357 0,357 0,0 54,0"/>
    </g>
    <g id="LetterR" class="stroke-black">
        <path stroke-width="2" d="M 0,0 C 20.3,0.8 22,0.8 42.7,1 c 8.1,0.1 16.1,0.2 24.1,2 18.1,4.1 33,12.9 42.7,29.2 6.1,10.4 8.5,21.7 8.3,33.7 -0.3,11.6 -3.7,22 -10.6,31.3 -6,8 -13.7,14 -22.6,18.2 -5.4,2.6 -11.1,4.5 -16.7,6.7 -0.4,0.2 -0.8,0.3 -1.4,0.5 0.3,0.6 0.6,1.2 0.9,1.8 19.8,38.1 39.5,76.2 59.4,114.3 4.5,8.5 0,17.8 -7.9,20.2 -6.4,1.9 -13.1,-0.9 -16.3,-7.1 C 97.8,242.7 93.1,233.6 88.4,224.5 67.1,183.6 45.9,142.8 24.7,102 c -0.2,-0.4 -0.4,-0.9 -0.8,-1.5 2.1,-0.2 4,-0.4 5.9,-0.5 5.3,-0.4 10.7,-0.6 16,-1.3 12.3,-1.6 24.1,-5 34.1,-12.8 C 87.1,80.3 90.4,72.8 90.1,63.6 89.9,58.1 89.1,52.7 86.5,47.8 82.5,39.8 75.8,35 67.7,31.9 62.2,29.8 56.4,28.9 50.5,28.8 33.9,28.6 16.3,28.3 -0.3,28"/>
    </g>
    <g id="LetterO">
        <circle cx="122" cy="248" r="94" class="white"/>
        <circle cx="122" cy="248" r="58.5" stroke-width="29" class="white stroke-black"/>
        <circle cx="122" cy="248" r="31" class="yellow"/>
    </g>
    <g id="LetterA">
        <path class="stroke-black" stroke-width="0.5" d="m 359.1,357.1 c 0,0 -46.9,-97.1 -70.5,-145.8 -0.5,1 -0.9,1.7 -1.2,2.4 -23.5,48 -70.5,143.9 -70.5,143.9 l -36.7,0.3 c 0,0 53.2,-108.7 79.9,-163 4.4,-9 8.9,-18 13.3,-27.1 2.8,-5.8 6.9,-9.6 13.3,-10.5 0.2,0 0.3,-0.2 0.5,-0.2 1.1,0 2.1,0 3.2,0 0.2,0.1 0.3,0.2 0.5,0.2 6.4,1 10.5,4.7 13.3,10.5 16.3,33.9 32.7,67.8 49.1,101.7 2.3,4.8 7.9,16.3 7.9,16.3 l 0.1,71.3 z"/>
        <path class="green" d="m 340.3,357 c 0,0 -20.3,-41 -32.9,-67.1 -3.9,-8.9 -9.1,-15.9 -19.9,-15.6 -11.5,0.3 -14.8,7.7 -18.4,14.1 -2.1,4.4 -32.6,68.5 -32.6,68.5 z"/>
    </g>
    <g id="LetterI">
        <g class="black">
            <circle cx="222" cy="10" r="20" />
            <circle cx="222" cy="56" r="18" />
            <circle cx="222" cy="182" r="18" />
            <polygon points="204,56 240,56 240,182 204,182"/>
        </g>
    </g>
</svg>
