{
  "pid": "CRPHYS_2020__21_1",
  "deployed_date": "2020-09-17 13:55:03.224691+00:00",
  "articles": [
    {
      "pid": "CRPHYS_2020__21_1_107_0",
      "doi": "10.5802/crphys.12",
      "references": [
        {
          "bibids": [
            {
              "type": "zbl-item-id",
              "value": "0113.22105",
              "checked": false,
              "false_positive": false
            }
          ],
          "seq": 2
        },
        {
          "bibids": [
            {
              "type": "numdam-id",
              "value": "AIF_2009__59_2_659_0",
              "checked": false,
              "false_positive": true
            }
          ],
          "seq": 26
        }
      ],
      "extids": []
    }
  ]
}