[
  {
    "model": "ptf.Provider",
    "pk": 1,
    "fields": {
      "name": "mathdoc",
      "pid_type": "mathdoc-id"
    }
  },
  {
    "model": "ptf.RelationName",
    "pk": 1,
    "fields": {
      "left": "resolves",
      "right": "resolved-by",
      "gauche": "les solutions",
      "droite": "la question posée"
    }
  },
  {
    "model": "ptf.RelationName",
    "pk": 2,
    "fields": {
      "left": "complements",
      "right": "complemented-by",
      "gauche": "complète",
      "droite": "complété par"
    }
  },
  {
    "model": "ptf.RelationName",
    "pk": 3,
    "fields": {
      "left": "follows",
      "right": "followed-by",
      "gauche": "partie précédente",
      "droite": "partie suivante"
    }
  },
  {
    "model": "ptf.RelationName",
    "pk": 4,
    "fields": {
      "left": "corrects",
      "right": "corrected-by",
      "gauche": "corrige",
      "droite": "corrigé par"
    }
  },
  {
    "model": "ptf.RelationName",
    "pk": 5,
    "fields": {
      "left": "prev-pages",
      "right": "next-pages",
      "gauche": "pages précédentes",
      "droite": "pages suivantes"
    }
  },
  {
    "model": "ptf.RelationName",
    "pk": 6,
    "fields": {
      "left": "comments",
      "right": "commented-by",
      "gauche": "commente",
      "droite": "commenté par"
    }
  },
  {
    "model": "ptf.RelationName",
    "pk": 7,
    "fields": {
      "left": "replaces",
      "right": "replaced-by",
      "gauche": "remplace",
      "droite": "est remplacé par"
    }
  }
]
