[
{
    "model": "sites.site",
    "pk": 1,
    "fields": {
        "domain": "www.mersenne.projet.fr",
        "name": "aif"
    }
},
{
    "model": "ptf.ptfsite",
    "pk": 1,
    "fields": {
        "acro": "aif",
        "public": null,
        "prev_pub_date": null,
        "last_pub_date": null
    }
}
]