[
{
    "model": "sites.site",
    "pk": 29,
    "fields": {
        "domain": "www.mersenne.cras.fr",
        "name": "crmeca"
    }
},
{
    "model": "ptf.ptfsite",
    "pk": 29,
    "fields": {
        "acro": "crmeca",
        "public": null,
        "prev_pub_date": null,
        "last_pub_date": null
    }
}
]
