[
{
    "model": "sites.site",
    "pk": 14,
    "fields": {
        "domain": "www.mersenne.afst.fr",
        "name": "afst"
    }
},
{
    "model": "ptf.ptfsite",
    "pk": 14,
    "fields": {
        "acro": "afst",
        "public": null,
        "prev_pub_date": null,
        "last_pub_date": null
    }
}
]
