[
{
    "model": "sites.site",
    "pk": 104,
    "fields": {
        "domain": "www.mersenne.editor.fr",
        "name": "editor"
    }
},
{
    "model": "ptf.ptfsite",
    "pk": 104,
    "fields": {
        "acro": "editor",
        "public": null,
        "prev_pub_date": null,
        "last_pub_date": null
    }
}
]
