\BOOKMARK [1][-]{section.1}{\376\377\0001\000.\000\040\000I\000n\000t\000r\000o\000d\000u\000c\000t\000i\000o\000n}{}% 1
\BOOKMARK [1][-]{section.4}{\376\377\0002\000.\000\040\000T\000h\000e\000\040\000M\000I\000C\000R\000O\000S\000C\000O\000P\000E\000\040\000m\000i\000s\000s\000i\000o\000n}{}% 2
\BOOKMARK [1][-]{section.7}{\376\377\0003\000.\000\040\000T\000h\000e\000\040\000s\000a\000t\000e\000l\000l\000i\000t\000e\000\040\000a\000n\000d\000\040\000t\000h\000e\000\040\000a\000c\000c\000e\000l\000e\000r\000a\000t\000i\000o\000n\000\040\000a\000n\000d\000\040\000a\000t\000t\000i\000t\000u\000d\000e\000\040\000c\000o\000n\000t\000r\000o\000l\000\040\000s\000y\000s\000t\000e\000m}{}% 3
\BOOKMARK [2][-]{subsection.8}{\376\377\0003\000.\0001\000.\000\040\000S\000a\000t\000e\000l\000l\000i\000t\000e\000\040\000d\000e\000s\000i\000g\000n}{section.7}% 4
\BOOKMARK [2][-]{subsection.10}{\376\377\0003\000.\0002\000.\000\040\000T\000h\000e\000\040\000a\000t\000t\000i\000t\000u\000d\000e\000\040\000a\000n\000d\000\040\000a\000c\000c\000e\000l\000e\000r\000a\000t\000i\000o\000n\000\040\000c\000o\000n\000t\000r\000o\000l\000\040\000s\000u\000b\000s\000y\000s\000t\000e\000m}{section.7}% 5
\BOOKMARK [1][-]{section.13}{\376\377\0004\000.\000\040\000T\000h\000e\000\040\000s\000c\000i\000e\000n\000c\000e\000\040\000i\000n\000s\000t\000r\000u\000m\000e\000n\000t}{}% 6
\BOOKMARK [1][-]{section.16}{\376\377\0005\000.\000\040\000F\000i\000r\000s\000t\000\040\000r\000e\000s\000u\000l\000t\000s}{}% 7
\BOOKMARK [1][-]{section.23}{\376\377\0006\000.\000\040\000C\000o\000n\000c\000l\000u\000s\000i\000o\000n\000\040\000a\000n\000d\000\040\000p\000r\000o\000s\000p\000e\000c\000t\000s}{}% 8
\BOOKMARK [1][-]{section*.24}{\376\377\000R\000e\000f\000e\000r\000e\000n\000c\000e\000s}{}% 9
