\relax 
\providecommand\hyper@newdestlabel[2]{}
\catcode `:\active 
\catcode `;\active 
\catcode `!\active 
\catcode `?\active 
\providecommand\HyperFirstAtBeginDocument{\AtBeginDocument}
\HyperFirstAtBeginDocument{\ifx\hyper@anchor\@undefined
\global\let\oldcontentsline\contentsline
\gdef\contentsline#1#2#3#4{\oldcontentsline{#1}{#2}{#3}}
\global\let\oldnewlabel\newlabel
\gdef\newlabel#1#2{\newlabelxx{#1}#2}
\gdef\newlabelxx#1#2#3#4#5#6{\oldnewlabel{#1}{{#2}{#3}}}
\AtEndDocument{\ifx\hyper@anchor\@undefined
\let\contentsline\oldcontentsline
\let\newlabel\oldnewlabel
\fi}
\fi}
\global\let\hyper@last\relax 
\gdef\HyperFirstAtBeginDocument#1{#1}
\providecommand\HyField@AuxAddToFields[1]{}
\providecommand\HyField@AuxAddToCoFields[2]{}
\select@language{english}
\@writefile{toc}{\select@language{english}}
\@writefile{lof}{\select@language{english}}
\@writefile{lot}{\select@language{english}}
\select@language{english}
\@writefile{toc}{\select@language{english}}
\@writefile{lof}{\select@language{english}}
\@writefile{lot}{\select@language{english}}
\select@language{english}
\@writefile{toc}{\select@language{english}}
\@writefile{lof}{\select@language{english}}
\@writefile{lot}{\select@language{english}}
\select@language{english}
\@writefile{toc}{\select@language{english}}
\@writefile{lof}{\select@language{english}}
\@writefile{lot}{\select@language{english}}
\select@language{english}
\@writefile{toc}{\select@language{english}}
\@writefile{lof}{\select@language{english}}
\@writefile{lot}{\select@language{english}}
\select@language{english}
\@writefile{toc}{\select@language{english}}
\@writefile{lof}{\select@language{english}}
\@writefile{lot}{\select@language{english}}
\select@language{english}
\@writefile{toc}{\select@language{english}}
\@writefile{lof}{\select@language{english}}
\@writefile{lot}{\select@language{english}}
\select@language{english}
\@writefile{toc}{\select@language{english}}
\@writefile{lof}{\select@language{english}}
\@writefile{lot}{\select@language{english}}
\citation{gal1638}
\citation{newt1686}
\citation{eotvos1922}
\citation{schlam2008}
\citation{chabe2020}
\citation{nord1968}
\citation{visnu2018}
\@writefile{toc}{\contentsline {section}{\tocsection {}{1}{Introduction}}{140}{section.1}}
\newlabel{sec1}{{1}{140}{Introduction}{section.1}{}}
\newlabel{eq:1}{{1}{140}{Introduction}{equation.2}{}}
\newlabel{eq:2}{{2}{140}{Introduction}{equation.3}{}}
\citation{einstein07}
\citation{einstein16}
\citation{abbott2016}
\citation{damour2012}
\citation{chapman01}
\citation{everitt2003}
\citation{toub2001,toub2012}
\@writefile{toc}{\contentsline {section}{\tocsection {}{2}{The MICROSCOPE mission}}{141}{section.4}}
\newlabel{sec:cont-de-miss}{{2}{141}{The MICROSCOPE mission}{section.4}{}}
\citation{hardy2013}
\@writefile{lof}{\contentsline {figure}{\numberline {1}{\ignorespaces Configuration of the experiment: the most sensitive axis $x$ (along the axis of the cylinders) of the accelerometers is maintained parallel to the orbital plane and rotates around the axis normal to the orbit.}}{142}{figure.5}}
\newlabel{fig:config}{{1}{142}{Configuration of the experiment: the most sensitive axis $x$ (along the axis of the cylinders) of the accelerometers is maintained parallel to the orbital plane and rotates around the axis normal to the orbit}{figure.5}{}}
\newlabel{eq:3}{{3}{142}{The MICROSCOPE mission}{equation.6}{}}
\citation{Touboul_2019}
\citation{prieur05}
\citation{ledu02}
\citation{prieur17}
\@writefile{toc}{\contentsline {section}{\tocsection {}{3}{The satellite and the acceleration and attitude control system}}{143}{section.7}}
\newlabel{sec:satellite}{{3}{143}{The satellite and the acceleration and attitude control system}{section.7}{}}
\@writefile{toc}{\contentsline {subsection}{\tocsubsection {}{3.1}{Satellite design}}{143}{subsection.8}}
\newlabel{sec3.1}{{3.1}{143}{Satellite design}{subsection.8}{}}
\@writefile{lof}{\contentsline {figure}{\numberline {2}{\ignorespaces (\copyright  {} AIT-CNES Y. Le Deuff). The MICROSCOPE satellite being integrated. This is a space laboratory of about 300\nonbreakingspace kg. Once closed, the shape is of a cube measuring $1.4\nonbreakingspace \mathrm  {m}\tmspace  +\thinmuskip {.1667em}{\times }\tmspace  +\thinmuskip {.1667em}1\nonbreakingspace \mathrm  {m} \tmspace  +\thinmuskip {.1667em}{\times }\tmspace  +\thinmuskip {.1667em} 1.5\nonbreakingspace \mathrm  {m}$. We distinguish in particular the payload T-SAGE (at the centre, under the silver coating), and the micro-propulsion $2\times 3$ tanks (on the left and right walls), carrying 16\nonbreakingspace kg of gas under a pressure of 400\nonbreakingspace bar at the beginning of life.}}{144}{figure.9}}
\newlabel{fig:sat}{{2}{144}{(\copyright {} AIT-CNES Y. Le Deuff). The MICROSCOPE satellite being integrated. This is a space laboratory of about 300~kg. Once closed, the shape is of a cube measuring $1.4~\mathrm {m}\,{\times }\,1~\mathrm {m} \,{\times }\, 1.5~\mathrm {m}$. We distinguish in particular the payload T-SAGE (at the centre, under the silver coating), and the micro-propulsion $2\times 3$ tanks (on the left and right walls), carrying 16~kg of gas under a pressure of 400~bar at the beginning of life}{figure.9}{}}
\@writefile{toc}{\contentsline {subsection}{\tocsubsection {}{3.2}{The attitude and acceleration control subsystem}}{144}{subsection.10}}
\newlabel{sec3.2}{{3.2}{144}{The attitude and acceleration control subsystem}{subsection.10}{}}
\citation{touboul04}
\citation{flury08}
\citation{marque10,rummel11}
\@writefile{lof}{\contentsline {figure}{\numberline {3}{\ignorespaces DFACS control loop schematic diagram.}}{145}{figure.11}}
\newlabel{fig:aacs}{{3}{145}{DFACS control loop schematic diagram}{figure.11}{}}
\@writefile{lof}{\contentsline {figure}{\numberline {4}{\ignorespaces Discrete Fourier Transform of the measured acceleration on the drag-free sensor along $X$ axis.}}{145}{figure.12}}
\newlabel{fig:measaacs}{{4}{145}{Discrete Fourier Transform of the measured acceleration on the drag-free sensor along $X$ axis}{figure.12}{}}
\@writefile{toc}{\contentsline {section}{\tocsection {}{4}{The science instrument}}{145}{section.13}}
\newlabel{sec:instrument}{{4}{145}{The science instrument}{section.13}{}}
\citation{Touboul_2019}
\citation{willemenot00b}
\@writefile{lof}{\contentsline {figure}{\numberline {5}{\ignorespaces Diagram of T-SAGE. Left: cross-section of one SU with the pair of concentric test masses surrounded by a set of 4 cylinders carrying the electrodes. Right: the two SUs, the two FEEUs and the two ICUs stacked into one unit called ICUME.}}{146}{figure.14}}
\newlabel{fig:instrument}{{5}{146}{Diagram of T-SAGE. Left: cross-section of one SU with the pair of concentric test masses surrounded by a set of 4 cylinders carrying the electrodes. Right: the two SUs, the two FEEUs and the two ICUs stacked into one unit called ICUME}{figure.14}{}}
\@writefile{toc}{\contentsline {section}{\tocsection {}{5}{First results}}{146}{section.16}}
\newlabel{sec:prem-result-et}{{5}{146}{First results}{section.16}{}}
\citation{Toub2017,Touboul_2019}
\@writefile{lof}{\contentsline {figure}{\numberline {6}{\ignorespaces Schematic of one degree of freedom servo-loop control.}}{147}{figure.15}}
\newlabel{fig:loop}{{6}{147}{Schematic of one degree of freedom servo-loop control}{figure.15}{}}
\@writefile{lof}{\contentsline {figure}{\numberline {7}{\ignorespaces Differences in the accelerations measured along the $X$-axis, between the two test masses of the SUREF instrument. Raw data (black) and after a running average over 240 points (yellow). The zoom on the averaged data (right panel) highlights the periodic signal due to the gravity gradient.}}{147}{figure.17}}
\newlabel{fig:suref}{{7}{147}{Differences in the accelerations measured along the $X$-axis, between the two test masses of the SUREF instrument. Raw data (black) and after a running average over 240 points (yellow). The zoom on the averaged data (right panel) highlights the periodic signal due to the gravity gradient}{figure.17}{}}
\citation{Touboul_2019}
\citation{Touboul_2019}
\@writefile{lof}{\contentsline {figure}{\numberline {8}{\ignorespaces Differences in the accelerations measured along the $X$-axis, between the two test masses of the SUEP instrument. Raw data (black) and after a running average over 240 points (yellow). The zoom on the averaged data (right panel) highlights the periodic signal due to the gravity gradient.}}{148}{figure.18}}
\newlabel{fig:suep}{{8}{148}{Differences in the accelerations measured along the $X$-axis, between the two test masses of the SUEP instrument. Raw data (black) and after a running average over 240 points (yellow). The zoom on the averaged data (right panel) highlights the periodic signal due to the gravity gradient}{figure.18}{}}
\newlabel{eq:4}{{4}{148}{First results}{equation.19}{}}
\newlabel{eq:5}{{6}{148}{First results}{equation.21}{}}
\@writefile{toc}{\contentsline {section}{\tocsection {}{6}{Conclusion and prospects}}{148}{section.23}}
\newlabel{sec:concl-persp}{{6}{148}{Conclusion and prospects}{section.23}{}}
\bibstyle{crunsrt}
\bibdata{crphys20201085}
\bibcite{gal1638}{1}
\bibcite{newt1686}{2}
\bibcite{eotvos1922}{3}
\bibcite{schlam2008}{4}
\bibcite{chabe2020}{5}
\bibcite{nord1968}{6}
\bibcite{visnu2018}{7}
\bibcite{einstein07}{8}
\bibcite{einstein16}{9}
\bibcite{abbott2016}{10}
\bibcite{damour2012}{11}
\bibcite{chapman01}{12}
\bibcite{everitt2003}{13}
\bibcite{toub2001}{14}
\bibcite{toub2012}{15}
\bibcite{hardy2013}{16}
\bibcite{Touboul_2019}{17}
\bibcite{prieur05}{18}
\bibcite{ledu02}{19}
\bibcite{prieur17}{20}
\bibcite{touboul04}{21}
\bibcite{flury08}{22}
\bibcite{marque10}{23}
\bibcite{rummel11}{24}
\@writefile{toc}{\contentsline {section}{\tocsection {}{}{References}}{149}{section*.24}}
\bibcite{willemenot00b}{25}
\bibcite{Toub2017}{26}
\newlabel{tocindent-1}{0pt}
\newlabel{tocindent0}{6.84pt}
\newlabel{tocindent1}{11.71999pt}
\newlabel{tocindent2}{19.03998pt}
\newlabel{tocindent3}{0pt}
\newlabel{tocindent4}{0pt}
\newlabel{tocindent5}{0pt}
\newlabel{TheLastPage}{150}
