This is BibTeX, Version 0.99d (TeX Live 2017)
Capacity: max_strings=100000, hash_size=100000, hash_prime=85009
The top-level auxiliary file: crphys20201085.aux
The style file: crunsrt.bst
Database file #1: crphys20201085.bib
You've used 26 entries,
            2617 wiz_defined-function locations,
            723 strings with 10363 characters,
and the built_in function-call counts, 11911 in all, are:
= -- 1082
> -- 891
< -- 2
+ -- 353
- -- 327
* -- 1197
:= -- 1958
add.period$ -- 26
call.type$ -- 26
change.case$ -- 214
chr.to.int$ -- 0
cite$ -- 26
duplicate$ -- 335
empty$ -- 810
format.name$ -- 327
if$ -- 2452
int.to.chr$ -- 0
int.to.str$ -- 26
missing$ -- 47
newline$ -- 91
num.names$ -- 54
pop$ -- 274
preamble$ -- 1
purify$ -- 214
quote$ -- 0
skip$ -- 150
stack$ -- 0
substring$ -- 533
swap$ -- 53
text.length$ -- 2
text.prefix$ -- 0
top$ -- 0
type$ -- 100
warning$ -- 0
while$ -- 68
width$ -- 28
write$ -- 244
